<svg style="width: 100%; height: 100%;" height="179pt" version="1.1" viewBox="0 0 583 179" width="583pt" xmlns="http://www.w3.org/2000/svg" xmlns:xlink="http://www.w3.org/1999/xlink">
 <defs>
  <style type="text/css">
*{stroke-linecap:butt;stroke-linejoin:round;}
  </style>
 </defs>
 <g id="figure_1">
  <g id="patch_1">
   <path d=" M0 179.666 L583.034 179.666 L583.034 0 L0 0 z " style="fill:#ffffff;"/>
  </g>
  <g id="axes_1">
   <g id="patch_2">
    <path d=" M40.5475 139.16 L292.361 139.16 L292.361 39.38 L40.5475 39.38 z " style="fill:#eaeaf2;"/>
   </g>
   <g id="matplotlib.axis_1">
    <g id="xtick_1">
     <g id="line2d_1">
      <path clip-path="url(#p233c017f95)" d=" M40.5475 139.16 L40.5475 39.38" style="fill:none;stroke:#ffffff;stroke-linecap:round;"/>
     </g>
     <g id="line2d_2">
      <defs>
       <path d=" M0 0 L0 0" id="m219da94a98" style="stroke:#262626;"/>
      </defs>
      <g>
       <use style="fill:#262626;stroke:#262626;" x="40.5475" xlink:href="#m219da94a98" y="139.16"/>
      </g>
     </g>
     <g id="line2d_3">
      <g>
       <use style="fill:#262626;stroke:#262626;" x="40.5475" xlink:href="#m219da94a98" y="39.38"/>
      </g>
     </g>
     <g id="text_1">
      <!-- 0 -->
      <defs>
       <path d=" M51.7031 34.4219 Q51.7031 24.5156 49.8281 17.75 Q47.9531 10.9844 44.7031 6.8125 Q41.4531 2.64062 37.0625 0.828125 Q32.6719 -0.984375 27.6875 -0.984375 Q22.6562 -0.984375 18.3125 0.828125 Q13.9688 2.64062 10.7656 6.78125 Q7.5625 10.9375 5.73438 17.7031 Q3.90625 24.4688 3.90625 34.4219 Q3.90625 44.8281 5.73438 51.6406 Q7.5625 58.4531 10.7812 62.5 Q14.0156 66.5469 18.4062 68.1875 Q22.7969 69.8281 27.9844 69.8281 Q32.9062 69.8281 37.2188 68.1875 Q41.5469 66.5469 44.7656 62.5 Q48 58.4531 49.8438 51.6406 Q51.7031 44.8281 51.7031 34.4219 M42.7812 34.4219 Q42.7812 42.625 41.7969 48.0625 Q40.8281 53.5156 38.9219 56.7656 Q37.0156 60.0156 34.25 61.3594 Q31.5 62.7031 27.9844 62.7031 Q24.2656 62.7031 21.4375 61.3281 Q18.6094 59.9688 16.6719 56.7188 Q14.75 53.4688 13.7656 48.0156 Q12.7969 42.5781 12.7969 34.4219 Q12.7969 26.5156 13.7969 21.0938 Q14.7969 15.6719 16.7188 12.375 Q18.6562 9.07812 21.4375 7.64062 Q24.2188 6.20312 27.7812 6.20312 Q31.25 6.20312 34.0312 7.64062 Q36.8125 9.07812 38.7344 12.375 Q40.6719 15.6719 41.7188 21.0938 Q42.7812 26.5156 42.7812 34.4219" id="LiberationSans-30"/>
      </defs>
      <g style="fill:#262626;" transform="translate(38.15765625 153.406875)scale(0.1 -0.1)">
       <use xlink:href="#LiberationSans-30"/>
      </g>
     </g>
    </g>
    <g id="xtick_2">
     <g id="line2d_4">
      <path clip-path="url(#p233c017f95)" d=" M103.532 139.16 L103.532 39.38" style="fill:none;stroke:#ffffff;stroke-linecap:round;"/>
     </g>
     <g id="line2d_5">
      <g>
       <use style="fill:#262626;stroke:#262626;" x="103.532273637" xlink:href="#m219da94a98" y="139.16"/>
      </g>
     </g>
     <g id="line2d_6">
      <g>
       <use style="fill:#262626;stroke:#262626;" x="103.532273637" xlink:href="#m219da94a98" y="39.38"/>
      </g>
     </g>
     <g id="text_2">
      <!-- 1000 -->
      <defs>
       <path d=" M7.625 0 L7.625 7.46875 L25.1406 7.46875 L25.1406 60.4062 L9.625 49.3125 L9.625 57.625 L25.875 68.7969 L33.9844 68.7969 L33.9844 7.46875 L50.7344 7.46875 L50.7344 0 z " id="LiberationSans-31"/>
      </defs>
      <g style="fill:#262626;" transform="translate(92.9869611368 153.406875)scale(0.1 -0.1)">
       <use xlink:href="#LiberationSans-31"/>
       <use x="55.615234375" xlink:href="#LiberationSans-30"/>
       <use x="111.23046875" xlink:href="#LiberationSans-30"/>
       <use x="166.845703125" xlink:href="#LiberationSans-30"/>
      </g>
     </g>
    </g>
    <g id="xtick_3">
     <g id="line2d_7">
      <path clip-path="url(#p233c017f95)" d=" M166.517 139.16 L166.517 39.38" style="fill:none;stroke:#ffffff;stroke-linecap:round;"/>
     </g>
     <g id="line2d_8">
      <g>
       <use style="fill:#262626;stroke:#262626;" x="166.517047274" xlink:href="#m219da94a98" y="139.16"/>
      </g>
     </g>
     <g id="line2d_9">
      <g>
       <use style="fill:#262626;stroke:#262626;" x="166.517047274" xlink:href="#m219da94a98" y="39.38"/>
      </g>
     </g>
     <g id="text_3">
      <!-- 2000 -->
      <defs>
       <path d=" M5.03125 0 L5.03125 6.20312 Q7.51562 11.9219 11.1094 16.2812 Q14.7031 20.6562 18.6562 24.1875 Q22.6094 27.7344 26.4844 30.7656 Q30.375 33.7969 33.5 36.8125 Q36.625 39.8438 38.5469 43.1562 Q40.4844 46.4844 40.4844 50.6875 Q40.4844 53.6094 39.5938 55.8281 Q38.7188 58.0625 37.0625 59.5625 Q35.4062 61.0781 33.0781 61.8281 Q30.7656 62.5938 27.9375 62.5938 Q25.2969 62.5938 22.9688 61.8594 Q20.6562 61.1406 18.8438 59.6719 Q17.0469 58.2031 15.8906 56.0312 Q14.75 53.8594 14.4062 50.9844 L5.42188 51.8125 Q5.85938 55.5156 7.46875 58.7812 Q9.07812 62.0625 11.9062 64.5312 Q14.75 67 18.7188 68.4062 Q22.7031 69.8281 27.9375 69.8281 Q33.0625 69.8281 37.0625 68.6094 Q41.0625 67.3906 43.8125 64.9844 Q46.5781 62.5938 48.0469 59.0781 Q49.5156 55.5625 49.5156 50.9844 Q49.5156 47.5156 48.2656 44.3906 Q47.0156 41.2656 44.9375 38.4219 Q42.875 35.5938 40.1406 32.9531 Q37.4062 30.3281 34.4219 27.8125 Q31.4531 25.2969 28.4219 22.8281 Q25.3906 20.3594 22.7188 17.8594 Q20.0625 15.375 17.9688 12.8125 Q15.875 10.25 14.7031 7.46875 L50.5938 7.46875 L50.5938 0 z " id="LiberationSans-32"/>
      </defs>
      <g style="fill:#262626;" transform="translate(155.842047274 153.406875)scale(0.1 -0.1)">
       <use xlink:href="#LiberationSans-32"/>
       <use x="55.615234375" xlink:href="#LiberationSans-30"/>
       <use x="111.23046875" xlink:href="#LiberationSans-30"/>
       <use x="166.845703125" xlink:href="#LiberationSans-30"/>
      </g>
     </g>
    </g>
    <g id="xtick_4">
     <g id="line2d_10">
      <path clip-path="url(#p233c017f95)" d=" M229.502 139.16 L229.502 39.38" style="fill:none;stroke:#ffffff;stroke-linecap:round;"/>
     </g>
     <g id="line2d_11">
      <g>
       <use style="fill:#262626;stroke:#262626;" x="229.50182091" xlink:href="#m219da94a98" y="139.16"/>
      </g>
     </g>
     <g id="line2d_12">
      <g>
       <use style="fill:#262626;stroke:#262626;" x="229.50182091" xlink:href="#m219da94a98" y="39.38"/>
      </g>
     </g>
     <g id="text_4">
      <!-- 3000 -->
      <defs>
       <path d=" M51.2188 19 Q51.2188 14.2656 49.6719 10.5469 Q48.1406 6.84375 45.1875 4.26562 Q42.2344 1.70312 37.8594 0.359375 Q33.5 -0.984375 27.875 -0.984375 Q21.4844 -0.984375 17.1094 0.609375 Q12.75 2.20312 9.90625 4.8125 Q7.07812 7.42188 5.65625 10.7656 Q4.25 14.1094 3.8125 17.6719 L12.8906 18.5 Q13.2812 15.7656 14.3281 13.5156 Q15.375 11.2812 17.1875 9.67188 Q19 8.0625 21.625 7.17188 Q24.2656 6.29688 27.875 6.29688 Q34.5156 6.29688 38.2969 9.5625 Q42.0938 12.8438 42.0938 19.2812 Q42.0938 23.0938 40.4062 25.4062 Q38.7188 27.7344 36.2031 29.0312 Q33.6875 30.3281 30.7344 30.7656 Q27.7812 31.2031 25.2969 31.2031 L20.3125 31.2031 L20.3125 38.8125 L25.0938 38.8125 Q27.5938 38.8125 30.2656 39.3281 Q32.9531 39.8438 35.1719 41.1875 Q37.4062 42.5312 38.8438 44.8281 Q40.2812 47.125 40.2812 50.6875 Q40.2812 56.2031 37.0312 59.3906 Q33.7969 62.5938 27.3906 62.5938 Q21.5781 62.5938 17.9844 59.6094 Q14.4062 56.6406 13.8125 51.2188 L4.98438 51.9062 Q5.51562 56.4531 7.46875 59.8125 Q9.42188 63.1875 12.4219 65.4062 Q15.4375 67.625 19.2812 68.7188 Q23.1406 69.8281 27.4844 69.8281 Q33.25 69.8281 37.3906 68.375 Q41.5469 66.9375 44.1875 64.4688 Q46.8281 62.0156 48.0625 58.6875 Q49.3125 55.375 49.3125 51.6094 Q49.3125 48.5781 48.4844 45.9375 Q47.6562 43.3125 45.8906 41.2031 Q44.1406 39.1094 41.4219 37.5938 Q38.7188 36.0781 34.9062 35.2969 L34.9062 35.1094 Q39.0625 34.6719 42.1406 33.2188 Q45.2188 31.7812 47.2188 29.625 Q49.2188 27.4844 50.2188 24.75 Q51.2188 22.0156 51.2188 19" id="LiberationSans-33"/>
      </defs>
      <g style="fill:#262626;" transform="translate(218.76588341 153.406875)scale(0.1 -0.1)">
       <use xlink:href="#LiberationSans-33"/>
       <use x="55.615234375" xlink:href="#LiberationSans-30"/>
       <use x="111.23046875" xlink:href="#LiberationSans-30"/>
       <use x="166.845703125" xlink:href="#LiberationSans-30"/>
      </g>
     </g>
    </g>
    <g id="xtick_5">
     <g id="text_5">
      <!-- 4000 -->
      <defs>
       <path d=" M43.0156 15.5781 L43.0156 0 L34.7188 0 L34.7188 15.5781 L2.29688 15.5781 L2.29688 22.4062 L33.7969 68.7969 L43.0156 68.7969 L43.0156 22.5156 L52.6875 22.5156 L52.6875 15.5781 z  M34.7188 58.8906 Q34.625 58.6406 34.2344 57.9375 Q33.8438 57.2344 33.3438 56.3438 Q32.8594 55.4688 32.3438 54.5625 Q31.8438 53.6562 31.4531 53.0781 L13.8125 27.0938 Q13.5781 26.7031 13.1094 26.0625 Q12.6406 25.4375 12.1562 24.7812 Q11.6719 24.125 11.1719 23.4844 Q10.6875 22.8594 10.4062 22.5156 L34.7188 22.5156 z " id="LiberationSans-34"/>
      </defs>
      <g style="fill:#262626;" transform="translate(281.674875797 153.406875)scale(0.1 -0.1)">
       <use xlink:href="#LiberationSans-34"/>
       <use x="55.615234375" xlink:href="#LiberationSans-30"/>
       <use x="111.23046875" xlink:href="#LiberationSans-30"/>
       <use x="166.845703125" xlink:href="#LiberationSans-30"/>
      </g>
     </g>
    </g>
   </g>
   <g id="matplotlib.axis_2">
    <g id="ytick_1">
     <g id="line2d_13">
      <path clip-path="url(#p233c017f95)" d=" M40.5475 139.16 L292.361 139.16" style="fill:none;stroke:#ffffff;stroke-linecap:round;"/>
     </g>
     <g id="line2d_14">
      <g>
       <use style="fill:#262626;stroke:#262626;" x="40.5475" xlink:href="#m219da94a98" y="139.16"/>
      </g>
     </g>
     <g id="line2d_15">
      <g>
       <use style="fill:#262626;stroke:#262626;" x="292.360625" xlink:href="#m219da94a98" y="139.16"/>
      </g>
     </g>
    </g>
    <g id="ytick_2">
     <g id="line2d_16">
      <path clip-path="url(#p233c017f95)" d=" M40.5475 114.215 L292.361 114.215" style="fill:none;stroke:#ffffff;stroke-linecap:round;"/>
     </g>
     <g id="line2d_17">
      <g>
       <use style="fill:#262626;stroke:#262626;" x="40.5475" xlink:href="#m219da94a98" y="114.215"/>
      </g>
     </g>
     <g id="line2d_18">
      <g>
       <use style="fill:#262626;stroke:#262626;" x="292.360625" xlink:href="#m219da94a98" y="114.215"/>
      </g>
     </g>
    </g>
    <g id="ytick_3">
     <g id="line2d_19">
      <path clip-path="url(#p233c017f95)" d=" M40.5475 89.27 L292.361 89.27" style="fill:none;stroke:#ffffff;stroke-linecap:round;"/>
     </g>
     <g id="line2d_20">
      <g>
       <use style="fill:#262626;stroke:#262626;" x="40.5475" xlink:href="#m219da94a98" y="89.27"/>
      </g>
     </g>
     <g id="line2d_21">
      <g>
       <use style="fill:#262626;stroke:#262626;" x="292.360625" xlink:href="#m219da94a98" y="89.27"/>
      </g>
     </g>
    </g>
    <g id="ytick_4">
     <g id="line2d_22">
      <path clip-path="url(#p233c017f95)" d=" M40.5475 64.325 L292.361 64.325" style="fill:none;stroke:#ffffff;stroke-linecap:round;"/>
     </g>
     <g id="line2d_23">
      <g>
       <use style="fill:#262626;stroke:#262626;" x="40.5475" xlink:href="#m219da94a98" y="64.325"/>
      </g>
     </g>
     <g id="line2d_24">
      <g>
       <use style="fill:#262626;stroke:#262626;" x="292.360625" xlink:href="#m219da94a98" y="64.325"/>
      </g>
     </g>
    </g>
    <g id="ytick_5">
     <g id="line2d_25">
      <path clip-path="url(#p233c017f95)" d=" M40.5475 39.38 L292.361 39.38" style="fill:none;stroke:#ffffff;stroke-linecap:round;"/>
     </g>
     <g id="line2d_26">
      <g>
       <use style="fill:#262626;stroke:#262626;" x="40.5475" xlink:href="#m219da94a98" y="39.38"/>
      </g>
     </g>
     <g id="line2d_27">
      <g>
       <use style="fill:#262626;stroke:#262626;" x="292.360625" xlink:href="#m219da94a98" y="39.38"/>
      </g>
     </g>
    </g>
   </g>
   <g id="patch_3">
    <path clip-path="url(#p233c017f95)" d=" M103.532 139.16 L103.532 39.38 L229.502 39.38 L229.502 139.16 z " style="fill:#55a868;opacity:0.2;"/>
   </g>
   <g id="line2d_28">
    <path clip-path="url(#p233c017f95)" d=" M40.5475 80.8783 L40.6735 75.2879 L40.7994 81.0838 L41.0514 102.547 L41.1773 100.615 L41.5553 75.9208 L41.9332 103.427 L42.0591 97.1734 L42.3111 75.4864 L42.437 78.485 L42.689 101.691 L42.815 102.07 L43.1929 75.2546 L43.5708 103.752 L43.6967 97.845 L43.9487 75.0187 L44.0746 78.0754 L44.3266 102.679 L44.4526 102.747 L44.8305 73.9576 L45.2084 105.687 L45.3343 98.4254 L45.5863 72.718 L45.7123 76.5822 L45.9642 104.863 L46.0902 104.938 L46.4681 71.4795 L46.846 108.068 L46.9719 100.527 L47.2239 70.759 L47.3499 74.093 L47.6018 106.118 L47.7278 107.516 L48.1057 69.1432 L48.4836 109.746 L48.6096 103.764 L48.8615 70.2231 L48.9875 70.6991 L49.3654 110.365 L49.7433 67.6863 L49.8692 74.4067 L50.1212 109.072 L50.2472 108.598 L50.6251 67.4395 L51.003 111.217 L51.1289 105.392 L51.3809 69.727 L51.5069 68.7927 L51.8848 111.826 L52.0107 101.351 L52.2627 67.2464 L52.3886 71.2114 L52.7665 111.268 L53.1445 65.8732 L53.2704 74.9906 L53.5224 111.369 L53.6483 108.904 L54.0262 66.5012 L54.4042 112.639 L54.5301 103.978 L54.7821 67.8684 L54.908 70.2863 L55.2859 110.127 L55.6638 68.9458 L55.7898 77.3776 L56.0418 107.063 L56.1677 103.809 L56.4197 75.3293 L56.5456 74.0859 L56.9235 103.426 L57.3014 77.2157 L57.4274 81.1062 L57.6794 98.7487 L57.8053 97.5765 L58.0573 82.3669 L58.1832 81.6785 L58.5611 95.6962 L58.9391 84.0389 L59.317 93.6885 L59.6949 84.9175 L60.0728 94.4201 L60.4507 82.6332 L60.8286 97.6974 L60.9546 94.0277 L61.2065 79.277 L61.3325 81.5759 L61.5844 99.9689 L61.7104 100.175 L62.0883 75.5943 L62.4662 104.506 L62.5922 99.6785 L62.8441 74.2635 L62.9701 74.8928 L63.348 106.295 L63.7259 71.4523 L63.8519 77.0013 L64.1038 105.769 L64.2298 105.27 L64.6077 71.3901 L64.9856 107.021 L65.1116 101.581 L65.3635 73.5138 L65.4895 73.9377 L65.8674 105.862 L66.2453 73.1812 L66.3713 78.0667 L66.6232 103.273 L66.7492 102.923 L67.1271 74.8334 L67.505 102.855 L67.631 98.787 L67.8829 77.9024 L68.0089 78.0808 L68.3868 100.674 L68.7647 79.0038 L68.8906 81.661 L69.1426 97.33 L69.2686 97.7299 L69.6465 81.2788 L69.8984 91.544 L70.0244 95.7304 L70.1503 94.5661 L70.4023 85.0078 L70.5283 84.1942 L70.9062 93.1012 L71.0321 92.1585 L71.2841 87.3437 L71.41 86.7725 L71.662 89.1637 L71.9139 91.009 L72.0399 90.9188 L72.2918 88.5411 L72.5438 86.731 L72.7957 90.755 L72.9217 92.8292 L73.0476 92.5512 L73.4256 84.2302 L73.5515 86.4307 L73.8035 95.1402 L73.9294 94.7221 L74.3073 81.6945 L74.5593 92.9733 L74.6852 97.9837 L74.8112 96.2363 L75.1891 79.424 L75.567 100.93 L75.693 96.8255 L75.9449 77.4612 L76.0709 77.769 L76.4488 103.427 L76.7008 83.3504 L76.8267 74.4938 L76.9527 77.1855 L77.3306 104.823 L77.7085 72.364 L77.8345 77.9308 L78.0864 105.179 L78.2124 105.046 L78.5903 70.9696 L78.8422 96.8033 L78.9682 107.758 L79.0942 103.883 L79.3461 72.9859 L79.4721 70.9389 L79.85 109.092 L79.976 100.933 L80.2279 70.466 L80.3539 72.8593 L80.7318 108.288 L81.1097 70.1146 L81.2357 76.565 L81.4876 106.173 L81.6136 105.486 L81.9915 71.7718 L82.3694 105.743 L82.4954 101.624 L82.7473 75.915 L82.8733 74.8433 L83.2512 103.539 L83.3771 97.8057 L83.6291 77.2275 L83.7551 78.2603 L84.133 100.663 L84.5109 79.563 L84.6368 80.8992 L85.0148 98.0401 L85.2667 87.0866 L85.3927 82.0955 L85.5186 82.3854 L85.8965 96.2734 L86.0225 94.3389 L86.4004 82.5381 L86.6524 91.5503 L86.7783 95.9011 L86.9043 95.6541 L87.2822 81.416 L87.4082 84.2027 L87.6601 96.889 L87.7861 97.0846 L88.164 80.1345 L88.29 83.9124 L88.5419 98.0565 L88.6679 97.1699 L89.0458 80.2601 L89.4237 97.8059 L89.5497 95.7083 L89.8016 82.6643 L89.9276 81.7834 L90.3055 96.2348 L90.4314 94.4074 L90.6834 84.314 L90.8093 83.2193 L91.1873 94.5618 L91.3132 94.451 L91.6911 83.4981 L91.8171 84.4664 L92.195 96.0692 L92.321 93.3815 L92.5729 82.0754 L92.6989 81.9741 L93.0768 98.5287 L93.2028 94.6924 L93.4547 79.621 L93.5807 80.6131 L93.9586 100.116 L94.3365 77.6302 L94.4625 81.3565 L94.7144 100.106 L94.8404 99.8279 L95.2183 77.4549 L95.5962 100.714 L95.7222 97.694 L95.9741 79.7012 L96.1001 79.3204 L96.478 99.2684 L96.7299 85.9485 L96.8559 80.5511 L96.9819 82.342 L97.2338 95.7038 L97.3598 96.5555 L97.7377 82.8051 L97.8636 85.125 L98.1156 94.0638 L98.2416 93.9607 L98.6195 85.0002 L98.7454 86.6314 L98.9974 92.4237 L99.1233 92.4187 L99.5012 86.448 L99.6272 87.3807 L99.8792 91.1542 L100.005 91.3961 L100.383 87.5575 L100.509 87.6178 L100.887 90.9633 L101.013 90.8757 L101.391 87.1975 L101.517 87.6127 L101.895 91.6867 L102.147 88.2026 L102.273 86.7302 L102.399 87.1664 L102.776 91.8094 L103.154 86.951 L103.28 87.3764 L103.658 91.2653 L103.91 88.9789 L104.162 87.6817 L104.414 89.5892 L104.666 90.8718 L104.792 90.185 L105.044 87.5429 L105.17 87.2942 L105.548 91.8006 L105.674 91.4246 L106.052 86.154 L106.178 87.6295 L106.43 92.524 L106.556 92.3272 L106.933 85.4746 L107.059 86.7156 L107.311 92.7423 L107.437 93.2849 L107.815 84.7341 L107.941 85.3788 L108.319 94.7458 L108.445 92.2081 L108.697 83.199 L108.823 83.7407 L109.201 96.8663 L109.327 93.0323 L109.579 80.6183 L109.705 82.1514 L110.083 99.2291 L110.461 77.6085 L110.587 81.6571 L110.839 101.075 L110.964 100.499 L111.342 75.4564 L111.72 104.217 L111.846 99.9044 L112.098 75.0125 L112.224 74.874 L112.602 105.988 L112.854 81.6982 L112.98 72.0395 L113.106 76.4369 L113.358 105.013 L113.484 105.737 L113.862 70.9054 L113.988 79.7327 L114.24 107.387 L114.366 103.861 L114.744 71.2058 L115.121 108.533 L115.247 101.969 L115.499 71.5195 L115.625 71.6 L116.003 109.554 L116.129 100.299 L116.381 69.1888 L116.507 72.0666 L116.885 110.555 L117.263 66.7122 L117.389 73.416 L117.641 109.843 L117.767 110.503 L118.145 65.5286 L118.271 76.2172 L118.523 112.208 L118.649 108.794 L119.027 65.9679 L119.404 113.053 L119.53 105.859 L119.782 68.3785 L119.908 67.7775 L120.286 112.453 L120.412 102.322 L120.664 67.8147 L120.79 70.513 L121.168 110.801 L121.546 68.1553 L121.672 73.4693 L121.924 107.079 L122.05 108.968 L122.428 68.3967 L122.554 76.4063 L122.806 108.633 L122.932 107.129 L123.309 68.7523 L123.687 109.853 L123.813 103.869 L124.065 71.0678 L124.191 71.0413 L124.569 108.879 L124.947 70.3923 L125.073 75.7873 L125.325 105.667 L125.451 105.432 L125.829 72.145 L126.207 105.694 L126.333 100.316 L126.585 74.9478 L126.711 76.0563 L127.089 103.283 L127.466 75.6416 L127.592 81.3015 L127.844 101.549 L127.97 99.2036 L128.222 79.0646 L128.348 78.3006 L128.726 100.354 L129.104 78.9513 L129.23 82.1544 L129.482 98.0379 L129.608 97.4896 L129.986 80.8582 L130.364 97.0481 L130.49 94.2176 L130.742 82.7974 L130.868 83.4322 L131.246 95.2233 L131.623 83.9246 L131.749 85.494 L132.001 93.4165 L132.127 93.6372 L132.505 85.0021 L132.631 86.4603 L132.883 92.7914 L133.009 93.0732 L133.387 85.0905 L133.513 86.1546 L133.891 93.6289 L134.269 84.4028 L134.395 86.1548 L134.647 93.9728 L134.773 93.6548 L135.151 84.1061 L135.529 94.7292 L135.655 92.6788 L135.906 83.982 L136.032 84.6602 L136.41 94.6888 L136.788 83.5269 L136.914 86.2864 L137.166 94.9069 L137.292 93.3728 L137.544 84.1209 L137.67 84.2927 L138.048 94.7889 L138.426 83.6595 L138.552 85.9346 L138.804 94.5339 L138.93 93.4764 L139.182 84.6784 L139.308 84.609 L139.686 94.0687 L140.063 84.5581 L140.189 86.8373 L140.441 93.7897 L140.567 92.3068 L140.819 84.894 L140.945 85.6242 L141.197 93.6029 L141.323 93.6928 L141.701 83.8665 L142.079 95.61 L142.205 92.8696 L142.457 82.4807 L142.583 83.7829 L142.835 95.7331 L142.961 96.3318 L143.339 81.2654 L143.591 92.8228 L143.717 97.4108 L143.843 95.1449 L144.094 81.7792 L144.22 82.0184 L144.598 97.1886 L144.976 81.4669 L145.102 84.6274 L145.354 96.226 L145.48 94.8601 L145.732 83.6779 L145.858 83.4859 L146.236 94.682 L146.614 84.4962 L146.866 91.0433 L146.992 93.3894 L147.118 91.8661 L147.37 85.6777 L147.496 86.7464 L147.748 92.5887 L147.874 91.7137 L148.125 85.923 L148.251 86.736 L148.503 92.9053 L148.629 92.2086 L148.881 85.2044 L149.007 85.5915 L149.259 93.7431 L149.385 94.0016 L149.763 83.1799 L150.141 96.8867 L150.267 93.2878 L150.519 80.3589 L150.645 82.6006 L150.897 98.7483 L151.023 98.7801 L151.401 77.2464 L151.779 102.999 L151.905 98.2935 L152.157 75.0532 L152.282 76.1862 L152.66 105.703 L153.038 70.951 L153.164 77.6797 L153.416 107.478 L153.542 105.703 L153.92 69.4972 L154.298 110.321 L154.424 102.716 L154.676 69.2699 L154.802 70.8905 L155.18 110.686 L155.558 67.1962 L155.684 73.9936 L155.936 109.422 L156.062 109.321 L156.439 66.7773 L156.691 98.5223 L156.817 111.41 L156.943 106.457 L157.195 70.3081 L157.321 68.236 L157.699 111.387 L157.825 102.206 L158.077 68.8151 L158.203 71.5108 L158.581 109.511 L158.959 69.0371 L159.085 76.1421 L159.337 107.238 L159.463 105.969 L159.841 71.1128 L160.219 106.843 L160.345 100.775 L160.596 73.9547 L160.722 75.3871 L161.1 103.876 L161.478 75.2479 L161.604 81.3778 L161.856 101.864 L161.982 98.9592 L162.234 78.5533 L162.36 78.6063 L162.738 100.277 L163.116 78.3444 L163.242 83.6865 L163.494 99.8918 L163.62 96.3182 L163.872 79.0488 L163.998 80.9333 L164.25 99.1013 L164.376 98.888 L164.753 78.2638 L165.131 101.818 L165.509 75.1812 L165.635 81.3453 L165.887 104.464 L166.013 100.696 L166.265 73.9045 L166.391 74.3478 L166.769 107.215 L167.147 69.3621 L167.273 77.7347 L167.525 109.559 L167.651 105.92 L167.903 70.5497 L168.029 68.4417 L168.407 112.605 L168.533 101.504 L168.784 65.6586 L168.91 70.8961 L169.162 110.667 L169.288 112.252 L169.666 63.9645 L169.792 76.1195 L170.044 114.136 L170.17 108.8 L170.422 67.7056 L170.548 65.5028 L170.926 114.434 L171.052 103.547 L171.304 65.825 L171.43 69.2914 L171.808 112.282 L172.186 66.281 L172.312 74.0071 L172.564 109.388 L172.69 108.706 L173.067 68.3226 L173.445 109.102 L173.571 104.332 L173.823 72.8408 L173.949 71.3921 L174.327 107.636 L174.453 99.9968 L174.705 72.7256 L174.831 74.6468 L175.209 105.559 L175.587 73.6745 L175.713 77.7916 L175.965 102.052 L176.091 103.142 L176.469 75.2378 L176.595 80.4522 L176.847 101.239 L176.973 100.876 L177.35 77.1284 L177.476 82.2045 L177.728 99.6786 L177.854 99.1238 L178.232 78.833 L178.358 82.9834 L178.61 98.0691 L178.736 98.0724 L179.114 79.9726 L179.24 82.9097 L179.492 97.1114 L179.618 97.9763 L179.996 80.1133 L180.122 82.6254 L180.374 97.0181 L180.5 98.033 L180.878 80.0313 L181.004 82.8701 L181.255 97.4126 L181.381 97.833 L181.759 79.9802 L181.885 83.544 L182.137 97.7206 L182.263 97.423 L182.641 80.102 L182.767 84.1682 L183.019 97.8836 L183.145 96.9689 L183.523 80.2737 L183.901 98.1173 L184.027 96.2546 L184.279 81.8773 L184.405 80.8026 L184.783 97.975 L184.909 94.5702 L185.161 81.3863 L185.287 82.3669 L185.664 96.8374 L186.042 81.7193 L186.294 92.3822 L186.42 96.4369 L186.546 94.0437 L186.798 82.5716 L186.924 83.8358 L187.176 95.5879 L187.302 95.3502 L187.68 82.4133 L188.058 97.0475 L188.436 80.5351 L188.562 84.7397 L188.814 98.7752 L188.94 95.8692 L189.192 79.462 L189.318 80.4878 L189.695 100.022 L190.073 77.1475 L190.325 94.836 L190.451 101.889 L190.577 98.222 L190.829 77.1878 L190.955 77.8888 L191.333 102.227 L191.711 75.6899 L191.837 81.9229 L192.089 102.538 L192.215 99.202 L192.467 77.2119 L192.593 77.442 L192.971 102.164 L193.349 76.2112 L193.475 81.7147 L193.726 101.6 L193.852 99.0635 L194.104 78.4515 L194.23 77.9049 L194.608 101.432 L194.986 77.1947 L195.112 81.0169 L195.364 100.32 L195.49 99.7624 L195.868 77.4387 L196.246 101.138 L196.372 97.6521 L196.624 78.8357 L196.75 78.4765 L197.128 101.071 L197.254 96.0744 L197.506 78.1663 L197.632 79.2295 L198.009 101.094 L198.387 77.3763 L198.513 79.7748 L198.891 101.345 L199.269 76.1984 L199.395 80.6544 L199.647 101.623 L199.773 101.235 L200.151 75.3319 L200.529 103.646 L200.655 99.7498 L200.907 76.041 L201.033 75.6995 L201.411 104.617 L201.663 82.6401 L201.789 73.7405 L201.914 77.4943 L202.166 103.221 L202.292 104.173 L202.67 72.842 L202.796 80.5865 L203.048 105.42 L203.174 102.105 L203.426 75.1018 L203.552 73.5933 L203.93 106.217 L204.056 98.4513 L204.308 72.6737 L204.434 75.9953 L204.686 104.036 L204.812 105.52 L205.19 71.2796 L205.316 79.9515 L205.568 107.643 L205.694 103.39 L205.946 72.0382 L206.071 71.1641 L206.449 110.105 L206.827 67.4062 L206.953 73.8017 L207.205 110.118 L207.331 109.53 L207.709 65.8701 L208.087 113.715 L208.213 105.3 L208.465 66.1764 L208.591 68.091 L208.969 113.547 L209.347 64.373 L209.473 73.6443 L209.725 112.256 L209.851 109.596 L210.228 66.6037 L210.606 111.764 L210.732 102.369 L210.984 69.0861 L211.11 72.772 L211.362 105.665 L211.488 107.204 L211.866 71.6827 L212.244 105.081 L212.37 100.145 L212.622 76.0833 L212.748 77.3911 L213.126 101.068 L213.504 78.3634 L213.882 98.771 L214.008 95.2311 L214.26 81.4012 L214.385 83.0877 L214.637 95.5317 L214.763 95.1911 L215.015 84.362 L215.141 83.8873 L215.519 94.0669 L215.897 84.8848 L216.275 93.5635 L216.653 84.7027 L217.031 94.5224 L217.409 82.978 L217.661 92.9648 L217.787 96.651 L217.913 93.8677 L218.165 81.1854 L218.291 82.5232 L218.542 97.264 L218.668 98.0586 L219.046 79.0317 L219.298 94.125 L219.424 100.052 L219.55 96.9197 L219.802 78.9568 L219.928 79.3808 L220.306 100.65 L220.684 77.4073 L220.81 81.7596 L221.062 100.394 L221.188 99.2587 L221.566 77.8234 L221.944 101.009 L222.07 97.0152 L222.322 78.5912 L222.448 78.9752 L222.825 100.794 L223.077 84.8409 L223.203 78.1962 L223.329 80.2052 L223.707 100.162 L224.085 78.4042 L224.211 81.1097 L224.463 98.3543 L224.589 99.672 L224.967 78.2644 L225.093 81.6771 L225.345 99.1928 L225.471 99.6446 L225.849 77.614 L225.975 82.4498 L226.227 100.494 L226.353 99.3358 L226.73 77.4005 L227.108 101.244 L227.234 97.6761 L227.486 78.8078 L227.612 78.8139 L227.99 100.292 L228.368 79.0654 L228.494 81.5709 L228.746 97.5197 L228.872 97.9849 L229.25 80.8823 L229.628 96.2655 L229.754 94.5657 L230.006 84.2063 L230.132 84.0676 L230.51 93.6959 L230.887 85.9575 L231.013 87.0094 L231.265 91.4237 L231.391 91.1773 L231.643 88.0519 L231.769 87.9761 L232.021 89.9467 L232.147 89.9465 L232.399 88.609 L232.525 88.9521 L232.777 90.3977 L232.903 89.7178 L233.155 87.4917 L233.281 88.2263 L233.533 91.5473 L233.659 91.1773 L234.037 86.4705 L234.415 92.6655 L234.541 91.6962 L234.793 85.8753 L234.919 85.4503 L235.296 94.0827 L235.422 92.8134 L235.8 83.4501 L236.178 96.8215 L236.304 94.693 L236.556 81.1112 L236.682 80.4421 L237.06 100.802 L237.186 95.9199 L237.438 76.4299 L237.564 77.9895 L237.942 104.464 L238.32 71.8487 L238.446 77.6409 L238.698 106.506 L238.824 106.001 L239.201 69.2709 L239.579 109.979 L239.705 104.997 L239.957 70.6858 L240.083 69.0148 L240.461 111.553 L240.587 102.143 L240.839 67.8287 L240.965 70.5386 L241.343 111.589 L241.721 66.2064 L241.847 73.2934 L242.099 110.078 L242.225 110.171 L242.603 66.0997 L242.855 98.5226 L242.981 111.848 L243.107 106.868 L243.358 69.968 L243.484 67.9214 L243.862 111.85 L243.988 102.327 L244.24 68.0536 L244.366 70.9026 L244.744 110.747 L245.122 67.2362 L245.248 74.5906 L245.5 109.189 L245.626 108.602 L246.004 67.7572 L246.382 110.098 L246.508 105.54 L246.76 71.9284 L246.886 69.5462 L247.264 109.639 L247.389 102.354 L247.641 71.1159 L247.767 71.7423 L248.145 108.596 L248.397 82.1645 L248.523 70.8818 L248.649 74.116 L249.027 107.51 L249.405 70.4755 L249.531 75.5744 L249.783 105.833 L249.909 107.65 L250.287 68.6987 L250.413 75.6371 L250.665 108.901 L250.791 109.222 L251.169 65.5512 L251.295 75.9353 L251.546 113.458 L251.672 110.463 L252.05 62.4889 L252.428 118.397 L252.554 109.726 L252.806 61.6353 L252.932 61.2123 L253.31 121.81 L253.562 75.469 L253.688 56.0596 L253.814 63.5746 L254.066 119.136 L254.192 121.736 L254.57 53.5852 L254.696 69.9894 L254.948 124.301 L255.074 117.524 L255.326 58.685 L255.452 54.9699 L255.829 125.924 L255.955 109.636 L256.207 54.2192 L256.333 60.6537 L256.585 119.02 L256.711 122.912 L257.089 54.3508 L257.215 69.5524 L257.467 121.698 L257.593 116.012 L257.845 62.5842 L257.971 58.9199 L258.349 119.639 L258.475 106.341 L258.727 62.1286 L258.853 67.1621 L259.105 110.651 L259.231 113.267 L259.609 66.495 L259.735 76.3671 L259.986 108.218 L260.112 105.046 L260.364 75.9038 L260.49 73.5063 L260.868 102.518 L260.994 97.9426 L261.246 80.1502 L261.372 80.4557 L261.75 96.0572 L262.254 85.7435 L262.758 91.4917 L262.884 92.0576 L263.01 91.3197 L263.388 84.2114 L263.514 86.6106 L263.766 96.1345 L263.892 95.536 L264.269 79.9273 L264.521 94.1313 L264.647 100.274 L264.773 97.9058 L265.151 76.9996 L265.529 103.752 L265.655 98.3178 L265.907 74.5641 L266.033 75.6494 L266.411 105.968 L266.789 71.4872 L266.915 76.8697 L267.167 106.004 L267.293 105.827 L267.671 70.3128 L268.049 108.559 L268.174 103.032 L268.426 71.7236 L268.552 71.8456 L268.93 108.528 L269.308 70.105 L269.434 76.1225 L269.686 106.533 L269.812 105.556 L270.19 71.5473 L270.568 106.731 L270.694 99.8253 L270.946 73.5255 L271.072 76.2419 L271.324 102.344 L271.45 103.457 L271.828 74.9848 L272.205 102.817 L272.331 97.8013 L272.583 77.0247 L272.709 79.236 L272.961 99.8702 L273.087 100.186 L273.465 78.02 L273.843 100.353 L273.969 95.0847 L274.221 78.8461 L274.347 82.0029 L274.599 98.5631 L274.725 97.454 L274.977 81.4582 L275.103 80.7632 L275.481 97.5843 L275.859 81.4537 L276.237 96.5204 L276.362 93.3776 L276.614 82.5204 L276.74 84.957 L276.992 95.6764 L277.118 93.7694 L277.37 83.0128 L277.496 84.4296 L277.748 95.5146 L277.874 94.6973 L278.126 83.0018 L278.252 83.015 L278.63 96.5101 L279.008 81.0661 L279.386 98.1703 L279.512 94.2091 L279.764 80.1938 L279.89 82.6078 L280.142 97.8826 L280.268 97.3417 L280.645 80.2825 L281.023 98.5885 L281.275 85.4105 L281.401 80.2687 L281.527 82.8731 L281.779 97.2512 L281.905 96.7614 L282.283 81.4804 L282.661 96.4567 L282.787 93.7028 L283.039 83.5442 L283.165 84.1514 L283.543 94.016 L283.921 85.8849 L284.047 86.2671 L284.425 91.8416 L284.551 91.4479 L284.928 86.6891 L285.054 86.974 L285.432 92.673 L285.558 91.3948 L285.81 85.4298 L285.936 85.533 L286.314 94.3288 L286.566 86.6726 L286.692 83.4256 L286.818 84.8317 L287.07 95.0945 L287.196 95.5867 L287.574 81.6636 L287.7 85.1531 L287.952 97.2611 L288.078 95.7346 L288.33 81.9173 L288.456 81.0284 L288.833 98.4417 L288.959 94.3192 L289.211 80.1642 L289.337 81.8912 L289.589 97.2762 L289.715 98.2343 L290.093 79.6937 L290.219 83.9634 L290.471 98.3751 L290.597 96.6927 L290.849 81.6337 L290.975 80.6157 L291.353 98.145 L291.479 94.4611 L291.731 81.1866 L291.857 82.2101 L292.235 97.3142 L292.361 92.5722 L292.361 92.5722" style="fill:none;stroke:#4c72b0;stroke-linecap:round;stroke-width:1.75;"/>
   </g>
   <g id="patch_4">
    <path d=" M40.5475 39.38 L292.361 39.38" style="fill:none;"/>
   </g>
   <g id="patch_5">
    <path d=" M292.361 139.16 L292.361 39.38" style="fill:none;"/>
   </g>
   <g id="patch_6">
    <path d=" M40.5475 139.16 L292.361 139.16" style="fill:none;"/>
   </g>
   <g id="patch_7">
    <path d=" M40.5475 139.16 L40.5475 39.38" style="fill:none;"/>
   </g>
   <g id="text_6">
    <!-- Rest -->
    <defs>
     <path d=" M46.3906 14.5938 Q46.3906 10.8906 44.9375 7.98438 Q43.5 5.07812 40.7656 3.09375 Q38.0312 1.125 34.0469 0.0625 Q30.0781 -0.984375 24.9531 -0.984375 Q20.3594 -0.984375 16.6719 -0.265625 Q12.9844 0.4375 10.2031 2 Q7.42188 3.5625 5.53125 6.125 Q3.65625 8.6875 2.78125 12.4062 L10.5469 13.9219 Q11.6719 9.67188 15.1875 7.6875 Q18.7031 5.71875 24.9531 5.71875 Q27.7812 5.71875 30.1406 6.10938 Q32.5156 6.5 34.2188 7.45312 Q35.9375 8.40625 36.8906 9.98438 Q37.8438 11.5781 37.8438 13.9219 Q37.8438 16.3125 36.7188 17.8438 Q35.5938 19.3906 33.5938 20.4062 Q31.5938 21.4375 28.7344 22.1875 Q25.875 22.9531 22.4688 23.875 Q19.2812 24.7031 16.1562 25.7344 Q13.0312 26.7656 10.5156 28.4375 Q8.01562 30.125 6.45312 32.6094 Q4.89062 35.1094 4.89062 38.875 Q4.89062 46.0938 10.0312 49.875 Q15.1875 53.6562 25.0469 53.6562 Q33.7969 53.6562 38.9375 50.5781 Q44.0938 47.5156 45.4531 40.7188 L37.5469 39.75 Q37.1094 41.7969 35.9375 43.1875 Q34.7656 44.5781 33.1094 45.4375 Q31.4531 46.2969 29.375 46.6562 Q27.2969 47.0156 25.0469 47.0156 Q19.0938 47.0156 16.25 45.2031 Q13.4219 43.4062 13.4219 39.75 Q13.4219 37.5938 14.4688 36.2031 Q15.5312 34.8125 17.4062 33.8594 Q19.2812 32.9062 21.9219 32.2031 Q24.5625 31.5 27.7344 30.7188 Q29.8281 30.1719 32.0312 29.5625 Q34.2344 28.9531 36.2969 28.0938 Q38.375 27.25 40.2031 26.0938 Q42.0469 24.9531 43.4062 23.3438 Q44.7812 21.7344 45.5781 19.5781 Q46.3906 17.4375 46.3906 14.5938" id="LiberationSans-73"/>
     <path d=" M13.4844 24.5625 Q13.4844 20.4062 14.3281 16.9062 Q15.1875 13.4219 16.9688 10.9062 Q18.75 8.40625 21.5312 7 Q24.3125 5.60938 28.2188 5.60938 Q33.9375 5.60938 37.375 7.90625 Q40.8281 10.2031 42.0469 13.7188 L49.75 11.5312 Q48.9219 9.32812 47.4375 7.10938 Q45.9531 4.89062 43.4531 3.09375 Q40.9688 1.3125 37.2344 0.15625 Q33.5 -0.984375 28.2188 -0.984375 Q16.5 -0.984375 10.375 6 Q4.25 12.9844 4.25 26.7656 Q4.25 34.1875 6.09375 39.3281 Q7.95312 44.4844 11.1719 47.7031 Q14.4062 50.9219 18.7031 52.3594 Q23 53.8125 27.875 53.8125 Q34.5156 53.8125 38.9844 51.6562 Q43.4531 49.5156 46.1562 45.7188 Q48.875 41.9375 50.0156 36.8125 Q51.1719 31.6875 51.1719 25.7344 L51.1719 24.5625 z  M42.0938 31.2969 Q41.3594 39.6562 37.8438 43.4844 Q34.3281 47.3125 27.7344 47.3125 Q25.5312 47.3125 23.1094 46.6094 Q20.7031 45.9062 18.6562 44.0938 Q16.6094 42.2812 15.1875 39.1719 Q13.7656 36.0781 13.5781 31.2969 z " id="LiberationSans-65"/>
     <path d=" M27.0469 0.390625 Q25.0469 -0.140625 22.9688 -0.453125 Q20.9062 -0.78125 18.1719 -0.78125 Q7.625 -0.78125 7.625 11.1875 L7.625 46.4375 L1.51562 46.4375 L1.51562 52.8281 L7.95312 52.8281 L10.5469 64.6562 L16.4062 64.6562 L16.4062 52.8281 L26.1719 52.8281 L26.1719 46.4375 L16.4062 46.4375 L16.4062 13.0938 Q16.4062 9.28125 17.6406 7.73438 Q18.8906 6.20312 21.9688 6.20312 Q23.25 6.20312 24.4375 6.39062 Q25.6406 6.59375 27.0469 6.89062 z " id="LiberationSans-74"/>
     <path d=" M56.8438 0 L38.9688 28.5625 L17.5312 28.5625 L17.5312 0 L8.20312 0 L8.20312 68.7969 L40.5781 68.7969 Q46.4375 68.7969 50.9531 67.4531 Q55.4688 66.1094 58.5469 63.5625 Q61.625 61.0312 63.2344 57.375 Q64.8438 53.7188 64.8438 49.125 Q64.8438 45.8438 63.8906 42.6719 Q62.9375 39.5 60.8906 36.8594 Q58.8438 34.2344 55.6562 32.3281 Q52.4844 30.4219 48.0469 29.6406 L67.5781 0 z  M55.4688 49.0312 Q55.4688 52.1562 54.3906 54.4375 Q53.3281 56.7344 51.2656 58.2656 Q49.2188 59.8125 46.2812 60.5625 Q43.3594 61.3281 39.6562 61.3281 L17.5312 61.3281 L17.5312 35.9375 L40.0469 35.9375 Q44.0469 35.9375 46.9688 36.9375 Q49.9062 37.9375 51.7812 39.6875 Q53.6562 41.4531 54.5625 43.8438 Q55.4688 46.2344 55.4688 49.0312" id="LiberationSans-52"/>
    </defs>
    <g style="fill:#262626;" transform="translate(154.65375 34.38)scale(0.12 -0.12)">
     <use xlink:href="#LiberationSans-52"/>
     <use x="72.216796875" xlink:href="#LiberationSans-65"/>
     <use x="127.83203125" xlink:href="#LiberationSans-73"/>
     <use x="177.83203125" xlink:href="#LiberationSans-74"/>
    </g>
   </g>
  </g>
  <g id="axes_2">
   <g id="patch_8">
    <path d=" M313.083 139.16 L564.896 139.16 L564.896 39.38 L313.083 39.38 z " style="fill:#eaeaf2;"/>
   </g>
   <g id="matplotlib.axis_3">
    <g id="xtick_6">
     <g id="line2d_29">
      <path clip-path="url(#p7fb8a086bb)" d=" M313.083 139.16 L313.083 39.38" style="fill:none;stroke:#ffffff;stroke-linecap:round;"/>
     </g>
     <g id="line2d_30">
      <g>
       <use style="fill:#262626;stroke:#262626;" x="313.083125" xlink:href="#m219da94a98" y="139.16"/>
      </g>
     </g>
     <g id="line2d_31">
      <g>
       <use style="fill:#262626;stroke:#262626;" x="313.083125" xlink:href="#m219da94a98" y="39.38"/>
      </g>
     </g>
     <g id="text_7">
      <!-- 0 -->
      <g style="fill:#262626;" transform="translate(310.69328125 153.406875)scale(0.1 -0.1)">
       <use xlink:href="#LiberationSans-30"/>
      </g>
     </g>
    </g>
    <g id="xtick_7">
     <g id="line2d_32">
      <path clip-path="url(#p7fb8a086bb)" d=" M376.068 139.16 L376.068 39.38" style="fill:none;stroke:#ffffff;stroke-linecap:round;"/>
     </g>
     <g id="line2d_33">
      <g>
       <use style="fill:#262626;stroke:#262626;" x="376.067898637" xlink:href="#m219da94a98" y="139.16"/>
      </g>
     </g>
     <g id="line2d_34">
      <g>
       <use style="fill:#262626;stroke:#262626;" x="376.067898637" xlink:href="#m219da94a98" y="39.38"/>
      </g>
     </g>
     <g id="text_8">
      <!-- 1000 -->
      <g style="fill:#262626;" transform="translate(365.522586137 153.406875)scale(0.1 -0.1)">
       <use xlink:href="#LiberationSans-31"/>
       <use x="55.615234375" xlink:href="#LiberationSans-30"/>
       <use x="111.23046875" xlink:href="#LiberationSans-30"/>
       <use x="166.845703125" xlink:href="#LiberationSans-30"/>
      </g>
     </g>
    </g>
    <g id="xtick_8">
     <g id="line2d_35">
      <path clip-path="url(#p7fb8a086bb)" d=" M439.053 139.16 L439.053 39.38" style="fill:none;stroke:#ffffff;stroke-linecap:round;"/>
     </g>
     <g id="line2d_36">
      <g>
       <use style="fill:#262626;stroke:#262626;" x="439.052672274" xlink:href="#m219da94a98" y="139.16"/>
      </g>
     </g>
     <g id="line2d_37">
      <g>
       <use style="fill:#262626;stroke:#262626;" x="439.052672274" xlink:href="#m219da94a98" y="39.38"/>
      </g>
     </g>
     <g id="text_9">
      <!-- 2000 -->
      <g style="fill:#262626;" transform="translate(428.377672274 153.406875)scale(0.1 -0.1)">
       <use xlink:href="#LiberationSans-32"/>
       <use x="55.615234375" xlink:href="#LiberationSans-30"/>
       <use x="111.23046875" xlink:href="#LiberationSans-30"/>
       <use x="166.845703125" xlink:href="#LiberationSans-30"/>
      </g>
     </g>
    </g>
    <g id="xtick_9">
     <g id="line2d_38">
      <path clip-path="url(#p7fb8a086bb)" d=" M502.037 139.16 L502.037 39.38" style="fill:none;stroke:#ffffff;stroke-linecap:round;"/>
     </g>
     <g id="line2d_39">
      <g>
       <use style="fill:#262626;stroke:#262626;" x="502.03744591" xlink:href="#m219da94a98" y="139.16"/>
      </g>
     </g>
     <g id="line2d_40">
      <g>
       <use style="fill:#262626;stroke:#262626;" x="502.03744591" xlink:href="#m219da94a98" y="39.38"/>
      </g>
     </g>
     <g id="text_10">
      <!-- 3000 -->
      <g style="fill:#262626;" transform="translate(491.30150841 153.406875)scale(0.1 -0.1)">
       <use xlink:href="#LiberationSans-33"/>
       <use x="55.615234375" xlink:href="#LiberationSans-30"/>
       <use x="111.23046875" xlink:href="#LiberationSans-30"/>
       <use x="166.845703125" xlink:href="#LiberationSans-30"/>
      </g>
     </g>
    </g>
    <g id="xtick_10">
     <g id="text_11">
      <!-- 4000 -->
      <g style="fill:#262626;" transform="translate(554.210500797 153.406875)scale(0.1 -0.1)">
       <use xlink:href="#LiberationSans-34"/>
       <use x="55.615234375" xlink:href="#LiberationSans-30"/>
       <use x="111.23046875" xlink:href="#LiberationSans-30"/>
       <use x="166.845703125" xlink:href="#LiberationSans-30"/>
      </g>
     </g>
    </g>
   </g>
   <g id="matplotlib.axis_4">
    <g id="ytick_6">
     <g id="line2d_41">
      <path clip-path="url(#p7fb8a086bb)" d=" M313.083 139.16 L564.896 139.16" style="fill:none;stroke:#ffffff;stroke-linecap:round;"/>
     </g>
     <g id="line2d_42">
      <g>
       <use style="fill:#262626;stroke:#262626;" x="313.083125" xlink:href="#m219da94a98" y="139.16"/>
      </g>
     </g>
     <g id="line2d_43">
      <g>
       <use style="fill:#262626;stroke:#262626;" x="564.89625" xlink:href="#m219da94a98" y="139.16"/>
      </g>
     </g>
    </g>
    <g id="ytick_7">
     <g id="line2d_44">
      <path clip-path="url(#p7fb8a086bb)" d=" M313.083 114.215 L564.896 114.215" style="fill:none;stroke:#ffffff;stroke-linecap:round;"/>
     </g>
     <g id="line2d_45">
      <g>
       <use style="fill:#262626;stroke:#262626;" x="313.083125" xlink:href="#m219da94a98" y="114.215"/>
      </g>
     </g>
     <g id="line2d_46">
      <g>
       <use style="fill:#262626;stroke:#262626;" x="564.89625" xlink:href="#m219da94a98" y="114.215"/>
      </g>
     </g>
    </g>
    <g id="ytick_8">
     <g id="line2d_47">
      <path clip-path="url(#p7fb8a086bb)" d=" M313.083 89.27 L564.896 89.27" style="fill:none;stroke:#ffffff;stroke-linecap:round;"/>
     </g>
     <g id="line2d_48">
      <g>
       <use style="fill:#262626;stroke:#262626;" x="313.083125" xlink:href="#m219da94a98" y="89.27"/>
      </g>
     </g>
     <g id="line2d_49">
      <g>
       <use style="fill:#262626;stroke:#262626;" x="564.89625" xlink:href="#m219da94a98" y="89.27"/>
      </g>
     </g>
    </g>
    <g id="ytick_9">
     <g id="line2d_50">
      <path clip-path="url(#p7fb8a086bb)" d=" M313.083 64.325 L564.896 64.325" style="fill:none;stroke:#ffffff;stroke-linecap:round;"/>
     </g>
     <g id="line2d_51">
      <g>
       <use style="fill:#262626;stroke:#262626;" x="313.083125" xlink:href="#m219da94a98" y="64.325"/>
      </g>
     </g>
     <g id="line2d_52">
      <g>
       <use style="fill:#262626;stroke:#262626;" x="564.89625" xlink:href="#m219da94a98" y="64.325"/>
      </g>
     </g>
    </g>
    <g id="ytick_10">
     <g id="line2d_53">
      <path clip-path="url(#p7fb8a086bb)" d=" M313.083 39.38 L564.896 39.38" style="fill:none;stroke:#ffffff;stroke-linecap:round;"/>
     </g>
     <g id="line2d_54">
      <g>
       <use style="fill:#262626;stroke:#262626;" x="313.083125" xlink:href="#m219da94a98" y="39.38"/>
      </g>
     </g>
     <g id="line2d_55">
      <g>
       <use style="fill:#262626;stroke:#262626;" x="564.89625" xlink:href="#m219da94a98" y="39.38"/>
      </g>
     </g>
    </g>
   </g>
   <g id="patch_9">
    <path clip-path="url(#p7fb8a086bb)" d=" M376.068 139.16 L376.068 39.38 L502.037 39.38 L502.037 139.16 z " style="fill:#c44e52;opacity:0.2;"/>
   </g>
   <g id="line2d_56">
    <path clip-path="url(#p7fb8a086bb)" d=" M313.083 97.5303 L313.209 95.4579 L313.587 81.5655 L313.965 96.9402 L314.091 95.684 L314.469 81.0722 L314.721 92.4776 L314.847 97.7645 L314.973 96.7773 L315.351 79.4883 L315.603 93.4461 L315.728 99.7641 L315.854 98.1114 L316.232 77.5537 L316.61 102.1 L316.736 98.789 L316.988 77.4772 L317.114 76.3784 L317.492 103.641 L317.618 97.7332 L317.87 75.5029 L317.996 77.2043 L318.374 103.203 L318.752 75.3335 L318.878 80.1857 L319.13 101.506 L319.256 100.689 L319.634 77.1454 L320.011 100.614 L320.137 96.9117 L320.389 79.7814 L320.515 80.392 L320.893 98.2262 L321.271 81.0914 L321.397 84.4204 L321.649 96.2293 L321.775 94.7972 L322.027 83.6145 L322.153 83.5337 L322.531 94.9642 L322.909 83.8503 L323.035 86.2494 L323.287 94.1667 L323.413 92.9544 L323.665 85.1282 L323.791 85.2694 L324.168 93.2207 L324.546 85.5587 L324.924 92.7676 L325.05 91.4025 L325.302 85.8692 L325.428 86.6053 L325.68 92.5904 L325.806 92.6551 L326.184 85.1538 L326.562 93.8475 L326.688 92.4487 L326.94 84.7457 L327.066 84.8292 L327.444 94.4679 L327.822 83.995 L327.948 85.1957 L328.199 93.8875 L328.325 94.5227 L328.703 83.5324 L328.829 85.5028 L329.081 94.6951 L329.207 94.6855 L329.585 82.8429 L329.711 85.7826 L329.963 95.8053 L330.089 94.8737 L330.467 82.2489 L330.845 96.8258 L330.971 94.3565 L331.223 82.0502 L331.349 82.2601 L331.727 97.6011 L332.105 80.4212 L332.23 83.0021 L332.482 97.5869 L332.608 97.643 L332.986 79.7351 L333.238 93.1086 L333.364 98.6482 L333.49 96.6561 L333.742 81.4299 L333.868 80.399 L334.246 98.2684 L334.372 94.9323 L334.624 81.5164 L334.75 81.9595 L335.128 96.8949 L335.506 82.4878 L335.632 83.706 L336.01 95.4273 L336.387 83.5138 L336.513 85.2422 L336.765 93.8506 L336.891 93.9583 L337.269 84.7871 L337.521 90.3904 L337.647 92.8251 L337.773 92.4371 L338.151 86.1939 L338.277 87.3975 L338.529 91.5381 L338.655 91.807 L339.033 86.7784 L339.159 86.8052 L339.537 92.4767 L339.663 91.5793 L339.915 85.9801 L340.041 85.5697 L340.419 93.8729 L340.544 92.172 L340.796 84.4803 L340.922 84.7773 L341.3 94.8593 L341.678 83.3668 L341.804 84.7363 L342.056 94.5367 L342.182 95.3187 L342.56 82.5095 L342.686 84.6146 L342.938 95.7267 L343.064 96.0648 L343.442 81.1571 L343.568 84.533 L343.82 97.5798 L343.946 96.743 L344.324 79.8045 L344.701 99.5581 L344.827 96.9937 L345.079 79.6498 L345.205 78.7097 L345.583 101.432 L345.709 96.4041 L345.961 76.9627 L346.087 78.5465 L346.465 102.566 L346.843 74.6628 L346.969 80.8001 L347.221 103.807 L347.347 101.073 L347.599 76.1798 L347.725 75.2467 L348.103 104.194 L348.481 74.7001 L348.607 80.1549 L348.858 102.477 L348.984 99.949 L349.236 77.979 L349.362 77.9879 L349.74 100.475 L350.118 78.3239 L350.496 100.294 L350.874 77.6415 L351 83.1452 L351.252 101.822 L351.378 97.5933 L351.63 75.9945 L351.756 78.1423 L352.008 102.469 L352.134 103.338 L352.512 72.7931 L352.89 107.079 L353.015 100.519 L353.267 71.4617 L353.393 74.0576 L353.645 105.73 L353.771 107.644 L354.149 68.7889 L354.527 110.665 L354.653 103.568 L354.905 68.3362 L355.031 70.6346 L355.409 111.259 L355.787 65.3544 L355.913 77.1119 L356.165 113.379 L356.291 106.856 L356.543 66.861 L356.669 67.4294 L357.046 113.709 L357.424 64.1549 L357.55 74.1513 L357.802 113.057 L357.928 108.996 L358.18 68.6663 L358.306 66.6103 L358.684 113.027 L359.062 66.1835 L359.188 73.1244 L359.44 110.114 L359.566 108.816 L359.944 67.7687 L360.322 111.168 L360.448 102.036 L360.7 68.6355 L360.826 72.3522 L361.078 106.961 L361.203 108.882 L361.581 68.7547 L361.707 78.4397 L361.959 108.804 L362.085 104.506 L362.337 72.4946 L362.463 71.2257 L362.841 108.294 L363.093 81.8382 L363.219 71.1095 L363.345 75.5244 L363.597 104.869 L363.723 105.479 L364.101 72.3968 L364.479 104.921 L364.605 101.077 L364.857 76.5195 L364.983 75.7111 L365.36 102.736 L365.612 84.9634 L365.738 77.4916 L365.864 79.8182 L366.116 98.3567 L366.242 99.3734 L366.62 79.6862 L366.872 92.5878 L366.998 97.6912 L367.124 95.4617 L367.376 82.2278 L367.502 82.629 L367.88 95.9801 L368.258 82.6771 L368.636 95.6305 L368.762 92.7374 L369.014 83.2301 L369.14 85.2129 L369.392 94.9341 L369.517 93.8298 L369.769 84.0579 L369.895 84.2874 L370.273 94.5794 L370.651 83.6606 L371.029 95.1741 L371.155 92.5652 L371.407 83.1982 L371.533 84.5739 L371.785 95.1642 L371.911 95.5003 L372.289 81.6957 L372.415 85.311 L372.667 97.4336 L372.793 96.0789 L373.171 80.1306 L373.549 99.5132 L373.674 96.613 L373.926 79.644 L374.052 78.9392 L374.43 101.034 L374.556 96.4446 L374.808 78.0151 L374.934 78.6114 L375.312 101.76 L375.438 95.9217 L375.69 77.1023 L375.816 78.6097 L376.194 102.169 L376.446 84.019 L376.572 76.3766 L376.698 78.5677 L377.076 102.646 L377.454 75.4545 L377.58 78.6726 L377.831 101.159 L377.957 103.012 L378.335 74.6081 L378.461 79.1705 L378.713 102.427 L378.839 102.954 L379.217 74.2029 L379.343 80.4869 L379.595 103.4 L379.721 101.9 L380.099 74.8068 L380.477 103.413 L380.603 99.0476 L380.855 77.2353 L380.981 77.6847 L381.359 100.895 L381.737 78.9705 L381.862 83.0266 L382.114 97.5933 L382.24 95.6972 L382.492 82.7363 L382.618 83.4007 L382.87 94.8431 L382.996 94.6323 L383.248 83.6689 L383.374 83.7001 L383.752 95.9678 L384.13 80.7511 L384.508 99.8304 L384.886 77.0003 L385.012 81.4585 L385.264 102.418 L385.39 100.47 L385.768 75.0053 L386.145 105.747 L386.397 81.3296 L386.523 71.8418 L386.649 77.1077 L386.901 106.21 L387.027 105.098 L387.405 70.773 L387.783 109.19 L387.909 100.483 L388.161 69.3775 L388.287 73.5073 L388.539 107.487 L388.665 108.537 L389.043 68.018 L389.421 110.768 L389.547 103.831 L389.799 69.1898 L389.925 71.0164 L390.302 109.93 L390.68 67.3915 L390.806 77.7346 L391.058 111.194 L391.184 105.646 L391.436 68.5943 L391.562 68.6318 L391.94 113.212 L392.318 63.4906 L392.444 72.7797 L392.696 114.881 L392.822 112.084 L393.2 61.4483 L393.578 120.05 L393.704 107.245 L393.956 58.204 L394.082 63.2395 L394.459 121.659 L394.837 53.0862 L394.963 69.5409 L395.215 126.022 L395.341 118.474 L395.593 55.477 L395.719 52.7392 L396.097 130.132 L396.349 71.0699 L396.475 47.6003 L396.601 58.9586 L396.853 127.969 L396.979 127.595 L397.357 46.2163 L397.735 133.187 L397.861 117.944 L398.113 48.4263 L398.239 52.5215 L398.616 130.71 L398.994 46.8142 L399.12 65.2268 L399.372 129.242 L399.498 120.918 L399.75 54.6218 L399.876 52.9814 L400.254 127.272 L400.632 52.178 L400.758 65.8612 L401.01 123.246 L401.136 117.838 L401.388 60.1819 L401.514 57.6671 L401.892 121.849 L402.27 57.5231 L402.396 69.2765 L402.647 118.597 L402.773 113.701 L403.025 63.7997 L403.151 61.9253 L403.529 117.855 L403.907 61.3031 L404.033 71.4068 L404.285 114.686 L404.411 111.055 L404.663 68.2052 L404.789 65.5352 L405.167 112.906 L405.545 67.6404 L405.671 73.5457 L405.923 107.305 L406.049 106.872 L406.427 71.7443 L406.804 105.033 L406.93 99.0969 L407.182 76.4382 L407.308 78.4153 L407.56 98.626 L407.686 99.6614 L408.064 80.4786 L408.442 95.829 L408.568 93.3933 L408.82 84.9281 L408.946 86.2101 L409.198 92.0002 L409.324 90.8756 L409.576 87.1648 L409.954 91.8241 L410.332 85.4334 L410.71 94.7724 L411.087 82.2348 L411.213 85.5927 L411.465 97.2903 L411.591 95.1797 L411.843 81.0879 L411.969 81.2837 L412.347 98.808 L412.725 79.015 L412.851 83.0556 L413.103 99.302 L413.229 97.626 L413.481 80.2342 L413.607 79.4709 L413.985 99.9071 L414.363 78.1169 L414.489 83.0378 L414.741 100.84 L414.867 97.6029 L415.118 77.3826 L415.244 78.5764 L415.622 102.525 L416 73.6521 L416.378 106.465 L416.504 100.372 L416.756 71.8395 L416.882 73.8959 L417.26 108.113 L417.638 68.4493 L417.764 77.3711 L418.016 109.982 L418.142 106.488 L418.52 68.3339 L418.898 111.62 L419.024 102.385 L419.275 68.1661 L419.401 70.9814 L419.779 110.391 L420.157 68.0528 L420.283 75.3935 L420.535 107.938 L420.661 107.056 L421.039 70.1767 L421.417 107.001 L421.543 102.833 L421.795 75.172 L421.921 73.5788 L422.299 104.726 L422.425 99.1115 L422.677 76.1095 L422.803 76.4938 L423.181 102.967 L423.306 96.7262 L423.558 76.5222 L423.684 78.1936 L424.062 102.513 L424.44 75.3322 L424.566 79.1468 L424.818 102.451 L424.944 102.997 L425.322 73.0126 L425.574 96.8254 L425.7 106.73 L425.826 102.204 L426.078 72.1594 L426.204 71.9698 L426.582 109.931 L426.96 66.7172 L427.086 74.4476 L427.338 111.875 L427.463 109.61 L427.841 64.6575 L428.219 116.348 L428.345 103.705 L428.597 61.9198 L428.723 68.7069 L428.975 114.613 L429.101 114.485 L429.479 61.2882 L429.857 117.933 L429.983 106.791 L430.235 62.0618 L430.361 66.3014 L430.613 112.932 L430.739 116.034 L431.117 60.7828 L431.243 74.3082 L431.494 117.083 L431.62 110.573 L431.872 64.5967 L431.998 63.5816 L432.376 116.93 L432.754 62.2967 L432.88 70.2191 L433.132 112.925 L433.258 112.297 L433.636 65.0188 L434.014 111.852 L434.14 104.595 L434.392 70.8096 L434.518 71.8656 L434.896 106 L435.274 75.4399 L435.4 80.0798 L435.651 98.858 L435.777 98.1728 L436.155 82.6743 L436.533 92.3287 L437.163 88.0836 L437.415 85.3158 L437.793 96.8057 L437.919 93.5923 L438.171 79.1438 L438.297 80.4329 L438.675 102.536 L439.053 72.6452 L439.179 78.8851 L439.431 107.28 L439.557 105.675 L439.934 67.9833 L440.312 113.199 L440.438 104.826 L440.69 65.5987 L440.816 67.4586 L441.194 115.193 L441.572 61.9048 L441.698 72.1386 L441.95 115.373 L442.076 112.189 L442.454 62.6147 L442.832 117.359 L442.958 105.138 L443.21 62.1744 L443.336 67.4507 L443.588 112.985 L443.714 115.144 L444.091 61.677 L444.343 100.347 L444.469 116.027 L444.595 109.381 L444.847 65.7884 L444.973 65.1915 L445.351 114.845 L445.729 64.5947 L445.855 72.6967 L446.107 111.041 L446.233 109.015 L446.611 68.3923 L446.989 109.38 L447.115 100.149 L447.367 71.434 L447.493 76.0257 L447.745 103.897 L447.871 103.291 L448.248 75.7614 L448.626 101.389 L449.004 78.9881 L449.13 83.3229 L449.382 97.6693 L449.508 94.7441 L449.76 82.3726 L449.886 84.7224 L450.138 95.4096 L450.264 92.9053 L450.516 82.9062 L450.642 85.9814 L450.894 96.7881 L451.02 93.2698 L451.272 80.0762 L451.398 83.3355 L451.65 99.9819 L451.776 98.0656 L452.028 77.8696 L452.154 77.2446 L452.531 104.253 L452.909 72.2621 L453.035 77.8185 L453.287 106.797 L453.413 105.674 L453.791 68.7592 L454.169 112.24 L454.295 103.582 L454.547 66.1173 L454.673 68.9344 L455.051 114.096 L455.429 62.1044 L455.555 73.8684 L455.807 116.239 L455.933 111.078 L456.185 65.1136 L456.311 62.9079 L456.688 117.727 L456.94 77.4854 L457.066 61.467 L457.192 68.6587 L457.444 113.732 L457.57 114.132 L457.948 62.7644 L458.326 114.755 L458.452 107.03 L458.704 67.0895 L458.83 68.042 L459.208 111.759 L459.586 67.6079 L459.712 75.2195 L459.964 108.319 L460.09 106.442 L460.467 70.8564 L460.845 107.105 L460.971 99.5009 L461.223 73.4774 L461.349 76.7804 L461.601 102.083 L461.727 102.584 L462.105 76.3461 L462.483 100.904 L462.609 96.3153 L462.861 79.4385 L462.987 81.4935 L463.239 97.1483 L463.365 97.1293 L463.743 81.7275 L464.121 96.3017 L464.499 82.8079 L464.624 85.3139 L464.876 95.116 L465.002 93.7283 L465.254 84.1199 L465.38 84.4365 L465.758 94.383 L466.136 83.8955 L466.514 94.9758 L466.64 92.8503 L466.892 83.2105 L467.018 84.1332 L467.396 96.2105 L467.774 80.5653 L467.9 84.6705 L468.152 99.1236 L468.278 97.2837 L468.656 77.9937 L469.033 102.752 L469.159 97.842 L469.411 75.4201 L469.537 76.1213 L469.915 105.701 L470.293 71.5382 L470.419 75.8049 L470.671 106.019 L470.797 107.512 L471.175 68.0168 L471.301 77.7762 L471.553 111.256 L471.679 106.964 L471.931 69.0031 L472.057 66.809 L472.435 114.538 L472.561 102.53 L472.813 63.4566 L472.938 69.244 L473.19 113.138 L473.316 114.674 L473.694 60.5964 L473.946 101.673 L474.072 118.441 L474.198 111.202 L474.45 62.694 L474.576 61.5933 L474.954 119.859 L475.332 58.9878 L475.458 66.9934 L475.71 116.117 L475.836 116.535 L476.214 59.869 L476.592 117.863 L476.718 109.584 L476.97 64.2 L477.095 64.6422 L477.473 115.521 L477.851 64.0759 L477.977 71.9273 L478.229 111.023 L478.355 110.187 L478.733 67.192 L479.111 110.283 L479.237 103.515 L479.489 71.085 L479.615 71.9924 L479.993 107.911 L480.371 70.9249 L480.497 76.7267 L480.749 105.664 L480.875 105.195 L481.252 71.5332 L481.63 106.92 L481.756 102.413 L482.008 73.7803 L482.134 72.6573 L482.512 107.367 L482.638 99.6541 L482.89 71.9746 L483.016 74.1511 L483.394 107.248 L483.772 70.6272 L483.898 76.4523 L484.15 106.347 L484.276 106.226 L484.654 70.0834 L484.906 97.4223 L485.032 108.44 L485.158 103.963 L485.409 72.5187 L485.535 70.9945 L485.913 108.766 L486.039 100.379 L486.291 71.1152 L486.417 73.7309 L486.795 106.994 L487.173 71.8591 L487.299 77.7464 L487.551 104.114 L487.677 103.512 L488.055 74.5103 L488.433 102.521 L488.559 99.2975 L488.811 79.0993 L488.937 78.1899 L489.315 99.5724 L489.44 95.5203 L489.692 81.1537 L489.818 81.8466 L490.196 96.287 L490.574 83.8819 L490.7 84.935 L490.952 92.3827 L491.078 93.1422 L491.456 86.8049 L491.582 86.9682 L491.96 90.8537 L492.086 91.0559 L492.212 90.4387 L492.59 86.9352 L492.716 87.6875 L493.094 92.3784 L493.346 87.6993 L493.472 85.3038 L493.597 85.5757 L493.975 94.8852 L494.101 92.4873 L494.353 82.6429 L494.479 83.077 L494.857 97.9618 L495.109 84.9919 L495.235 79.2451 L495.361 81.2517 L495.739 100.585 L496.117 76.0214 L496.243 80.5999 L496.495 102.455 L496.621 102.217 L496.999 73.5744 L497.125 81.1947 L497.377 105.505 L497.503 102.66 L497.88 72.0523 L498.258 108.162 L498.384 102.241 L498.636 71.2216 L498.762 70.9291 L499.14 110.971 L499.266 100.645 L499.518 66.9273 L499.644 71.1526 L500.022 112.07 L500.4 64.5364 L500.526 74.9034 L500.778 113.02 L500.904 109.418 L501.282 65.6418 L501.66 113.83 L501.786 103.86 L502.037 66.3042 L502.163 69.4716 L502.541 112.1 L502.919 65.9303 L503.045 74.679 L503.297 110.492 L503.423 108.637 L503.801 67.6101 L504.179 110.331 L504.305 104.722 L504.557 71.7245 L504.683 70.2256 L505.061 108.847 L505.187 101.86 L505.439 72.4684 L505.565 72.2676 L505.943 107.529 L506.068 100.968 L506.32 73.1897 L506.446 72.6884 L506.824 107.518 L506.95 101.14 L507.202 72.8314 L507.328 72.4001 L507.706 108.008 L507.832 100.848 L508.084 72.0827 L508.21 72.6162 L508.588 108.052 L508.714 99.8093 L508.966 71.6847 L509.092 73.4101 L509.47 107.507 L509.722 82.7059 L509.848 72.0454 L509.974 74.5928 L510.351 106.331 L510.729 73.2887 L510.855 76.0103 L511.233 104.608 L511.611 75.199 L511.737 76.6262 L512.115 103.921 L512.241 98.0834 L512.493 75.7886 L512.619 75.6587 L512.997 104.985 L513.123 99.4423 L513.375 74.4833 L513.501 74.0677 L513.879 106.969 L514.005 100.042 L514.256 72.0949 L514.382 73.0243 L514.76 108.71 L515.012 80.9252 L515.138 69.295 L515.264 73.6054 L515.516 107.132 L515.642 109.221 L516.02 67.2892 L516.146 76.6551 L516.398 110.875 L516.524 107.589 L516.902 67.074 L517.28 113.112 L517.406 102.874 L517.658 66.0053 L517.784 70.4044 L518.036 110.002 L518.162 111.777 L518.539 64.9299 L518.917 113.673 L519.043 105.946 L519.295 66.4186 L519.421 68.4618 L519.799 112.976 L520.177 64.0026 L520.303 75.97 L520.555 114.535 L520.681 108.121 L520.933 65.8473 L521.059 65.9206 L521.437 115.498 L521.815 62.3236 L521.941 71.8404 L522.193 114.455 L522.319 111.999 L522.696 63.4309 L523.074 115.443 L523.2 105.614 L523.452 65.7616 L523.578 68.1947 L523.956 112.218 L524.334 67.6968 L524.46 74.0998 L524.712 106.426 L524.838 107.137 L525.216 72.0614 L525.342 78.4879 L525.594 102.759 L525.72 102.767 L526.098 76.3331 L526.224 80.3647 L526.476 98.6791 L526.602 100.329 L526.979 79.242 L527.105 79.7776 L527.483 100.176 L527.609 97.4397 L527.987 77.5373 L528.239 94.1224 L528.365 101.743 L528.491 100.372 L528.869 74.872 L528.995 81.7581 L529.247 104.309 L529.373 102.267 L529.751 72.6558 L530.129 106.989 L530.255 102.449 L530.507 73.2311 L530.633 71.7789 L531.01 108.598 L531.136 100.855 L531.388 70.8875 L531.514 72.5016 L531.892 109.01 L532.27 69.2771 L532.396 74.2142 L532.648 106.666 L532.774 108.284 L533.152 69.0223 L533.278 77.1544 L533.53 107.929 L533.656 106.292 L534.034 69.7511 L534.412 108.526 L534.538 104.342 L534.79 73.0237 L534.915 70.4251 L535.293 109.163 L535.419 102.735 L535.671 71.3636 L535.797 70.9684 L536.175 109.589 L536.301 100.976 L536.553 70.1098 L536.679 71.9901 L537.057 109.547 L537.435 68.953 L537.561 73.2366 L537.939 109.571 L538.317 67.557 L538.443 74.799 L538.695 109.309 L538.821 109.11 L539.198 66.7846 L539.45 98.1881 L539.576 111.346 L539.702 106.712 L539.954 70.423 L540.08 68.1142 L540.458 111.483 L540.584 102.115 L540.836 68.507 L540.962 71.6669 L541.34 109.555 L541.718 68.4658 L541.844 77.2153 L542.096 108.563 L542.222 105.292 L542.474 73.2303 L542.6 71.0678 L542.978 107.699 L543.104 99.385 L543.355 72.4841 L543.481 75.8773 L543.733 102.869 L543.859 104.181 L544.237 74.6771 L544.489 93.8426 L544.615 101.904 L544.741 99.5123 L544.993 79.8402 L545.119 78.3773 L545.497 99.19 L545.623 95.6224 L545.875 81.5826 L546.001 81.9524 L546.379 96.1184 L546.757 83.9579 L546.883 84.6164 L547.261 93.7837 L547.512 88.2623 L547.638 85.7123 L547.764 85.8345 L548.142 92.731 L548.268 91.6484 L548.52 86.4807 L548.646 86.0301 L549.024 92.7241 L549.15 92.0171 L549.528 85.6093 L549.906 93.2856 L550.032 92.0377 L550.284 85.4008 L550.41 85.3276 L550.788 94.1014 L550.914 91.7328 L551.166 83.9425 L551.292 85.0762 L551.543 94.6204 L551.669 95.104 L552.047 82.021 L552.173 85.7257 L552.425 97.5328 L552.551 95.346 L552.803 80.6419 L552.929 80.6132 L553.307 100.185 L553.685 76.9503 L553.811 80.9175 L554.063 101.66 L554.189 101.13 L554.567 74.74 L554.945 105.16 L555.071 100.244 L555.323 73.6651 L555.449 74.034 L555.826 107.652 L556.204 69.4454 L556.33 75.3943 L556.582 108.326 L556.708 108.029 L557.086 67.3453 L557.464 112.018 L557.59 105.699 L557.842 68.3592 L557.968 67.9262 L558.346 113.203 L558.598 79.2065 L558.724 65.4589 L558.85 71.1524 L559.102 110.232 L559.228 111.627 L559.606 65.2215 L559.731 76.7195 L559.983 112.354 L560.109 107.223 L560.361 69.5628 L560.487 68.1409 L560.865 111.102 L561.117 81.0551 L561.243 69.1002 L561.369 73.9694 L561.621 105.814 L561.747 106.589 L562.125 72.1893 L562.503 104.104 L562.629 100.372 L562.881 78.0317 L563.007 77.799 L563.385 99.4426 L563.763 81.2912 L563.888 84.1771 L564.14 94.9592 L564.266 93.6875 L564.518 85.3119 L564.644 85.9718 L564.896 92.3909 L564.896 92.3909" style="fill:none;stroke:#4c72b0;stroke-linecap:round;stroke-width:1.75;"/>
   </g>
   <g id="patch_10">
    <path d=" M313.083 39.38 L564.896 39.38" style="fill:none;"/>
   </g>
   <g id="patch_11">
    <path d=" M564.896 139.16 L564.896 39.38" style="fill:none;"/>
   </g>
   <g id="patch_12">
    <path d=" M313.083 139.16 L564.896 139.16" style="fill:none;"/>
   </g>
   <g id="patch_13">
    <path d=" M313.083 139.16 L313.083 39.38" style="fill:none;"/>
   </g>
   <g id="text_12">
    <!-- Right Hand -->
    <defs>
     <path d=" M40.0938 8.5 Q37.6406 3.42188 33.6094 1.21875 Q29.5938 -0.984375 23.6406 -0.984375 Q13.625 -0.984375 8.90625 5.75 Q4.20312 12.5 4.20312 26.1719 Q4.20312 53.8125 23.6406 53.8125 Q29.6406 53.8125 33.6406 51.6094 Q37.6406 49.4219 40.0938 44.625 L40.1875 44.625 Q40.1875 45.125 40.1562 46.1719 Q40.1406 47.2188 40.1094 48.3594 Q40.0938 49.5156 40.0938 50.5312 Q40.0938 51.5625 40.0938 52 L40.0938 72.4688 L48.875 72.4688 L48.875 10.8906 Q48.875 8.98438 48.8906 7.21875 Q48.9219 5.46875 48.9688 4 Q49.0312 2.54688 49.0781 1.48438 Q49.125 0.4375 49.1719 0 L40.7656 0 Q40.6719 0.484375 40.5938 1.39062 Q40.5312 2.29688 40.4531 3.46875 Q40.375 4.64062 40.3281 5.9375 Q40.2812 7.23438 40.2812 8.5 z  M13.4219 26.4688 Q13.4219 21 14.1094 17.0938 Q14.7969 13.1875 16.3125 10.6719 Q17.8281 8.15625 20.1719 6.98438 Q22.5156 5.8125 25.875 5.8125 Q29.3438 5.8125 32 6.9375 Q34.6719 8.0625 36.4531 10.5781 Q38.2344 13.0938 39.1562 17.1406 Q40.0938 21.1875 40.0938 27.0469 Q40.0938 32.6719 39.1562 36.5469 Q38.2344 40.4375 36.4219 42.8281 Q34.625 45.2188 32 46.2656 Q29.3906 47.3125 25.9844 47.3125 Q22.75 47.3125 20.4062 46.1875 Q18.0625 45.0625 16.5 42.5781 Q14.9375 40.0938 14.1719 36.1094 Q13.4219 32.125 13.4219 26.4688" id="LiberationSans-64"/>
     <path d=" M26.7656 -20.75 Q22.2188 -20.75 18.7031 -19.8125 Q15.1875 -18.8906 12.6875 -17.1562 Q10.2031 -15.4375 8.64062 -13.0312 Q7.07812 -10.6406 6.39062 -7.71875 L15.2344 -6.45312 Q16.1094 -10.1094 19.1094 -12.0781 Q22.125 -14.0625 27 -14.0625 Q29.9844 -14.0625 32.4219 -13.2344 Q34.8594 -12.4062 36.5625 -10.5625 Q38.2812 -8.73438 39.2031 -5.79688 Q40.1406 -2.875 40.1406 1.3125 L40.1406 9.8125 L40.0469 9.8125 Q39.0625 7.8125 37.625 5.98438 Q36.1875 4.15625 34.1094 2.73438 Q32.0312 1.3125 29.2969 0.453125 Q26.5625 -0.390625 23.0469 -0.390625 Q18.0156 -0.390625 14.4219 1.29688 Q10.8438 2.98438 8.5625 6.34375 Q6.29688 9.71875 5.25 14.7188 Q4.20312 19.7344 4.20312 26.3125 Q4.20312 32.6719 5.25 37.75 Q6.29688 42.8281 8.65625 46.3594 Q11.0312 49.9062 14.8125 51.7812 Q18.6094 53.6562 24.0312 53.6562 Q29.6406 53.6562 33.7656 51.0938 Q37.8906 48.5312 40.1406 43.7969 L40.2344 43.7969 Q40.2344 45.0156 40.2969 46.5312 Q40.375 48.0469 40.4531 49.3906 Q40.5312 50.7344 40.625 51.7031 Q40.7188 52.6875 40.8281 52.8281 L49.1719 52.8281 Q49.125 52.3906 49.0781 51.3438 Q49.0312 50.2969 48.9688 48.8281 Q48.9219 47.3594 48.8906 45.5781 Q48.875 43.7969 48.875 41.8906 L48.875 1.51562 Q48.875 -9.57812 43.4219 -15.1562 Q37.9844 -20.75 26.7656 -20.75 M40.1406 26.4219 Q40.1406 31.9375 38.9375 35.8594 Q37.75 39.7969 35.7969 42.2812 Q33.8438 44.7812 31.3281 45.9531 Q28.8125 47.125 26.1719 47.125 Q22.7969 47.125 20.375 45.9531 Q17.9688 44.7812 16.375 42.2656 Q14.7969 39.75 14.0312 35.8125 Q13.2812 31.8906 13.2812 26.4219 Q13.2812 20.7031 14.0312 16.8125 Q14.7969 12.9375 16.3594 10.5469 Q17.9219 8.15625 20.3125 7.125 Q22.7031 6.10938 26.0312 6.10938 Q28.6562 6.10938 31.1719 7.21875 Q33.6875 8.34375 35.6875 10.7812 Q37.7031 13.2344 38.9219 17.0938 Q40.1406 20.9531 40.1406 26.4219" id="LiberationSans-67"/>
     <path d=" M20.2188 -0.984375 Q12.25 -0.984375 8.25 3.21875 Q4.25 7.42188 4.25 14.75 Q4.25 19.9688 6.21875 23.3125 Q8.20312 26.6562 11.3906 28.5625 Q14.5938 30.4688 18.6875 31.2031 Q22.7969 31.9375 27.0469 32.0312 L38.9219 32.2344 L38.9219 35.1094 Q38.9219 38.375 38.2344 40.6719 Q37.5469 42.9688 36.125 44.375 Q34.7188 45.7969 32.5938 46.4531 Q30.4688 47.125 27.5938 47.125 Q25.0469 47.125 23 46.75 Q20.9531 46.3906 19.4375 45.4375 Q17.9219 44.4844 16.9844 42.8438 Q16.0625 41.2188 15.7656 38.7188 L6.59375 39.5469 Q7.07812 42.6719 8.4375 45.2812 Q9.8125 47.9062 12.3281 49.7969 Q14.8438 51.7031 18.625 52.75 Q22.4062 53.8125 27.7812 53.8125 Q37.75 53.8125 42.7656 49.2344 Q47.7969 44.6719 47.7969 36.0312 L47.7969 13.2812 Q47.7969 9.375 48.8281 7.39062 Q49.8594 5.42188 52.7344 5.42188 Q53.4688 5.42188 54.2031 5.51562 Q54.9375 5.60938 55.6094 5.76562 L55.6094 0.296875 Q53.9531 -0.09375 52.3125 -0.28125 Q50.6875 -0.484375 48.8281 -0.484375 Q46.3438 -0.484375 44.5625 0.171875 Q42.7812 0.828125 41.6562 2.17188 Q40.5312 3.51562 39.9375 5.48438 Q39.3594 7.46875 39.2031 10.1094 L38.9219 10.1094 Q37.5 7.5625 35.8125 5.51562 Q34.125 3.46875 31.875 2.03125 Q29.6406 0.59375 26.7812 -0.1875 Q23.9219 -0.984375 20.2188 -0.984375 M22.2188 5.60938 Q26.4219 5.60938 29.5625 7.14062 Q32.7188 8.6875 34.7812 11.0781 Q36.8594 13.4844 37.8906 16.3125 Q38.9219 19.1406 38.9219 21.7344 L38.9219 26.0781 L29.2969 25.875 Q26.0781 25.8281 23.1719 25.4062 Q20.2656 25 18.0625 23.7812 Q15.875 22.5625 14.5781 20.3594 Q13.2812 18.1719 13.2812 14.5938 Q13.2812 10.2969 15.5938 7.95312 Q17.9219 5.60938 22.2188 5.60938" id="LiberationSans-61"/>
     <path d=" M15.4844 43.7969 Q16.9375 46.4844 18.6406 48.3594 Q20.3594 50.25 22.4062 51.4688 Q24.4688 52.6875 26.9062 53.25 Q29.3438 53.8125 32.375 53.8125 Q37.4531 53.8125 40.7031 52.4375 Q43.9531 51.0781 45.8281 48.6094 Q47.7031 46.1406 48.4062 42.7188 Q49.125 39.3125 49.125 35.2031 L49.125 0 L40.2812 0 L40.2812 33.5 Q40.2812 36.8594 39.8594 39.3906 Q39.4531 41.9375 38.2812 43.625 Q37.1094 45.3125 34.9531 46.1562 Q32.8125 47.0156 29.3906 47.0156 Q26.2656 47.0156 23.75 45.8906 Q21.2344 44.7812 19.4531 42.7188 Q17.6719 40.6719 16.6875 37.7344 Q15.7188 34.8125 15.7188 31.1562 L15.7188 0 L6.9375 0 L6.9375 72.4688 L15.7188 72.4688 L15.7188 53.6094 Q15.7188 52 15.6719 50.3906 Q15.625 48.7812 15.5469 47.4062 Q15.4844 46.0469 15.4219 45.0938 Q15.375 44.1406 15.3281 43.7969 z " id="LiberationSans-68"/>
     <path d=" M6.6875 64.0625 L6.6875 72.4688 L15.4844 72.4688 L15.4844 64.0625 z  M6.6875 0 L6.6875 52.8281 L15.4844 52.8281 L15.4844 0 z " id="LiberationSans-69"/>
     <path d=" M40.2812 0 L40.2812 33.5 Q40.2812 37.3594 39.7188 39.9375 Q39.1562 42.5312 37.8906 44.1094 Q36.625 45.7031 34.5469 46.3594 Q32.4688 47.0156 29.3906 47.0156 Q26.2656 47.0156 23.75 45.9219 Q21.2344 44.8281 19.4531 42.75 Q17.6719 40.6719 16.6875 37.625 Q15.7188 34.5781 15.7188 30.6094 L15.7188 0 L6.9375 0 L6.9375 41.5469 Q6.9375 43.2188 6.90625 45.0469 Q6.89062 46.875 6.82812 48.5 Q6.78125 50.1406 6.73438 51.3125 Q6.6875 52.4844 6.64062 52.8281 L14.9375 52.8281 Q14.9844 52.5938 15.0312 51.5156 Q15.0938 50.4375 15.1562 49.0469 Q15.2344 47.6562 15.2812 46.2188 Q15.3281 44.7812 15.3281 43.7969 L15.4844 43.7969 Q16.75 46.0938 18.2656 47.9531 Q19.7812 49.8125 21.7812 51.0938 Q23.7812 52.3906 26.3594 53.0938 Q28.9531 53.8125 32.375 53.8125 Q36.7656 53.8125 39.9375 52.7344 Q43.1094 51.6562 45.1562 49.4062 Q47.2188 47.1719 48.1719 43.625 Q49.125 40.0938 49.125 35.2031 L49.125 0 z " id="LiberationSans-6e"/>
     <path d=" M54.7344 0 L54.7344 31.8906 L17.5312 31.8906 L17.5312 0 L8.20312 0 L8.20312 68.7969 L17.5312 68.7969 L17.5312 39.7031 L54.7344 39.7031 L54.7344 68.7969 L64.0625 68.7969 L64.0625 0 z " id="LiberationSans-48"/>
     <path id="LiberationSans-20"/>
    </defs>
    <g style="fill:#262626;" transform="translate(409.36 34.38)scale(0.12 -0.12)">
     <use xlink:href="#LiberationSans-52"/>
     <use x="72.216796875" xlink:href="#LiberationSans-69"/>
     <use x="94.43359375" xlink:href="#LiberationSans-67"/>
     <use x="150.048828125" xlink:href="#LiberationSans-68"/>
     <use x="205.6640625" xlink:href="#LiberationSans-74"/>
     <use x="233.447265625" xlink:href="#LiberationSans-20"/>
     <use x="261.23046875" xlink:href="#LiberationSans-48"/>
     <use x="333.447265625" xlink:href="#LiberationSans-61"/>
     <use x="389.0625" xlink:href="#LiberationSans-6e"/>
     <use x="444.677734375" xlink:href="#LiberationSans-64"/>
    </g>
   </g>
  </g>
  <g id="text_13">
   <!-- Time [ms] -->
   <defs>
    <path d=" M37.5 0 L37.5 33.5 Q37.5 37.3594 37.0156 39.9375 Q36.5312 42.5312 35.375 44.1094 Q34.2344 45.7031 32.375 46.3594 Q30.5156 47.0156 27.8281 47.0156 Q25.0469 47.0156 22.7969 45.9219 Q20.5625 44.8281 18.9688 42.75 Q17.3906 40.6719 16.5312 37.625 Q15.6719 34.5781 15.6719 30.6094 L15.6719 0 L6.9375 0 L6.9375 41.5469 Q6.9375 43.2188 6.90625 45.0469 Q6.89062 46.875 6.82812 48.5 Q6.78125 50.1406 6.73438 51.3125 Q6.6875 52.4844 6.64062 52.8281 L14.9375 52.8281 Q14.9844 52.5938 15.0312 51.5156 Q15.0938 50.4375 15.1562 49.0469 Q15.2344 47.6562 15.2812 46.2188 Q15.3281 44.7812 15.3281 43.7969 L15.4844 43.7969 Q16.6562 46.0938 18.0156 47.9531 Q19.3906 49.8125 21.2188 51.0938 Q23.0469 52.3906 25.4062 53.0938 Q27.7812 53.8125 30.9062 53.8125 Q36.9219 53.8125 40.4062 51.4219 Q43.8906 49.0312 45.2656 43.7969 L45.4062 43.7969 Q46.5781 46.0938 48.0469 47.9531 Q49.5156 49.8125 51.4688 51.0938 Q53.4219 52.3906 55.8594 53.0938 Q58.2969 53.8125 61.4219 53.8125 Q65.4375 53.8125 68.3281 52.7344 Q71.2344 51.6562 73.0938 49.4062 Q74.9531 47.1719 75.8281 43.625 Q76.7031 40.0938 76.7031 35.2031 L76.7031 0 L68.0156 0 L68.0156 33.5 Q68.0156 37.3594 67.5312 39.9375 Q67.0469 42.5312 65.8906 44.1094 Q64.75 45.7031 62.8906 46.3594 Q61.0312 47.0156 58.3438 47.0156 Q55.5625 47.0156 53.3125 45.9688 Q51.0781 44.9219 49.4844 42.875 Q47.9062 40.8281 47.0469 37.75 Q46.1875 34.6719 46.1875 30.6094 L46.1875 0 z " id="LiberationSans-6d"/>
    <path d=" M35.1562 61.1875 L35.1562 0 L25.875 0 L25.875 61.1875 L2.25 61.1875 L2.25 68.7969 L58.7969 68.7969 L58.7969 61.1875 z " id="LiberationSans-54"/>
    <path d=" M0.78125 -20.75 L0.78125 -14.4531 L12.1562 -14.4531 L12.1562 66.1562 L0.78125 66.1562 L0.78125 72.4688 L20.6562 72.4688 L20.6562 -20.75 z " id="LiberationSans-5d"/>
    <path d=" M7.125 -20.75 L7.125 72.4688 L27 72.4688 L27 66.1562 L15.625 66.1562 L15.625 -14.4531 L27 -14.4531 L27 -20.75 z " id="LiberationSans-5b"/>
   </defs>
   <g style="fill:#262626;" transform="translate(269.521875 169.97625)scale(0.12 -0.12)">
    <use xlink:href="#LiberationSans-54"/>
    <use x="57.333984375" xlink:href="#LiberationSans-69"/>
    <use x="79.55078125" xlink:href="#LiberationSans-6d"/>
    <use x="162.8515625" xlink:href="#LiberationSans-65"/>
    <use x="218.466796875" xlink:href="#LiberationSans-20"/>
    <use x="246.25" xlink:href="#LiberationSans-5b"/>
    <use x="274.033203125" xlink:href="#LiberationSans-6d"/>
    <use x="357.333984375" xlink:href="#LiberationSans-73"/>
    <use x="407.333984375" xlink:href="#LiberationSans-5d"/>
   </g>
  </g>
  <g id="text_14">
   <!-- Voltage -->
   <defs>
    <path d=" M51.4219 26.4688 Q51.4219 12.5938 45.3125 5.79688 Q39.2031 -0.984375 27.5938 -0.984375 Q22.0781 -0.984375 17.7188 0.671875 Q13.375 2.34375 10.375 5.76562 Q7.375 9.1875 5.78125 14.3281 Q4.20312 19.4844 4.20312 26.4688 Q4.20312 53.8125 27.875 53.8125 Q34.0312 53.8125 38.5 52.0938 Q42.9688 50.3906 45.8281 46.9688 Q48.6875 43.5625 50.0469 38.4219 Q51.4219 33.2969 51.4219 26.4688 M42.1875 26.4688 Q42.1875 32.625 41.2344 36.625 Q40.2812 40.625 38.4531 43.0156 Q36.625 45.4062 33.9844 46.3594 Q31.3438 47.3125 28.0312 47.3125 Q24.6562 47.3125 21.9375 46.3125 Q19.2344 45.3125 17.3281 42.8906 Q15.4375 40.4844 14.4219 36.4688 Q13.4219 32.4688 13.4219 26.4688 Q13.4219 20.3125 14.5 16.2812 Q15.5781 12.25 17.4531 9.85938 Q19.3438 7.46875 21.9062 6.48438 Q24.4688 5.51562 27.4844 5.51562 Q30.8594 5.51562 33.5938 6.46875 Q36.3281 7.42188 38.2344 9.8125 Q40.1406 12.2031 41.1562 16.25 Q42.1875 20.3125 42.1875 26.4688" id="LiberationSans-6f"/>
    <path d=" M38.1875 0 L28.5156 0 L0.4375 68.7969 L10.25 68.7969 L29.2969 20.3594 Q30.0312 18.1719 30.7656 15.9844 Q31.5 13.8125 32.0781 12.1094 Q32.7656 10.1094 33.4062 8.20312 Q33.9844 10.0156 34.6719 12.0156 Q35.25 13.7188 35.9531 15.8594 Q36.6719 18.0156 37.5 20.3594 L56.4531 68.7969 L66.2656 68.7969 z " id="LiberationSans-56"/>
    <path d=" M6.73438 0 L6.73438 72.4688 L15.5312 72.4688 L15.5312 0 z " id="LiberationSans-6c"/>
   </defs>
   <g style="fill:#262626;" transform="translate(15.89625 110.4459375)rotate(-90.0)scale(0.12 -0.12)">
    <use xlink:href="#LiberationSans-56"/>
    <use x="61.19921875" xlink:href="#LiberationSans-6f"/>
    <use x="116.814453125" xlink:href="#LiberationSans-6c"/>
    <use x="139.03125" xlink:href="#LiberationSans-74"/>
    <use x="166.814453125" xlink:href="#LiberationSans-61"/>
    <use x="222.4296875" xlink:href="#LiberationSans-67"/>
    <use x="278.044921875" xlink:href="#LiberationSans-65"/>
   </g>
  </g>
  <g id="text_15">
   <!-- CP3, 72-78Hz -->
   <defs>
    <path d=" M18.7969 10.6875 L18.7969 2.48438 Q18.7969 -0.09375 18.5781 -2.21875 Q18.3594 -4.34375 17.875 -6.17188 Q17.3906 -8.01562 16.6719 -9.625 Q15.9688 -11.2344 14.9844 -12.7969 L8.98438 -12.7969 Q11.1875 -9.625 12.375 -6.39062 Q13.5781 -3.17188 13.5781 0 L9.28125 0 L9.28125 10.6875 z " id="LiberationSans-2c"/>
    <path d=" M4.4375 22.6562 L4.4375 30.4688 L28.8594 30.4688 L28.8594 22.6562 z " id="LiberationSans-2d"/>
    <path d=" M61.4219 48.0938 Q61.4219 43.6094 59.9375 39.7188 Q58.4531 35.8438 55.5 32.9844 Q52.5469 30.125 48.0938 28.4688 Q43.6562 26.8125 37.75 26.8125 L17.5312 26.8125 L17.5312 0 L8.20312 0 L8.20312 68.7969 L37.1562 68.7969 Q43.2656 68.7969 47.7969 67.3125 Q52.3438 65.8281 55.375 63.1094 Q58.4062 60.4062 59.9062 56.5625 Q61.4219 52.7344 61.4219 48.0938 M52.0469 48 Q52.0469 54.5469 48.0469 57.9375 Q44.0469 61.3281 36.0312 61.3281 L17.5312 61.3281 L17.5312 34.1875 L36.4219 34.1875 Q44.4844 34.1875 48.2656 37.75 Q52.0469 41.3125 52.0469 48" id="LiberationSans-50"/>
    <path d=" M50.5938 61.6719 Q45.4062 53.7656 41.0625 46.4531 Q36.7188 39.1562 33.5938 31.75 Q30.4688 24.3594 28.7344 16.5781 Q27 8.79688 27 0 L17.8281 0 Q17.8281 8.25 19.7812 16.1875 Q21.7344 24.125 25.0469 31.7656 Q28.375 39.4062 32.7656 46.7812 Q37.1562 54.1562 42.0938 61.3281 L5.125 61.3281 L5.125 68.7969 L50.5938 68.7969 z " id="LiberationSans-37"/>
    <path d=" M2.39062 0 L2.39062 6.6875 L34.6719 46.0469 L4.34375 46.0469 L4.34375 52.8281 L44.5781 52.8281 L44.5781 46.1406 L12.25 6.78125 L46.3906 6.78125 L46.3906 0 z " id="LiberationSans-7a"/>
    <path d=" M38.6719 62.2031 Q32.8125 62.2031 28.2969 60.25 Q23.7812 58.2969 20.7188 54.6875 Q17.6719 51.0781 16.1094 46 Q14.5469 40.9219 14.5469 34.7188 Q14.5469 28.5156 16.2344 23.3594 Q17.9219 18.2188 21.0625 14.5 Q24.2188 10.7969 28.7812 8.73438 Q33.3438 6.6875 39.0625 6.6875 Q43.0625 6.6875 46.3594 7.73438 Q49.6562 8.79688 52.3125 10.6875 Q54.9844 12.5938 57.0781 15.2031 Q59.1875 17.8281 60.7969 21 L68.4062 17.1875 Q66.5469 13.3281 63.8125 10 Q61.0781 6.6875 57.3906 4.25 Q53.7188 1.8125 49.0469 0.40625 Q44.3906 -0.984375 38.625 -0.984375 Q30.2812 -0.984375 24 1.67188 Q17.7188 4.34375 13.5 9.10938 Q9.28125 13.875 7.17188 20.4062 Q5.07812 26.9531 5.07812 34.7188 Q5.07812 42.7812 7.29688 49.2656 Q9.51562 55.7656 13.7812 60.3281 Q18.0625 64.8906 24.3125 67.3594 Q30.5625 69.8281 38.5781 69.8281 Q49.5625 69.8281 56.9375 65.5312 Q64.3125 61.2344 67.7812 52.7812 L58.9375 49.8594 Q57.9531 52.2969 56.2969 54.5156 Q54.6406 56.7344 52.1406 58.4375 Q49.6562 60.1562 46.3125 61.1719 Q42.9688 62.2031 38.6719 62.2031" id="LiberationSans-43"/>
    <path d=" M51.2656 19.1875 Q51.2656 14.7969 49.875 11.1094 Q48.4844 7.42188 45.625 4.73438 Q42.7812 2.04688 38.3281 0.53125 Q33.8906 -0.984375 27.8281 -0.984375 Q21.7812 -0.984375 17.3594 0.53125 Q12.9375 2.04688 10.0312 4.70312 Q7.125 7.375 5.73438 11.0625 Q4.34375 14.75 4.34375 19.0938 Q4.34375 22.8594 5.48438 25.7812 Q6.64062 28.7188 8.5625 30.8281 Q10.5 32.9531 12.9688 34.25 Q15.4375 35.5469 18.0625 35.9844 L18.0625 36.1875 Q15.1875 36.8594 12.9062 38.375 Q10.6406 39.8906 9.09375 42.0156 Q7.5625 44.1406 6.75 46.7188 Q5.95312 49.3125 5.95312 52.2031 Q5.95312 55.8125 7.34375 59 Q8.73438 62.2031 11.4688 64.625 Q14.2031 67.0469 18.25 68.4375 Q22.3125 69.8281 27.6406 69.8281 Q33.25 69.8281 37.375 68.4062 Q41.5 67 44.2031 64.5781 Q46.9219 62.1562 48.2344 58.9375 Q49.5625 55.7188 49.5625 52.0938 Q49.5625 49.2656 48.75 46.6719 Q47.9531 44.0938 46.4062 41.9688 Q44.875 39.8438 42.5938 38.3438 Q40.3281 36.8594 37.3594 36.2812 L37.3594 36.0781 Q40.3281 35.5938 42.8594 34.2969 Q45.4062 33.0156 47.2656 30.8906 Q49.125 28.7656 50.1875 25.8281 Q51.2656 22.9062 51.2656 19.1875 M40.4375 51.6094 Q40.4375 54.2031 39.7656 56.3438 Q39.1094 58.5 37.5938 60.0312 Q36.0781 61.5781 33.6406 62.4219 Q31.2031 63.2812 27.6406 63.2812 Q24.1719 63.2812 21.7812 62.4219 Q19.3906 61.5781 17.8438 60.0312 Q16.3125 58.5 15.625 56.3438 Q14.9375 54.2031 14.9375 51.6094 Q14.9375 49.5625 15.4688 47.4062 Q16.0156 45.2656 17.4219 43.5 Q18.8438 41.75 21.3281 40.625 Q23.8281 39.5 27.7344 39.5 Q31.8906 39.5 34.4062 40.625 Q36.9219 41.75 38.25 43.5 Q39.5938 45.2656 40.0156 47.4062 Q40.4375 49.5625 40.4375 51.6094 M42.1406 20.0156 Q42.1406 22.5156 41.4531 24.8281 Q40.7656 27.1562 39.1094 28.9375 Q37.4531 30.7188 34.6406 31.8125 Q31.8438 32.9062 27.6406 32.9062 Q23.7812 32.9062 21.0625 31.8125 Q18.3594 30.7188 16.6719 28.9062 Q14.9844 27.0938 14.2031 24.7188 Q13.4219 22.3594 13.4219 19.8281 Q13.4219 16.6562 14.2031 14.0312 Q14.9844 11.4219 16.6875 9.54688 Q18.4062 7.67188 21.1875 6.64062 Q23.9688 5.60938 27.9375 5.60938 Q31.9375 5.60938 34.6719 6.64062 Q37.4062 7.67188 39.0625 9.54688 Q40.7188 11.4219 41.4219 14.0781 Q42.1406 16.75 42.1406 20.0156" id="LiberationSans-38"/>
   </defs>
   <g style="fill:#262626;" transform="translate(245.245 18.795)scale(0.16 -0.16)">
    <use xlink:href="#LiberationSans-43"/>
    <use x="72.216796875" xlink:href="#LiberationSans-50"/>
    <use x="138.916015625" xlink:href="#LiberationSans-33"/>
    <use x="194.53125" xlink:href="#LiberationSans-2c"/>
    <use x="222.314453125" xlink:href="#LiberationSans-20"/>
    <use x="250.09765625" xlink:href="#LiberationSans-37"/>
    <use x="305.712890625" xlink:href="#LiberationSans-32"/>
    <use x="361.328125" xlink:href="#LiberationSans-2d"/>
    <use x="394.62890625" xlink:href="#LiberationSans-37"/>
    <use x="450.244140625" xlink:href="#LiberationSans-38"/>
    <use x="505.859375" xlink:href="#LiberationSans-48"/>
    <use x="578.076171875" xlink:href="#LiberationSans-7a"/>
   </g>
  </g>
 </g>
 <defs>
  <clipPath id="p7fb8a086bb">
   <rect height="99.78" width="251.813125" x="313.083125" y="39.38"/>
  </clipPath>
  <clipPath id="p233c017f95">
   <rect height="99.78" width="251.813125" x="40.5475" y="39.38"/>
  </clipPath>
 </defs>
</svg>