<?xml version="1.0" encoding="UTF-8" standalone="no"?>
<!-- Created with Inkscape (http://www.inkscape.org/) -->

<svg
   xmlns:dc="http://purl.org/dc/elements/1.1/"
   xmlns:cc="http://creativecommons.org/ns#"
   xmlns:rdf="http://www.w3.org/1999/02/22-rdf-syntax-ns#"
   xmlns:svg="http://www.w3.org/2000/svg"
   xmlns="http://www.w3.org/2000/svg"
   xmlns:xlink="http://www.w3.org/1999/xlink"
   xmlns:sodipodi="http://sodipodi.sourceforge.net/DTD/sodipodi-0.dtd"
   xmlns:inkscape="http://www.inkscape.org/namespaces/inkscape"
   width="452.63611mm"
   height="180.10388mm"
   viewBox="0 0 1603.8287 638.16333"
   id="svg4349"
   version="1.1"
   inkscape:version="0.91 r"
   sodipodi:docname="raw_net_explanation.svg">
  <defs
     id="defs4351" />
  <sodipodi:namedview
     id="base"
     pagecolor="#ffffff"
     bordercolor="#666666"
     borderopacity="1.0"
     inkscape:pageopacity="0.0"
     inkscape:pageshadow="2"
     inkscape:zoom="0.49497474"
     inkscape:cx="682.28509"
     inkscape:cy="251.30047"
     inkscape:document-units="px"
     inkscape:current-layer="layer1"
     showgrid="false"
     fit-margin-top="0"
     fit-margin-left="0"
     fit-margin-right="0"
     fit-margin-bottom="0"
     inkscape:window-width="1215"
     inkscape:window-height="776"
     inkscape:window-x="65"
     inkscape:window-y="24"
     inkscape:window-maximized="1" />
  <metadata
     id="metadata4354">
    <rdf:RDF>
      <cc:Work
         rdf:about="">
        <dc:format>image/svg+xml</dc:format>
        <dc:type
           rdf:resource="http://purl.org/dc/dcmitype/StillImage" />
        <dc:title />
      </cc:Work>
    </rdf:RDF>
  </metadata>
  <g
     inkscape:label="Layer 1"
     inkscape:groupmode="layer"
     id="layer1"
     transform="translate(879.91676,-132.82486)">
    <text
       xml:space="preserve"
       style="font-style:normal;font-weight:normal;font-size:30px;line-height:125%;font-family:Sans;letter-spacing:0px;word-spacing:0px;fill:#000000;fill-opacity:1;stroke:none;stroke-width:1px;stroke-linecap:butt;stroke-linejoin:miter;stroke-opacity:1"
       x="-594.15253"
       y="443.68634"
       id="text3404"
       sodipodi:linespacing="125%"><tspan
         sodipodi:role="line"
         id="tspan3406"
         style="font-size:30px;stroke-linecap:butt;stroke-linejoin:round"
         x="-594.15253"
         y="443.68634">Convolve </tspan><tspan
         sodipodi:role="line"
         style="font-size:30px;stroke-linecap:butt;stroke-linejoin:round"
         x="-594.15253"
         y="481.18634"
         id="tspan4328">over </tspan><tspan
         sodipodi:role="line"
         style="font-size:30px;stroke-linecap:butt;stroke-linejoin:round"
         x="-594.15253"
         y="518.68634"
         id="tspan9592">time</tspan><tspan
         id="tspan3420"
         sodipodi:role="line"
         style="font-size:30px;stroke-linecap:butt;stroke-linejoin:round"
         x="-594.15253"
         y="556.18634" /></text>
    <text
       sodipodi:linespacing="125%"
       id="text3488"
       y="443.68634"
       x="202.7401"
       style="font-style:normal;font-weight:normal;font-size:22.5px;line-height:125%;font-family:Sans;letter-spacing:0px;word-spacing:0px;fill:#000000;fill-opacity:1;stroke:none;stroke-width:1px;stroke-linecap:butt;stroke-linejoin:miter;stroke-opacity:1"
       xml:space="preserve"><tspan
         y="443.68634"
         x="202.7401"
         style="font-size:30px;stroke-linecap:butt;stroke-linejoin:round"
         sodipodi:role="line"
         id="tspan11510">Take</tspan><tspan
         y="481.18634"
         x="202.7401"
         style="font-size:30px;stroke-linecap:butt;stroke-linejoin:round"
         sodipodi:role="line"
         id="tspan4338">logarithm</tspan><tspan
         y="518.68634"
         x="202.7401"
         style="font-size:30px;stroke-linecap:butt;stroke-linejoin:round"
         sodipodi:role="line"
         id="tspan8754">of sum of</tspan><tspan
         y="556.18634"
         x="202.7401"
         style="font-size:30px;stroke-linecap:butt;stroke-linejoin:round"
         sodipodi:role="line"
         id="tspan8758">neighbouring</tspan><tspan
         y="593.68634"
         x="202.7401"
         style="font-size:30px;stroke-linecap:butt;stroke-linejoin:round"
         sodipodi:role="line"
         id="tspan12321">timesamples</tspan></text>
    <text
       xml:space="preserve"
       style="font-style:normal;font-weight:normal;font-size:22.5px;line-height:125%;font-family:Sans;letter-spacing:0px;word-spacing:0px;fill:#000000;fill-opacity:1;stroke:none;stroke-width:1px;stroke-linecap:butt;stroke-linejoin:miter;stroke-opacity:1"
       x="-361.35626"
       y="443.29083"
       id="text4892"
       sodipodi:linespacing="125%"><tspan
         sodipodi:role="line"
         id="tspan4894"
         style="font-size:30px;stroke-linecap:butt;stroke-linejoin:round"
         x="-361.35626"
         y="443.29083">One output </tspan><tspan
         sodipodi:role="line"
         style="font-size:30px;stroke-linecap:butt;stroke-linejoin:round"
         x="-361.35626"
         y="480.79083"
         id="tspan4330">per timebin </tspan><tspan
         sodipodi:role="line"
         style="font-size:30px;stroke-linecap:butt;stroke-linejoin:round"
         x="-361.35626"
         y="518.29083"
         id="tspan4898">per sensor</tspan><tspan
         sodipodi:role="line"
         style="font-size:30px;stroke-linecap:butt;stroke-linejoin:round"
         x="-361.35626"
         y="555.79083"
         id="tspan8742">per unit</tspan></text>
    <text
       xml:space="preserve"
       style="font-style:normal;font-weight:normal;font-size:22.5px;line-height:125%;font-family:Sans;letter-spacing:0px;word-spacing:0px;fill:#000000;fill-opacity:1;stroke:none;stroke-width:1px;stroke-linecap:butt;stroke-linejoin:miter;stroke-opacity:1"
       x="-151.35628"
       y="443.68634"
       id="text4892-8"
       sodipodi:linespacing="125%"><tspan
         sodipodi:role="line"
         style="font-size:30px;stroke-linecap:butt;stroke-linejoin:round"
         x="-151.35628"
         y="443.68634"
         id="tspan4898-6">Convolve </tspan><tspan
         sodipodi:role="line"
         style="font-size:30px;stroke-linecap:butt;stroke-linejoin:round"
         x="-151.35628"
         y="481.18634"
         id="tspan4336">over</tspan><tspan
         sodipodi:role="line"
         style="font-size:30px;stroke-linecap:butt;stroke-linejoin:round"
         x="-151.35628"
         y="518.68634"
         id="tspan14611">sensors and</tspan><tspan
         sodipodi:role="line"
         style="font-size:30px;stroke-linecap:butt;stroke-linejoin:round"
         x="-151.35628"
         y="556.18634"
         id="tspan8762">units </tspan></text>
    <text
       xml:space="preserve"
       style="font-style:normal;font-weight:normal;font-size:30px;line-height:125%;font-family:Sans;letter-spacing:0px;word-spacing:0px;fill:#000000;fill-opacity:1;stroke:none;stroke-width:1px;stroke-linecap:butt;stroke-linejoin:miter;stroke-opacity:1"
       x="-859.29541"
       y="443.68634"
       id="text3404-0"
       sodipodi:linespacing="125%"><tspan
         sodipodi:role="line"
         style="font-size:30px;stroke-linecap:butt;stroke-linejoin:round"
         x="-859.29541"
         y="443.68634"
         id="tspan3675">One input</tspan><tspan
         sodipodi:role="line"
         style="font-size:30px;stroke-linecap:butt;stroke-linejoin:round"
         x="-859.29541"
         y="481.18634"
         id="tspan11243">per timesample</tspan><tspan
         sodipodi:role="line"
         style="font-size:30px;stroke-linecap:butt;stroke-linejoin:round"
         x="-859.29541"
         y="518.68634"
         id="tspan10850">per sensor</tspan></text>
    <g
       id="figure_1"
       transform="matrix(1.2499999,0,0,1.2499999,-879.91676,135.53902)"
       style="stroke-linecap:butt;stroke-linejoin:round">
      <g
         id="patch_1"
         style="stroke-linecap:butt;stroke-linejoin:round">
        <path
           id="path11059"
           style="fill:none;stroke-linecap:butt;stroke-linejoin:round"
           d="m 0,181.8 215.28,0 L 215.28,0 0,0 Z"
           inkscape:connector-curvature="0" />
      </g>
      <g
         id="axes_1"
         style="stroke-linecap:butt;stroke-linejoin:round">
        <g
           id="patch_2"
           style="stroke-linecap:butt;stroke-linejoin:round">
          <path
             id="path11063"
             style="fill:#ffffff;stroke-linecap:butt;stroke-linejoin:round"
             d="m 40.68,63 167.4,0 0,-55.8 -167.4,0 z"
             inkscape:connector-curvature="0" />
        </g>
        <g
           id="line2d_1"
           style="stroke-linecap:butt;stroke-linejoin:round">
          <path
             id="path11066"
             style="fill:none;stroke:#0000ff;stroke-linecap:square;stroke-linejoin:round"
             d="m 40.68,27.5287 1.116,10.8976 0.558,-3.0653 1.116,-16.6683 0.558,5.5597 0.558,8.0947 0.558,2.2185 0.558,-8.3095 0.558,-6.5326 0.558,-4.392 0.558,7.0279 0.558,11.6367 0.558,-8.7034 0.558,-4.8825 0.558,3.1557 0.558,2.3099 0.558,13.1532 0.558,-4.6666 0.558,-11.6088 0.558,-4.6053 0.558,5.8607 0.558,7.0528 0.558,2.807 0.558,-0.328 0.558,-2.4145 0.558,0.8533 0.558,7.184 0.558,-2.4546 0.558,-2.9739 0.558,7.1974 0.558,-0.0598 0.558,-6.3619 0.558,-9.6324 0.558,2.3091 0.558,-3.1052 0.558,-2.3004 0.558,-4.0337 0.558,1.3792 0.558,8.8657 0.558,5.859 0.558,0.0908 0.558,13.9564 0.558,11.1638 0.558,-0.5055 0.558,1.3567 0.558,-5.8987 0.558,0.4798 0.558,-3.1434 0.558,0.1879 1.116,-8.9586 0.558,-0.9763 0.558,2.7326 0.558,1.5976 0.558,-0.2408 0.558,2.7447 0.558,1.6713 0.558,-0.0876 0.558,-0.7424 0.558,1.3831 0.558,-9.4842 1.116,-3.3135 1.116,-15.5747 0.558,-1.2631 0.558,2.3834 0.558,4.5742 0.558,-1.2847 0.558,-4 0.558,-0.8884 0.558,5.4487 0.558,10.6391 0.558,0.0436 0.558,-6.3976 0.558,-11.0394 0.558,-1.4118 0.558,0.5408 0.558,1.3439 0.558,0.4885 0.558,-11.1475 0.558,2.2973 0.558,6.6558 1.116,7.9484 0.558,-1.8901 0.558,0.1514 0.558,0.5163 0.558,7.7023 0.558,0.0755 1.116,-14.3213 1.674,-11.62122 0.558,6.78882 0.558,-2.7481 0.558,0.1766 0.558,9.2357 0.558,3.6887 0.558,1.2677 0.558,0.6487 0.558,-0.1143 0.558,-1.3256 0.558,5.0888 0.558,-2.9729 0.558,3.8829 0.558,-3.0845 1.116,-16.9142 0.558,-3.05725 0.558,5.50405 0.558,2.5084 0.558,1.6742 0.558,-0.262 0.558,0.1266 0.558,5.0056 0.558,7.7483 0.558,-0.2072 1.116,6.2654 0.558,-0.1071 0.558,5.8891 0.558,-11.3212 1.116,-0.2633 0.558,-2.0505 0.558,4.8027 0.558,-2.0949 0.558,-5.3677 1.116,3.861 0.558,6.8788 0.558,-10.7506 0.558,-2.128 0.558,-1.1996 0.558,-0.2685 0.558,2.5277 0.558,1.2302 0.558,-1.6332 0.558,-9.1711 0.558,-4.8244 0.558,9.2972 0.558,4.6026 0.558,1.9498 0.558,-2.8302 0.558,-5.8112 0.558,0.3353 0.558,1.5441 0.558,5.948 0.558,3.7283 0.558,-3.511 0.558,-7.1351 0.558,4.1333 0.558,7.9238 0.558,2.133 0.558,4.0184 1.116,-6.2653 0.558,0.2417 0.558,2.9599 0.558,-1.5807 0.558,5.4967 0.558,1.067 0.558,-10.4882 0.558,-3.8454 0.558,-7.259 0.558,-4.7455 0.558,1.4388 0.558,2.5532 0.558,1.5099 0.558,3.1451 0.558,5.5106 0.558,-1.8126 0.558,2.6499 0.558,3.9527 0.558,0.5783 0.558,-3.8151 0.558,1.3333 0.558,-2.5802 1.116,5.2114 0.558,-3.204 0.558,1.0176 1.116,-5.0533 0.558,4.0096 0.558,2.5359 0.558,-7.0592 0.558,5.187 0.558,-3.0435 0.558,-4.7045 0.558,-0.7063 0.558,-1.5103 0.558,2.9122 0.558,0.2784 0.558,4.7563 0.558,1.244 0.558,-8.7793 0.558,-6.6907 0.558,2.2612 0.558,3.4794 0.558,14.6935 0.558,4.5 0.558,-4.7484 0.558,-0.0317 0.558,2.2636 0.558,-1.8079 0.558,6.2808 0.558,-0.5821 0.558,-4.8431 0.558,4.8748 0.558,-0.1262 0.558,-4.9181 0.558,-1.0478 1.116,-4.2132 0.558,1.597 0.558,7.6865 0.558,0.2789 0.558,4.1683 0.558,1.5698 0.558,-7.1587 0.558,-3.4905 0.558,-6.4375 0.558,2.4015 0.558,1.0717 0.558,3.3103 1.116,-8.6422 0.558,-0.2046 0.558,4.0814 0.558,1.3656 0.558,-1.0624 0.558,-8.6963 0.558,-1.5697 0.558,10.1553 0.558,1.3264 0.558,7.7609 0.558,-2.1766 0.558,-0.9183 0.558,-2.9441 0.558,2.3086 0.558,-1.8612 0.558,3.1643 0.558,0.4348 0.558,0.2895 0.558,-1.0291 0.558,4.2498 0.558,0.5773 1.116,-7.3607 0.558,4.4058 0.558,6.6796 0.558,0.1435 0.558,-3.3742 0.558,-9.3934 0.558,-1.6928 0.558,0.5499 0.558,4.7604 0.558,-2.8367 0.558,-4.6197 0.558,-8.5837 0.558,-2.2877 0.558,4.0207 1.116,3.8634 0.558,-2.5128 0.558,1.37 0.558,4.6567 0.558,12.5734 0.558,1.3925 0.558,-0.4793 0.558,-1.3806 0.558,-0.1462 0.558,5.1741 0.558,-1.0647 1.116,-9.762 0.558,-8.223 0.558,1.7844 0.558,3.2335 0.558,-8.7054 0.558,-0.0145 0.558,-2.2037 0.558,11.519 0.558,-1.3663 0.558,4.4444 0.558,1.7622 0.558,-5.2379 0.558,2.9363 0.558,5.3304 1.116,-7.5045 0.558,0.1148 1.116,10.891 0.558,-0.0308 0,0"
             clip-path="url(#p99d6626aaa)"
             inkscape:connector-curvature="0" />
        </g>
        <g
           id="patch_3"
           style="stroke-linecap:butt;stroke-linejoin:round">
          <path
             id="path11069"
             style="fill:none;stroke:#000000;stroke-linecap:square;stroke-linejoin:miter"
             d="m 40.68,7.2 167.4,0"
             inkscape:connector-curvature="0" />
        </g>
        <g
           id="patch_4"
           style="stroke-linecap:butt;stroke-linejoin:round">
          <path
             id="path11072"
             style="fill:none;stroke:#000000;stroke-linecap:square;stroke-linejoin:miter"
             d="m 208.08,63 0,-55.8"
             inkscape:connector-curvature="0" />
        </g>
        <g
           id="patch_5"
           style="stroke-linecap:butt;stroke-linejoin:round">
          <path
             id="path11075"
             style="fill:none;stroke:#000000;stroke-linecap:square;stroke-linejoin:miter"
             d="m 40.68,63 167.4,0"
             inkscape:connector-curvature="0" />
        </g>
        <g
           id="patch_6"
           style="stroke-linecap:butt;stroke-linejoin:round">
          <path
             id="path11078"
             style="fill:none;stroke:#000000;stroke-linecap:square;stroke-linejoin:miter"
             d="m 40.68,63 0,-55.8"
             inkscape:connector-curvature="0" />
        </g>
        <g
           id="matplotlib.axis_1-0"
           style="stroke-linecap:butt;stroke-linejoin:round" />
        <g
           id="matplotlib.axis_2-2"
           style="stroke-linecap:butt;stroke-linejoin:round" />
        <g
           id="text_1"
           style="stroke-linecap:butt;stroke-linejoin:round">
          <!-- C3 -->
          <defs
             id="defs11083">
            <path
               id="BitstreamVeraSans-Roman-33"
               d="M 40.5781,39.3125 Q 47.6562,37.7969 51.625,33 q 3.9844,-4.7812 3.9844,-11.8125 0,-10.7813 -7.4219,-16.70312 -7.4219,-5.90626 -21.0937,-5.90626 -4.5782,0 -9.4376,0.906255 Q 12.7969,0.390625 7.625,2.20312 l 0,9.51568 q 4.0938,-2.39068 8.9688,-3.60942 4.8906,-1.21876 10.2187,-1.21876 9.2656,0 14.125,3.65628 4.8594,3.6562 4.8594,10.6406 0,6.4531 -4.5157,10.0781 -4.5156,3.6406 -12.5624,3.6406 l -8.5,0 0,8.1094 8.8906,0 q 7.2656,0 11.125,2.9063 3.8594,2.9062 3.8594,8.375 0,5.6093 -3.9844,8.6093 -3.9688,3.0157 -11.3906,3.0157 -4.0626,0 -8.7032,-0.8907 -4.6406,-0.875 -10.2031,-2.7187 l 0,8.7813 q 5.625,1.5624 10.5313,2.3437 4.9062,0.7813 9.25,0.7813 11.2343,0 17.7656,-5.1094 6.5468,-5.0938 6.5468,-13.7813 0,-6.0625 -3.4687,-10.2343 -3.4687,-4.1719 -9.8594,-5.7813"
               inkscape:connector-curvature="0"
               style="stroke-linecap:butt;stroke-linejoin:round" />
            <path
               id="BitstreamVeraSans-Roman-43"
               d="m 64.4062,67.2812 0,-10.3906 q -4.9843,4.6406 -10.625,6.9219 -5.6406,2.2969 -11.9843,2.2969 -12.5,0 -19.1407,-7.6406 -6.6406,-7.6407 -6.6406,-22.0938 0,-14.4062 6.6406,-22.0469 6.6407,-7.6406 19.1407,-7.6406 6.3437,0 11.9843,2.29688 5.6407,2.29682 10.625,6.93752 l 0,-10.31252 Q 59.2344,2.09375 53.4375,0.328125 47.6562,-1.42188 41.2188,-1.42188 q -16.5626,0 -26.0938,10.125 Q 5.60938,18.8438 5.60938,36.375 q 0,17.5781 9.51562,27.7031 9.5312,10.1407 26.0938,10.1407 6.5312,0 12.3124,-1.7344 5.7969,-1.7344 10.875,-5.2032"
               inkscape:connector-curvature="0"
               style="stroke-linecap:butt;stroke-linejoin:round" />
          </defs>
          <g
             id="g11087"
             transform="matrix(0.15,0,0,-0.15,12.78,37.614195)"
             style="stroke-linecap:butt;stroke-linejoin:round">
            <use
               id="use11089"
               xlink:href="#BitstreamVeraSans-Roman-43"
               style="stroke-linecap:butt;stroke-linejoin:round"
               x="0"
               y="0"
               width="100%"
               height="100%" />
            <use
               id="use11091"
               xlink:href="#BitstreamVeraSans-Roman-33"
               x="69.824219"
               style="stroke-linecap:butt;stroke-linejoin:round"
               y="0"
               width="100%"
               height="100%" />
          </g>
        </g>
      </g>
      <g
         id="axes_2"
         style="stroke-linecap:butt;stroke-linejoin:round">
        <g
           id="patch_7"
           style="stroke-linecap:butt;stroke-linejoin:round">
          <path
             id="path11095"
             style="fill:#ffffff;stroke-linecap:butt;stroke-linejoin:round"
             d="m 40.68,118.8 167.4,0 0,-55.8 -167.4,0 z"
             inkscape:connector-curvature="0" />
        </g>
        <g
           id="line2d_2"
           style="stroke-linecap:butt;stroke-linejoin:round">
          <path
             id="path11098"
             style="fill:none;stroke:#0000ff;stroke-linecap:square;stroke-linejoin:round"
             d="m 40.68,92.4947 0.558,-2.1322 0.558,4.3086 0.558,2.6442 0.558,-9.0091 0.558,-6.3729 0.558,1.2329 0.558,2.4536 0.558,3.8107 0.558,8.4649 0.558,-2.7153 0.558,0.5366 0.558,10.4803 0.558,2.279 0.558,-1.085 0.558,-6.137 0.558,1.34 0.558,-1.317 0.558,1.763 0.558,-6.4233 0.558,-13.9994 0.558,-6.1949 0.558,0.5126 1.116,7.4699 0.558,1.147 0.558,1.8457 0.558,1.2576 0.558,0.6156 0.558,1.6163 1.116,10.3439 0.558,-2.8276 0.558,-4.6883 0.558,-3.39 0.558,-0.8077 0.558,1.2474 0.558,-3.2551 0.558,1.0882 0.558,3.5883 0.558,1.5436 0.558,-5.3266 0.558,-3.8905 1.116,5.863 0.558,-2.5308 0.558,-0.5722 0.558,4.0662 0.558,5.6232 0.558,3.7259 0.558,-0.9342 0.558,-2.8599 0.558,-2.0238 0.558,4.0203 0.558,-3.2346 0.558,-9.3692 0.558,-2.4517 0.558,-1.2947 0.558,0.8311 1.116,-3.6155 0.558,-2.9696 0.558,4.2745 0.558,3.0147 0.558,-3.1952 0.558,-4.801 0.558,-5.839 0.558,1.3122 0.558,2.859 0.558,1.7121 0.558,5.2552 0.558,-6.275 0.558,0.3606 0.558,9.0596 0.558,1.9884 0.558,5.492 0.558,-1.4864 0.558,-4.4856 0.558,2.1185 1.116,15.2212 0.558,-6.0749 0.558,-8.79 0.558,-12.573 0.558,-3.5154 0.558,6.2081 0.558,-0.3008 0.558,0.2886 0.558,1.6107 1.674,9.8833 0.558,3.4427 0.558,4.9535 1.116,-6.1741 0.558,-1.6688 0.558,1.277 1.116,-9.8735 0.558,3.1164 0.558,6.3087 0.558,-1.1585 0.558,2.9715 0.558,-0.2142 0.558,-1.7078 0.558,3.4447 0.558,4.3097 0.558,2.3361 0.558,4.414 0.558,-1.539 0.558,-4.106 0.558,0.564 1.116,-0.06 0.558,-8.1622 0.558,-12.6024 0.558,-6.0796 0.558,3.8576 0.558,7.8965 0.558,1.9807 0.558,-2.0364 0.558,-4.7486 1.116,12.6505 0.558,4.4608 0.558,2.5491 0.558,0.555 1.116,-3.9229 0.558,-2.4798 0.558,-3.9959 0.558,0.2263 0.558,0.8542 0.558,-1.6674 0.558,2.4626 1.116,-7.329 0.558,-0.3673 0.558,-2.1647 0.558,3.403 0.558,0.0988 0.558,1.3353 1.116,8.4779 0.558,6.3989 0.558,-2.246 0.558,-7.1394 0.558,-9.2054 0.558,-3.3671 0.558,-1.5178 0.558,1.24 0.558,2.7529 0.558,-0.6929 0.558,-0.3976 0.558,2.7535 0.558,6.5019 0.558,4.1475 0.558,9.7364 0.558,4.124 0.558,0.204 0.558,-7.569 0.558,-4.6933 0.558,-1.7943 0.558,-4.0329 0.558,-5.6819 0.558,-3.1628 0.558,-1.9658 0.558,0.0056 0.558,-3.9807 0.558,1.2112 0.558,0.7296 1.116,10.4542 0.558,-0.3388 0.558,1.9807 0.558,5.1196 0.558,9.3776 0.558,2.733 1.116,-9.2182 0.558,0.0368 0.558,-2.5531 0.558,-4.2344 0.558,-5.9502 0.558,-2.4274 0.558,-1.7666 0.558,-3.729 0.558,5.1294 0.558,0.4589 0.558,-3.8698 1.674,19.1669 0.558,5.4427 0.558,-1.765 0.558,-5.5062 1.116,-6.6551 0.558,-7.1303 1.116,-9.9045 0.558,-3.3164 1.674,12.085 0.558,-1.8602 0.558,3.852 1.116,13.2792 0.558,9.5905 1.116,4.333 1.116,-12.5185 0.558,-3.0204 0.558,0.0515 0.558,-2.043 0.558,-4.3865 0.558,-2.6479 1.116,10.9241 0.558,-0.1339 1.116,3.5686 0.558,-0.406 0.558,-3.3456 0.558,-0.0763 0.558,-1.016 0.558,-5.8384 0.558,-3.2185 0.558,-7.4689 0.558,-0.1175 1.116,2.4336 0.558,-0.1834 0.558,-1.4317 0.558,2.705 0.558,6.9024 0.558,5.4578 0.558,3.3918 0.558,5.4917 0.558,-1.385 0.558,-0.772 0.558,-2.6828 0.558,-1.1289 0.558,-4.0251 0.558,-1.5453 0.558,-4.5397 0.558,-1.2571 0.558,1.5005 0.558,0.5145 0.558,1.7634 0.558,-0.4996 0.558,2.4343 0.558,9.1038 0.558,3.696 0.558,-5.8261 0.558,-4.1478 1.116,6.8699 0.558,0.558 0.558,-8.0457 0.558,-10.6971 0.558,-6.3534 0.558,2.6842 0.558,1.3883 0.558,2.1316 0.558,-0.8376 0.558,-1.1436 0.558,1.0894 0.558,0.3301 0.558,2.9519 0.558,4.4229 0.558,2.6931 0.558,-1.7167 0.558,1.1937 0.558,1.5418 0.558,4.3426 0.558,-1.278 0.558,-3.4767 0.558,-5.3805 1.116,-5.7872 0.558,-2.681 0.558,1.5857 0.558,1.1196 0.558,4.2234 0.558,6.687 0.558,3.9213 0.558,2.9319 0.558,1.235 0.558,-1.87 0.558,1.366 0.558,-0.892 1.116,-10.3057 1.116,-4.0878 0.558,0.7013 0,0"
             clip-path="url(#pa8b2c741be)"
             inkscape:connector-curvature="0" />
        </g>
        <g
           id="patch_8"
           style="stroke-linecap:butt;stroke-linejoin:round">
          <path
             id="path11101"
             style="fill:none;stroke:#000000;stroke-linecap:square;stroke-linejoin:miter"
             d="m 40.68,63 167.4,0"
             inkscape:connector-curvature="0" />
        </g>
        <g
           id="patch_9"
           style="stroke-linecap:butt;stroke-linejoin:round">
          <path
             id="path11104"
             style="fill:none;stroke:#000000;stroke-linecap:square;stroke-linejoin:miter"
             d="m 208.08,118.8 0,-55.8"
             inkscape:connector-curvature="0" />
        </g>
        <g
           id="patch_10"
           style="stroke-linecap:butt;stroke-linejoin:round">
          <path
             id="path11107"
             style="fill:none;stroke:#000000;stroke-linecap:square;stroke-linejoin:miter"
             d="m 40.68,118.8 167.4,0"
             inkscape:connector-curvature="0" />
        </g>
        <g
           id="patch_11"
           style="stroke-linecap:butt;stroke-linejoin:round">
          <path
             id="path11110"
             style="fill:none;stroke:#000000;stroke-linecap:square;stroke-linejoin:miter"
             d="m 40.68,118.8 0,-55.8"
             inkscape:connector-curvature="0" />
        </g>
        <g
           id="matplotlib.axis_3-0"
           style="stroke-linecap:butt;stroke-linejoin:round" />
        <g
           id="matplotlib.axis_4-1"
           style="stroke-linecap:butt;stroke-linejoin:round" />
        <g
           id="text_2"
           style="stroke-linecap:butt;stroke-linejoin:round">
          <!-- CPz -->
          <defs
             id="defs11115">
            <path
               id="BitstreamVeraSans-Roman-50"
               d="m 19.6719,64.7969 0,-27.3907 12.4062,0 q 6.8907,0 10.6407,3.5626 3.7656,3.5624 3.7656,10.1562 0,6.5469 -3.7656,10.1094 -3.75,3.5625 -10.6407,3.5625 z m -9.8594,8.1093 22.2656,0 q 12.2657,0 18.5313,-5.5468 6.2812,-5.5469 6.2812,-16.2344 0,-10.7969 -6.2812,-16.3125 -6.2656,-5.5156 -18.5313,-5.5156 l -12.4062,0 0,-29.2969 -9.8594,0 z"
               inkscape:connector-curvature="0"
               style="stroke-linecap:butt;stroke-linejoin:round" />
            <path
               id="BitstreamVeraSans-Roman-7a"
               d="m 5.51562,54.6875 42.67188,0 0,-8.2031 -33.7813,-39.31252 33.7813,0 0,-7.17188 -43.89062,0 0,8.20312 33.79692,39.31248 -32.57818,0 z"
               inkscape:connector-curvature="0"
               style="stroke-linecap:butt;stroke-linejoin:round" />
          </defs>
          <g
             id="g11119"
             transform="matrix(0.15,0,0,-0.15,7.2,90.408321)"
             style="stroke-linecap:butt;stroke-linejoin:round">
            <use
               id="use11121"
               xlink:href="#BitstreamVeraSans-Roman-43"
               style="stroke-linecap:butt;stroke-linejoin:round"
               x="0"
               y="0"
               width="100%"
               height="100%" />
            <use
               id="use11123"
               xlink:href="#BitstreamVeraSans-Roman-50"
               x="69.824219"
               style="stroke-linecap:butt;stroke-linejoin:round"
               y="0"
               width="100%"
               height="100%" />
            <use
               id="use11125"
               xlink:href="#BitstreamVeraSans-Roman-7a"
               x="130.12695"
               style="stroke-linecap:butt;stroke-linejoin:round"
               y="0"
               width="100%"
               height="100%" />
          </g>
        </g>
      </g>
      <g
         id="axes_3"
         style="stroke-linecap:butt;stroke-linejoin:round">
        <g
           id="patch_12"
           style="stroke-linecap:butt;stroke-linejoin:round">
          <path
             id="path11129"
             style="fill:#ffffff;stroke-linecap:butt;stroke-linejoin:round"
             d="m 40.68,174.6 167.4,0 0,-55.8 -167.4,0 z"
             inkscape:connector-curvature="0" />
        </g>
        <g
           id="line2d_3"
           style="stroke-linecap:butt;stroke-linejoin:round">
          <path
             id="path11132"
             style="fill:none;stroke:#0000ff;stroke-linecap:square;stroke-linejoin:round"
             d="m 40.68,141.455 0.558,4.988 0.558,6.827 0.558,0.275 0.558,-8.125 0.558,-3.284 0.558,6.22 0.558,-1.556 0.558,-5.22 0.558,1.629 0.558,-1.796 0.558,-0.358 0.558,1.185 0.558,0.62 0.558,-0.9 0.558,-1.689 1.116,12.163 0.558,-1.184 0.558,-5.698 0.558,-7.881 0.558,-4.521 0.558,12.601 0.558,7.755 0.558,-0.977 0.558,-4.709 0.558,-3.194 0.558,5.584 0.558,0.635 0.558,-1.107 0.558,-3.861 0.558,0.554 0.558,-4.109 0.558,-1.004 0.558,2.824 0.558,-4.251 0.558,2.984 0.558,-5.467 0.558,-2.235 0.558,1.813 0.558,5.122 0.558,2.768 0.558,-1.191 0.558,5.48 0.558,9.069 0.558,2.02 1.116,-3 0.558,0.9 0.558,3.412 1.116,-11.49 1.116,4.671 0.558,-2.034 0.558,-4.153 0.558,0.023 1.116,1.455 0.558,1.368 0.558,-8.078 0.558,1.338 0.558,2.779 0.558,1.597 0.558,-3.334 0.558,-10.153 0.558,-7.72 0.558,4.46 0.558,5.518 0.558,3.511 0.558,-6.724 0.558,-4.141 0.558,7.222 0.558,12.998 0.558,3.331 0.558,1.6 0.558,-3.959 0.558,-1.614 0.558,1.341 0.558,-0.909 0.558,2.407 1.116,-23.668 0.558,-5.223 0.558,5.64 0.558,6.873 0.558,2.379 0.558,-1.907 0.558,2.448 0.558,3.834 0.558,4.846 0.558,10.939 0.558,4.538 0.558,-4.978 0.558,-6.572 0.558,-8.891 0.558,-1.048 0.558,0.415 0.558,-0.698 0.558,-4.6 0.558,-1.758 0.558,5.802 0.558,-2.941 0.558,2.388 0.558,1.631 0.558,0.503 0.558,1.569 0.558,7.181 0.558,0.246 0.558,-1.388 1.116,-5.149 0.558,1.718 0.558,2.921 0.558,-1.653 1.116,-11.695 0.558,0.195 0.558,11.388 0.558,3.24 0.558,-0.777 0.558,-4.04 0.558,-1.736 0.558,3.987 0.558,5.962 0.558,3.647 0.558,-0.482 1.116,-12.237 0.558,-2.949 0.558,1.425 0.558,5.557 0.558,1.542 0.558,0.092 0.558,5.38 0.558,0.01 0.558,-5.595 0.558,-3.313 0.558,0.573 0.558,3.104 0.558,1.63 1.116,-4.107 0.558,-3.473 0.558,-1.099 0.558,0.114 0.558,-3.714 0.558,-0.614 1.116,-5.266 0.558,4.987 0.558,1.734 0.558,5.325 0.558,-0.125 0.558,-3.002 0.558,1.694 0.558,3.657 0.558,5.23 0.558,12.208 0.558,2.403 0.558,-10.36 0.558,-5.546 0.558,-2.46 0.558,6.352 0.558,2.413 0.558,0.916 0.558,-5.025 0.558,-8.535 0.558,2.495 0.558,3.502 0.558,5.996 0.558,-3.827 0.558,-1.065 0.558,-0.802 0.558,-4.493 0.558,-0.266 0.558,0.844 0.558,5.473 0.558,-0.6 0.558,-2.925 0.558,1.072 0.558,2.13 0.558,1.316 0.558,-3.141 0.558,-0.305 0.558,-5.393 0.558,-0.205 0.558,0.574 0.558,7.092 0.558,-0.283 0.558,-3.455 1.116,5.005 0.558,-4.904 0.558,-0.462 0.558,1.753 0.558,-5.782 1.116,-5.37 0.558,-0.205 0.558,1.289 0.558,-0.664 1.116,11.461 1.116,2.323 0.558,-3.244 0.558,-0.676 0.558,-0.159 0.558,1.811 0.558,0.629 0.558,-0.205 0.558,-3.488 0.558,-4.233 0.558,0.921 0.558,11.625 0.558,5.295 0.558,1.499 0.558,-0.488 0.558,-2.723 0.558,3.448 0.558,1.196 1.674,-11.69 0.558,-6.617 0.558,-4.611 0.558,1.329 0.558,2.202 0.558,-6.969 0.558,-1.352 1.116,3.737 0.558,8.008 0.558,3.229 0.558,-0.796 0.558,0.264 0.558,-4.69 0.558,-0.756 0.558,6.138 0.558,1.426 0.558,0.229 0.558,-4.177 0.558,-8.079 0.558,1.596 0.558,3.398 0.558,-6.534 0.558,-1.627 2.232,20.129 0.558,1.847 0.558,-2.151 0.558,1.834 0.558,8.228 0.558,2.397 1.674,-18.596 0.558,3.691 0.558,-0.779 0.558,-5.732 0.558,-2.955 0.558,-5.163 0.558,-0.175 0.558,6.368 0.558,3.736 0.558,2.286 0.558,-0.808 0.558,3.272 0.558,3.984 0.558,1.099 0.558,0.275 0.558,-5.66 0.558,-4.324 0.558,-2.027 0.558,2.703 0.558,-2.125 0.558,1.302 0.558,0.327 0.558,-2.126 0.558,-1.408 0.558,3.433 0.558,0.104 0.558,-2.168 0.558,-0.077 0.558,1.207 0.558,6.722 0.558,-0.449 0.558,-3.924 1.674,-4.269 0.558,0.315 0.558,-0.39 0.558,0.258 1.116,3.806 0.558,4.374 0,0"
             clip-path="url(#pdc35123d8f)"
             inkscape:connector-curvature="0" />
        </g>
        <g
           id="patch_13"
           style="stroke-linecap:butt;stroke-linejoin:round">
          <path
             id="path11135"
             style="fill:none;stroke:#000000;stroke-linecap:square;stroke-linejoin:miter"
             d="m 40.68,118.8 167.4,0"
             inkscape:connector-curvature="0" />
        </g>
        <g
           id="patch_14"
           style="stroke-linecap:butt;stroke-linejoin:round">
          <path
             id="path11138"
             style="fill:none;stroke:#000000;stroke-linecap:square;stroke-linejoin:miter"
             d="m 208.08,174.6 0,-55.8"
             inkscape:connector-curvature="0" />
        </g>
        <g
           id="patch_15"
           style="stroke-linecap:butt;stroke-linejoin:round">
          <path
             id="path11141"
             style="fill:none;stroke:#000000;stroke-linecap:square;stroke-linejoin:miter"
             d="m 40.68,174.6 167.4,0"
             inkscape:connector-curvature="0" />
        </g>
        <g
           id="patch_16"
           style="stroke-linecap:butt;stroke-linejoin:round">
          <path
             id="path11144"
             style="fill:none;stroke:#000000;stroke-linecap:square;stroke-linejoin:miter"
             d="m 40.68,174.6 0,-55.8"
             inkscape:connector-curvature="0" />
        </g>
        <g
           id="matplotlib.axis_5"
           style="stroke-linecap:butt;stroke-linejoin:round" />
        <g
           id="matplotlib.axis_6"
           style="stroke-linecap:butt;stroke-linejoin:round" />
        <g
           id="text_3"
           style="stroke-linecap:butt;stroke-linejoin:round">
          <!-- C4 -->
          <defs
             id="defs11149">
            <path
               id="BitstreamVeraSans-Roman-34"
               d="m 37.7969,64.3125 -24.9063,-38.9219 24.9063,0 z m -2.5938,8.5937 12.4063,0 0,-47.5156 10.4062,0 0,-8.2031 -10.4062,0 0,-17.1875 -9.8125,0 0,17.1875 -32.90628,0 0,9.5156 z"
               inkscape:connector-curvature="0"
               style="stroke-linecap:butt;stroke-linejoin:round" />
          </defs>
          <g
             id="g11152"
             transform="matrix(0.15,0,0,-0.15,12.78,152.96119)"
             style="stroke-linecap:butt;stroke-linejoin:round">
            <use
               id="use11154"
               xlink:href="#BitstreamVeraSans-Roman-43"
               style="stroke-linecap:butt;stroke-linejoin:round"
               x="0"
               y="0"
               width="100%"
               height="100%" />
            <use
               id="use11156"
               xlink:href="#BitstreamVeraSans-Roman-34"
               x="69.824219"
               style="stroke-linecap:butt;stroke-linejoin:round"
               y="0"
               width="100%"
               height="100%" />
          </g>
        </g>
      </g>
    </g>
    <g
       id="g49228"
       transform="translate(-1106.2135,-290.71747)"
       style="stroke-linecap:butt;stroke-linejoin:round">
      <rect
         y="578.17023"
         x="1335.3877"
         height="20.000019"
         width="20"
         id="rect3450-09-7-2-7-8"
         style="fill:none;fill-rule:evenodd;stroke:#000000;stroke-width:1.5;stroke-linecap:butt;stroke-linejoin:miter;stroke-miterlimit:4;stroke-dasharray:none;stroke-opacity:1" />
      <rect
         y="578.17023"
         x="1354.6733"
         height="20.000019"
         width="20"
         id="rect3450-6-0-3-1-7-8"
         style="fill:none;fill-rule:evenodd;stroke:#000000;stroke-width:1.5;stroke-linecap:butt;stroke-linejoin:miter;stroke-miterlimit:4;stroke-dasharray:none;stroke-opacity:1" />
      <rect
         y="578.17023"
         x="1374.6733"
         height="20.000019"
         width="20"
         id="rect3450-6-8-24-3-1-8-2"
         style="fill:none;fill-rule:evenodd;stroke:#000000;stroke-width:1.5;stroke-linecap:butt;stroke-linejoin:miter;stroke-miterlimit:4;stroke-dasharray:none;stroke-opacity:1" />
      <rect
         y="578.17023"
         x="1415.3877"
         height="20.000019"
         width="20"
         id="rect3450-6-6-8-6-1-0-9"
         style="fill:none;fill-rule:evenodd;stroke:#000000;stroke-width:1.5;stroke-linecap:butt;stroke-linejoin:miter;stroke-miterlimit:4;stroke-dasharray:none;stroke-opacity:1" />
      <rect
         y="578.17023"
         x="1395.3877"
         height="20.000019"
         width="20"
         id="rect3450-6-3-9-5-6-8-8"
         style="fill:none;fill-rule:evenodd;stroke:#000000;stroke-width:1.5;stroke-linecap:butt;stroke-linejoin:miter;stroke-miterlimit:4;stroke-dasharray:none;stroke-opacity:1" />
    </g>
    <g
       id="g49314"
       transform="translate(-1074.2135,-297.19758)"
       style="stroke:#1616b2;stroke-width:2.00000024;stroke-linecap:butt;stroke-linejoin:round;stroke-miterlimit:4;stroke-dasharray:none;stroke-opacity:1">
      <rect
         y="584.65033"
         x="1509.0597"
         height="20.000019"
         width="20"
         id="rect3450-09-7-2-7-8-2-2"
         style="fill:none;fill-rule:evenodd;stroke:#1616b2;stroke-width:2.00000024;stroke-linecap:butt;stroke-linejoin:miter;stroke-miterlimit:4;stroke-dasharray:none;stroke-opacity:1" />
      <rect
         y="584.65033"
         x="1528.3453"
         height="20.000019"
         width="20"
         id="rect3450-6-0-3-1-7-8-4-4"
         style="fill:none;fill-rule:evenodd;stroke:#1616b2;stroke-width:2.00000024;stroke-linecap:butt;stroke-linejoin:miter;stroke-miterlimit:4;stroke-dasharray:none;stroke-opacity:1" />
      <rect
         y="584.65033"
         x="1548.3453"
         height="20.000019"
         width="20"
         id="rect3450-6-8-24-3-1-8-2-8-7"
         style="fill:none;fill-rule:evenodd;stroke:#1616b2;stroke-width:2.00000024;stroke-linecap:butt;stroke-linejoin:miter;stroke-miterlimit:4;stroke-dasharray:none;stroke-opacity:1" />
    </g>
    <g
       id="g10858-6"
       transform="translate(-736.37006,-310.72395)"
       style="stroke-linecap:butt;stroke-linejoin:round">
      <circle
         style="fill:none;stroke:#000000;stroke-width:1.25;stroke-linecap:butt;stroke-linejoin:round;stroke-opacity:1"
         id="path3494-6-4"
         cx="1389.6405"
         cy="469.1738"
         r="25" />
      <circle
         style="fill:none;stroke:#000000;stroke-width:1.25;stroke-linecap:butt;stroke-linejoin:round;stroke-opacity:1"
         id="path3494-0-46-6"
         cx="1389.6405"
         cy="537.39221"
         r="25" />
      <circle
         style="fill:none;stroke:#000000;stroke-width:1.25;stroke-linecap:butt;stroke-linejoin:round;stroke-opacity:1"
         id="path3494-0-4-71-0"
         cx="1389.6405"
         cy="605.61041"
         r="25" />
      <circle
         style="fill:none;stroke:#000000;stroke-width:1.25;stroke-linecap:butt;stroke-linejoin:round;stroke-opacity:1"
         id="path3494-0-4-7-03-1"
         cx="1389.6405"
         cy="673.82874"
         r="25" />
    </g>
    <text
       xml:space="preserve"
       style="font-style:normal;font-weight:normal;font-size:22.5px;line-height:125%;font-family:Sans;letter-spacing:0px;word-spacing:0px;fill:#000000;fill-opacity:1;stroke:none;stroke-width:1px;stroke-linecap:butt;stroke-linejoin:miter;stroke-opacity:1"
       x="603.72156"
       y="443.68634"
       id="text4892-8-9-9"
       sodipodi:linespacing="125%"><tspan
         sodipodi:role="line"
         style="font-size:30px;stroke-linecap:butt;stroke-linejoin:round"
         x="603.72156"
         y="443.68634"
         id="tspan5630-6">Weight, </tspan><tspan
         sodipodi:role="line"
         style="font-size:30px;stroke-linecap:butt;stroke-linejoin:round"
         x="603.72156"
         y="481.18634"
         id="tspan4342">sum,</tspan><tspan
         sodipodi:role="line"
         style="font-size:30px;stroke-linecap:butt;stroke-linejoin:round"
         x="603.72156"
         y="518.68634"
         id="tspan19500">softmax</tspan></text>
    <g
       id="g49137"
       style="stroke-linecap:butt;stroke-linejoin:round"
       transform="translate(-852.21346,-282.71747)">
      <rect
         y="567.21021"
         x="289.72995"
         height="20.000019"
         width="20"
         id="rect3450-1-7"
         style="fill:none;fill-rule:evenodd;stroke:#000000;stroke-width:1.5;stroke-linecap:butt;stroke-linejoin:miter;stroke-miterlimit:4;stroke-dasharray:none;stroke-opacity:1" />
      <rect
         y="567.21021"
         x="309.01566"
         height="20.000019"
         width="20"
         id="rect3450-6-4-1"
         style="fill:none;fill-rule:evenodd;stroke:#000000;stroke-width:1.5;stroke-linecap:butt;stroke-linejoin:miter;stroke-miterlimit:4;stroke-dasharray:none;stroke-opacity:1" />
      <rect
         y="567.21021"
         x="329.01566"
         height="20.000019"
         width="20"
         id="rect3450-6-8-6-0"
         style="fill:none;fill-rule:evenodd;stroke:#000000;stroke-width:1.5;stroke-linecap:butt;stroke-linejoin:miter;stroke-miterlimit:4;stroke-dasharray:none;stroke-opacity:1" />
      <rect
         y="567.21021"
         x="349.72995"
         height="20.000019"
         width="20"
         id="rect3450-6-3-92-2"
         style="fill:none;fill-rule:evenodd;stroke:#000000;stroke-width:1.5;stroke-linecap:butt;stroke-linejoin:miter;stroke-miterlimit:4;stroke-dasharray:none;stroke-opacity:1" />
    </g>
    <g
       id="g49164"
       transform="translate(-1106.2135,-298.71747)"
       style="stroke:#1616b2;stroke-width:2.00000024;stroke-linecap:butt;stroke-linejoin:round;stroke-miterlimit:4;stroke-dasharray:none;stroke-opacity:1">
      <g
         style="stroke:#1616b2;stroke-width:2.00000024;stroke-linecap:butt;stroke-linejoin:round;stroke-miterlimit:4;stroke-dasharray:none;stroke-opacity:1"
         transform="translate(457.19377,-79.075103)"
         id="g9674-8-9-8">
        <rect
           style="fill:none;fill-rule:evenodd;stroke:#1616b2;stroke-width:2.00000024;stroke-linecap:butt;stroke-linejoin:miter;stroke-miterlimit:4;stroke-dasharray:none;stroke-opacity:1"
           id="rect3450-1-7-2-8-7"
           width="20"
           height="20.000019"
           x="295.634"
           y="596.16223" />
        <rect
           style="fill:none;fill-rule:evenodd;stroke:#1616b2;stroke-width:2.00000024;stroke-linecap:butt;stroke-linejoin:miter;stroke-miterlimit:4;stroke-dasharray:none;stroke-opacity:1"
           id="rect3450-6-4-1-9-8-2"
           width="20"
           height="20.000019"
           x="314.91971"
           y="596.16223" />
        <rect
           style="fill:none;fill-rule:evenodd;stroke:#1616b2;stroke-width:2.00000024;stroke-linecap:butt;stroke-linejoin:miter;stroke-miterlimit:4;stroke-dasharray:none;stroke-opacity:1"
           id="rect3450-6-8-6-0-1-7-7"
           width="20"
           height="20.000019"
           x="334.91971"
           y="596.16223" />
        <rect
           style="fill:none;fill-rule:evenodd;stroke:#1616b2;stroke-width:2.00000024;stroke-linecap:butt;stroke-linejoin:miter;stroke-miterlimit:4;stroke-dasharray:none;stroke-opacity:1"
           id="rect3450-6-3-92-2-9-3-5"
           width="20"
           height="20.000019"
           x="355.634"
           y="596.16223" />
      </g>
      <g
         style="stroke:#1616b2;stroke-width:2.00000024;stroke-linecap:butt;stroke-linejoin:round;stroke-miterlimit:4;stroke-dasharray:none;stroke-opacity:1"
         transform="translate(457.19377,-99.166263)"
         id="g9674-8-9-4-0">
        <rect
           style="fill:none;fill-rule:evenodd;stroke:#1616b2;stroke-width:2.00000024;stroke-linecap:butt;stroke-linejoin:miter;stroke-miterlimit:4;stroke-dasharray:none;stroke-opacity:1"
           id="rect3450-1-7-2-8-1-4"
           width="20"
           height="20.000019"
           x="295.634"
           y="596.16223" />
        <rect
           style="fill:none;fill-rule:evenodd;stroke:#1616b2;stroke-width:2.00000024;stroke-linecap:butt;stroke-linejoin:miter;stroke-miterlimit:4;stroke-dasharray:none;stroke-opacity:1"
           id="rect3450-6-4-1-9-8-5-8"
           width="20"
           height="20.000019"
           x="314.91971"
           y="596.16223" />
        <rect
           style="fill:none;fill-rule:evenodd;stroke:#1616b2;stroke-width:2.00000024;stroke-linecap:butt;stroke-linejoin:miter;stroke-miterlimit:4;stroke-dasharray:none;stroke-opacity:1"
           id="rect3450-6-8-6-0-1-7-8-6"
           width="20"
           height="20.000019"
           x="334.91971"
           y="596.16223" />
        <rect
           style="fill:none;fill-rule:evenodd;stroke:#1616b2;stroke-width:2.00000024;stroke-linecap:butt;stroke-linejoin:miter;stroke-miterlimit:4;stroke-dasharray:none;stroke-opacity:1"
           id="rect3450-6-3-92-2-9-3-3-03"
           width="20"
           height="20.000019"
           x="355.634"
           y="596.16223" />
      </g>
      <g
         style="stroke:#1616b2;stroke-width:2.00000024;stroke-linecap:butt;stroke-linejoin:round;stroke-miterlimit:4;stroke-dasharray:none;stroke-opacity:1"
         transform="translate(457.19377,-118.90426)"
         id="g9674-8-9-4-1-4">
        <rect
           style="fill:none;fill-rule:evenodd;stroke:#1616b2;stroke-width:2.00000024;stroke-linecap:butt;stroke-linejoin:miter;stroke-miterlimit:4;stroke-dasharray:none;stroke-opacity:1"
           id="rect3450-1-7-2-8-1-8-2"
           width="20"
           height="20.000019"
           x="295.634"
           y="596.16223" />
        <rect
           style="fill:none;fill-rule:evenodd;stroke:#1616b2;stroke-width:2.00000024;stroke-linecap:butt;stroke-linejoin:miter;stroke-miterlimit:4;stroke-dasharray:none;stroke-opacity:1"
           id="rect3450-6-4-1-9-8-5-1-8"
           width="20"
           height="20.000019"
           x="314.91971"
           y="596.16223" />
        <rect
           style="fill:none;fill-rule:evenodd;stroke:#1616b2;stroke-width:2.00000024;stroke-linecap:butt;stroke-linejoin:miter;stroke-miterlimit:4;stroke-dasharray:none;stroke-opacity:1"
           id="rect3450-6-8-6-0-1-7-8-4-1"
           width="20"
           height="20.000019"
           x="334.91971"
           y="596.16223" />
        <rect
           style="fill:none;fill-rule:evenodd;stroke:#1616b2;stroke-width:2.00000024;stroke-linecap:butt;stroke-linejoin:miter;stroke-miterlimit:4;stroke-dasharray:none;stroke-opacity:1"
           id="rect3450-6-3-92-2-9-3-3-0-1"
           width="20"
           height="20.000019"
           x="355.634"
           y="596.16223" />
      </g>
    </g>
    <g
       id="g10659"
       style="stroke-linecap:butt;stroke-linejoin:round"
       transform="translate(-1160.2135,-318.71747)">
      <rect
         y="642.42181"
         x="1029.2773"
         height="20.000019"
         width="20"
         id="rect3450-6-6-0-4-0-1-0-7-9-7-2-9-42-0-5-0-5"
         style="fill:none;fill-rule:evenodd;stroke:#000000;stroke-width:1.10000002;stroke-linecap:butt;stroke-linejoin:miter;stroke-miterlimit:4;stroke-dasharray:none;stroke-opacity:1" />
      <rect
         y="1692.2051"
         x="1485.0089"
         height="20.290323"
         width="14.042093"
         id="rect3450-8-1-2-2-7-17-3-1-1-5-7-7"
         style="fill:none;fill-rule:evenodd;stroke:#000000;stroke-width:1.31291878;stroke-linecap:butt;stroke-linejoin:miter;stroke-miterlimit:4;stroke-dasharray:none;stroke-opacity:1"
         transform="matrix(0.70710678,-0.70710678,0,1,0,0)" />
      <rect
         y="1692.2051"
         x="1498.5496"
         height="20.290323"
         width="14.042093"
         id="rect3450-6-7-8-0-3-66-1-3-4-0-4-3-6"
         style="fill:none;fill-rule:evenodd;stroke:#000000;stroke-width:1.31291878;stroke-linecap:butt;stroke-linejoin:miter;stroke-miterlimit:4;stroke-dasharray:none;stroke-opacity:1"
         transform="matrix(0.70710678,-0.70710678,0,1,0,0)" />
      <rect
         y="622.74628"
         x="1029.3854"
         height="20.000019"
         width="20"
         id="rect3450-6-6-0-4-0-1-0-7-9-7-2-9-42-0-5-0-5-1"
         style="fill:none;fill-rule:evenodd;stroke:#000000;stroke-width:1.10000002;stroke-linecap:butt;stroke-linejoin:miter;stroke-miterlimit:4;stroke-dasharray:none;stroke-opacity:1" />
      <rect
         y="1672.6376"
         x="1485.1617"
         height="20.290323"
         width="14.042093"
         id="rect3450-8-1-2-2-7-17-3-1-1-5-7-7-0"
         style="fill:none;fill-rule:evenodd;stroke:#000000;stroke-width:1.31291878;stroke-linecap:butt;stroke-linejoin:miter;stroke-miterlimit:4;stroke-dasharray:none;stroke-opacity:1"
         transform="matrix(0.70710678,-0.70710678,0,1,0,0)" />
      <rect
         y="1672.6376"
         x="1498.7024"
         height="20.290323"
         width="14.042093"
         id="rect3450-6-7-8-0-3-66-1-3-4-0-4-3-6-3"
         style="fill:none;fill-rule:evenodd;stroke:#000000;stroke-width:1.31291878;stroke-linecap:butt;stroke-linejoin:miter;stroke-miterlimit:4;stroke-dasharray:none;stroke-opacity:1"
         transform="matrix(0.70710678,-0.70710678,0,1,0,0)" />
      <rect
         y="602.34515"
         x="1029.3042"
         height="20.000019"
         width="20"
         id="rect3450-6-6-0-4-0-1-0-7-9-7-2-9-42-0-5-0-5-8-4"
         style="fill:none;fill-rule:evenodd;stroke:#000000;stroke-width:1.10000002;stroke-linecap:butt;stroke-linejoin:miter;stroke-miterlimit:4;stroke-dasharray:none;stroke-opacity:1" />
      <rect
         y="837.6355"
         x="1631.458"
         height="14.045477"
         width="20.032364"
         id="rect3450-6-6-0-4-0-1-0-7-9-7-2-6-79-8-2-8-5-2-5-2"
         style="fill:none;fill-rule:evenodd;stroke:#000000;stroke-width:1.30470347;stroke-linecap:butt;stroke-linejoin:miter;stroke-miterlimit:4;stroke-dasharray:none;stroke-opacity:1"
         transform="matrix(1,0,-0.70710678,0.70710678,0,0)" />
      <rect
         y="823.05701"
         x="1631.458"
         height="14.045477"
         width="20.032364"
         id="rect3450-6-6-0-4-0-1-0-7-9-7-2-6-7-9-8-5-9-5-2-8-4"
         style="fill:none;fill-rule:evenodd;stroke:#000000;stroke-width:1.30470347;stroke-linecap:butt;stroke-linejoin:miter;stroke-miterlimit:4;stroke-dasharray:none;stroke-opacity:1"
         transform="matrix(1,0,-0.70710678,0.70710678,0,0)" />
      <rect
         y="1652.1553"
         x="1485.0469"
         height="20.290323"
         width="14.042093"
         id="rect3450-8-1-2-2-7-17-3-1-1-5-7-7-3-7"
         style="fill:none;fill-rule:evenodd;stroke:#000000;stroke-width:1.31291878;stroke-linecap:butt;stroke-linejoin:miter;stroke-miterlimit:4;stroke-dasharray:none;stroke-opacity:1"
         transform="matrix(0.70710678,-0.70710678,0,1,0,0)" />
      <rect
         y="1652.1553"
         x="1498.5875"
         height="20.290323"
         width="14.042093"
         id="rect3450-6-7-8-0-3-66-1-3-4-0-4-3-6-4-5"
         style="fill:none;fill-rule:evenodd;stroke:#000000;stroke-width:1.31291878;stroke-linecap:butt;stroke-linejoin:miter;stroke-miterlimit:4;stroke-dasharray:none;stroke-opacity:1"
         transform="matrix(0.70710678,-0.70710678,0,1,0,0)" />
    </g>
    <g
       id="g10672"
       transform="translate(-1168.2135,-308.71747)"
       style="stroke-linecap:butt;stroke-linejoin:round">
      <rect
         y="527.80945"
         x="1038.4288"
         height="20.000019"
         width="20"
         id="rect3450-6-6-0-4-0-1-0-7-9-7-2-9-42-0-5-0-5-0"
         style="fill:none;fill-rule:evenodd;stroke:#000000;stroke-width:1.10000002;stroke-linecap:butt;stroke-linejoin:miter;stroke-miterlimit:4;stroke-dasharray:none;stroke-opacity:1" />
      <rect
         y="1586.7443"
         x="1497.951"
         height="20.290323"
         width="14.042093"
         id="rect3450-8-1-2-2-7-17-3-1-1-5-7-7-8"
         style="fill:none;fill-rule:evenodd;stroke:#000000;stroke-width:1.31291878;stroke-linecap:butt;stroke-linejoin:miter;stroke-miterlimit:4;stroke-dasharray:none;stroke-opacity:1"
         transform="matrix(0.70710678,-0.70710678,0,1,0,0)" />
      <rect
         y="1586.7443"
         x="1511.4917"
         height="20.290323"
         width="14.042093"
         id="rect3450-6-7-8-0-3-66-1-3-4-0-4-3-6-2"
         style="fill:none;fill-rule:evenodd;stroke:#000000;stroke-width:1.31291878;stroke-linecap:butt;stroke-linejoin:miter;stroke-miterlimit:4;stroke-dasharray:none;stroke-opacity:1"
         transform="matrix(0.70710678,-0.70710678,0,1,0,0)" />
      <rect
         y="508.13391"
         x="1038.5369"
         height="20.000019"
         width="20"
         id="rect3450-6-6-0-4-0-1-0-7-9-7-2-9-42-0-5-0-5-1-6"
         style="fill:none;fill-rule:evenodd;stroke:#000000;stroke-width:1.10000002;stroke-linecap:butt;stroke-linejoin:miter;stroke-miterlimit:4;stroke-dasharray:none;stroke-opacity:1" />
      <rect
         y="1567.1768"
         x="1498.1039"
         height="20.290323"
         width="14.042093"
         id="rect3450-8-1-2-2-7-17-3-1-1-5-7-7-0-8"
         style="fill:none;fill-rule:evenodd;stroke:#000000;stroke-width:1.31291878;stroke-linecap:butt;stroke-linejoin:miter;stroke-miterlimit:4;stroke-dasharray:none;stroke-opacity:1"
         transform="matrix(0.70710678,-0.70710678,0,1,0,0)" />
      <rect
         y="1567.1768"
         x="1511.6445"
         height="20.290323"
         width="14.042093"
         id="rect3450-6-7-8-0-3-66-1-3-4-0-4-3-6-3-5"
         style="fill:none;fill-rule:evenodd;stroke:#000000;stroke-width:1.31291878;stroke-linecap:butt;stroke-linejoin:miter;stroke-miterlimit:4;stroke-dasharray:none;stroke-opacity:1"
         transform="matrix(0.70710678,-0.70710678,0,1,0,0)" />
      <rect
         y="487.73279"
         x="1038.4557"
         height="20.000019"
         width="20"
         id="rect3450-6-6-0-4-0-1-0-7-9-7-2-9-42-0-5-0-5-8-4-0"
         style="fill:none;fill-rule:evenodd;stroke:#000000;stroke-width:1.10000002;stroke-linecap:butt;stroke-linejoin:miter;stroke-miterlimit:4;stroke-dasharray:none;stroke-opacity:1" />
      <rect
         y="675.54907"
         x="1525.9972"
         height="14.045477"
         width="20.032364"
         id="rect3450-6-6-0-4-0-1-0-7-9-7-2-6-79-8-2-8-5-2-5-2-2"
         style="fill:none;fill-rule:evenodd;stroke:#000000;stroke-width:1.30470347;stroke-linecap:butt;stroke-linejoin:miter;stroke-miterlimit:4;stroke-dasharray:none;stroke-opacity:1"
         transform="matrix(1,0,-0.70710678,0.70710678,0,0)" />
      <rect
         y="660.97058"
         x="1525.9972"
         height="14.045477"
         width="20.032364"
         id="rect3450-6-6-0-4-0-1-0-7-9-7-2-6-7-9-8-5-9-5-2-8-4-5"
         style="fill:none;fill-rule:evenodd;stroke:#000000;stroke-width:1.30470347;stroke-linecap:butt;stroke-linejoin:miter;stroke-miterlimit:4;stroke-dasharray:none;stroke-opacity:1"
         transform="matrix(1,0,-0.70710678,0.70710678,0,0)" />
      <rect
         y="1546.6945"
         x="1497.989"
         height="20.290323"
         width="14.042093"
         id="rect3450-8-1-2-2-7-17-3-1-1-5-7-7-3-7-3"
         style="fill:none;fill-rule:evenodd;stroke:#000000;stroke-width:1.31291878;stroke-linecap:butt;stroke-linejoin:miter;stroke-miterlimit:4;stroke-dasharray:none;stroke-opacity:1"
         transform="matrix(0.70710678,-0.70710678,0,1,0,0)" />
      <rect
         y="1546.6945"
         x="1511.5297"
         height="20.290323"
         width="14.042093"
         id="rect3450-6-7-8-0-3-66-1-3-4-0-4-3-6-4-5-6"
         style="fill:none;fill-rule:evenodd;stroke:#000000;stroke-width:1.31291878;stroke-linecap:butt;stroke-linejoin:miter;stroke-miterlimit:4;stroke-dasharray:none;stroke-opacity:1"
         transform="matrix(0.70710678,-0.70710678,0,1,0,0)" />
    </g>
    <path
       id="path47775"
       title="x*x"
       d="m 63.859353,218.39557 c 1.2306,7.36302 2.4612,14.33888 3.6918,20.92758 1.2306,6.5887 2.4612,12.78869 3.6918,18.60229 1.2306,5.81361 2.4612,11.2385 3.6918,16.27701 1.2306,5.0385 2.4612,9.68831 3.6918,13.95172 1.2306,4.26341 2.4612,8.13811 3.6918,11.62643 1.2306,3.48832 2.4613,6.58792 3.6919,9.30115 1.2306,2.71322 2.4612,5.03773 3.6918,6.97586 1.2306,1.93813 2.4612,3.48754 3.6918,4.65057 1.2306,1.16303 2.4612,1.93735 3.6918,2.32529 1.2306,0.38794 2.4612,0.38715 3.691797,0 1.2306,-0.38716 2.4612,-1.16304 3.6918,-2.32529 1.2306,-1.16225 2.4612,-2.71322 3.6918,-4.65057 1.2306,-1.93735 2.4612,-4.26342 3.6918,-6.97586 1.2306,-2.71244 2.4613,-5.81361 3.6919,-9.30115 1.2306,-3.48754 2.4612,-7.36379 3.6918,-11.62643 1.23049,-4.26264 2.46109,-8.91399 3.69179,-13.95172 1.2306,-5.03774 2.4612,-10.46418 3.6918,-16.27701 1.2306,-5.81283 2.4612,-12.01436 3.6918,-18.60229 1.2306,-6.58792 2.4612,-13.56456 3.6918,-20.92758"
       style="fill:none;stroke:#000000;stroke-width:1.70000005;stroke-linecap:butt;stroke-linejoin:round;stroke-miterlimit:4;stroke-dasharray:none;stroke-opacity:1"
       inkscape:connector-curvature="0" />
    <text
       xml:space="preserve"
       style="font-style:normal;font-weight:normal;font-size:22.5px;line-height:125%;font-family:Sans;letter-spacing:0px;word-spacing:0px;fill:#000000;fill-opacity:1;stroke:none;stroke-width:1px;stroke-linecap:butt;stroke-linejoin:miter;stroke-opacity:1"
       x="52.198723"
       y="443.29083"
       id="text49055"
       sodipodi:linespacing="125%"><tspan
         sodipodi:role="line"
         id="tspan49057"
         style="font-size:30px;stroke-linecap:butt;stroke-linejoin:round"
         x="52.198723"
         y="443.29083">Square </tspan><tspan
         sodipodi:role="line"
         style="font-size:30px;stroke-linecap:butt;stroke-linejoin:round"
         x="52.198723"
         y="480.79083"
         id="tspan49059">outputs</tspan></text>
    <text
       xml:space="preserve"
       style="font-style:normal;font-weight:normal;font-size:22.5px;line-height:125%;font-family:Sans;letter-spacing:0px;word-spacing:0px;fill:#000000;fill-opacity:1;stroke:none;stroke-width:1px;stroke-linecap:butt;stroke-linejoin:miter;stroke-opacity:1"
       x="418.97925"
       y="443.29083"
       id="text4892-6"
       sodipodi:linespacing="125%"><tspan
         sodipodi:role="line"
         id="tspan4894-6"
         style="font-size:30px;stroke-linecap:butt;stroke-linejoin:round"
         x="418.97925"
         y="443.29083">One </tspan><tspan
         sodipodi:role="line"
         style="font-size:30px;stroke-linecap:butt;stroke-linejoin:round"
         x="418.97925"
         y="480.79083"
         id="tspan4340">output </tspan><tspan
         sodipodi:role="line"
         style="font-size:30px;stroke-linecap:butt;stroke-linejoin:round"
         x="418.97925"
         y="518.29083"
         id="tspan4896-6">per pooled</tspan><tspan
         sodipodi:role="line"
         style="font-size:30px;stroke-linecap:butt;stroke-linejoin:round"
         x="418.97925"
         y="555.79083"
         id="tspan4898-4">timebin</tspan><tspan
         sodipodi:role="line"
         style="font-size:30px;stroke-linecap:butt;stroke-linejoin:round"
         x="418.97925"
         y="593.29083"
         id="tspan8742-8">per unit</tspan></text>
    <g
       id="g49235"
       transform="translate(-1107.4395,-291.97898)"
       style="stroke-linecap:butt;stroke-linejoin:round">
      <rect
         y="522.98792"
         x="1336.6138"
         height="20.000019"
         width="20"
         id="rect3450-09-7-2-7-8-8"
         style="fill:none;fill-rule:evenodd;stroke:#000000;stroke-width:1.5;stroke-linecap:butt;stroke-linejoin:miter;stroke-miterlimit:4;stroke-dasharray:none;stroke-opacity:1" />
      <rect
         y="522.98792"
         x="1355.8994"
         height="20.000019"
         width="20"
         id="rect3450-6-0-3-1-7-8-0"
         style="fill:none;fill-rule:evenodd;stroke:#000000;stroke-width:1.5;stroke-linecap:butt;stroke-linejoin:miter;stroke-miterlimit:4;stroke-dasharray:none;stroke-opacity:1" />
      <rect
         y="522.98792"
         x="1375.8994"
         height="20.000019"
         width="20"
         id="rect3450-6-8-24-3-1-8-2-2"
         style="fill:none;fill-rule:evenodd;stroke:#000000;stroke-width:1.5;stroke-linecap:butt;stroke-linejoin:miter;stroke-miterlimit:4;stroke-dasharray:none;stroke-opacity:1" />
      <rect
         y="522.98792"
         x="1416.6138"
         height="20.000019"
         width="20"
         id="rect3450-6-6-8-6-1-0-9-2"
         style="fill:none;fill-rule:evenodd;stroke:#000000;stroke-width:1.5;stroke-linecap:butt;stroke-linejoin:miter;stroke-miterlimit:4;stroke-dasharray:none;stroke-opacity:1" />
      <rect
         y="522.98792"
         x="1396.6138"
         height="20.000019"
         width="20"
         id="rect3450-6-3-9-5-6-8-8-6"
         style="fill:none;fill-rule:evenodd;stroke:#000000;stroke-width:1.5;stroke-linecap:butt;stroke-linejoin:miter;stroke-miterlimit:4;stroke-dasharray:none;stroke-opacity:1" />
    </g>
    <g
       id="g49164-0"
       transform="translate(-1106.2135,-204.71748)"
       style="stroke:#1616b2;stroke-width:2.00000024;stroke-linecap:butt;stroke-linejoin:round;stroke-miterlimit:4;stroke-dasharray:none;stroke-opacity:1">
      <g
         style="stroke:#1616b2;stroke-width:2.00000024;stroke-linecap:butt;stroke-linejoin:round;stroke-miterlimit:4;stroke-dasharray:none;stroke-opacity:1"
         transform="translate(457.19377,-79.075103)"
         id="g9674-8-9-8-9">
        <rect
           style="fill:none;fill-rule:evenodd;stroke:#1616b2;stroke-width:2.00000024;stroke-linecap:butt;stroke-linejoin:miter;stroke-miterlimit:4;stroke-dasharray:none;stroke-opacity:1"
           id="rect3450-1-7-2-8-7-5"
           width="20"
           height="20.000019"
           x="295.634"
           y="596.16223" />
        <rect
           style="fill:none;fill-rule:evenodd;stroke:#1616b2;stroke-width:2.00000024;stroke-linecap:butt;stroke-linejoin:miter;stroke-miterlimit:4;stroke-dasharray:none;stroke-opacity:1"
           id="rect3450-6-4-1-9-8-2-6"
           width="20"
           height="20.000019"
           x="314.91971"
           y="596.16223" />
        <rect
           style="fill:none;fill-rule:evenodd;stroke:#1616b2;stroke-width:2.00000024;stroke-linecap:butt;stroke-linejoin:miter;stroke-miterlimit:4;stroke-dasharray:none;stroke-opacity:1"
           id="rect3450-6-8-6-0-1-7-7-6"
           width="20"
           height="20.000019"
           x="334.91971"
           y="596.16223" />
        <rect
           style="fill:none;fill-rule:evenodd;stroke:#1616b2;stroke-width:2.00000024;stroke-linecap:butt;stroke-linejoin:miter;stroke-miterlimit:4;stroke-dasharray:none;stroke-opacity:1"
           id="rect3450-6-3-92-2-9-3-5-2"
           width="20"
           height="20.000019"
           x="355.634"
           y="596.16223" />
      </g>
      <g
         style="stroke:#1616b2;stroke-width:2.00000024;stroke-linecap:butt;stroke-linejoin:round;stroke-miterlimit:4;stroke-dasharray:none;stroke-opacity:1"
         transform="translate(457.19377,-99.166263)"
         id="g9674-8-9-4-0-6">
        <rect
           style="fill:none;fill-rule:evenodd;stroke:#1616b2;stroke-width:2.00000024;stroke-linecap:butt;stroke-linejoin:miter;stroke-miterlimit:4;stroke-dasharray:none;stroke-opacity:1"
           id="rect3450-1-7-2-8-1-4-0"
           width="20"
           height="20.000019"
           x="295.634"
           y="596.16223" />
        <rect
           style="fill:none;fill-rule:evenodd;stroke:#1616b2;stroke-width:2.00000024;stroke-linecap:butt;stroke-linejoin:miter;stroke-miterlimit:4;stroke-dasharray:none;stroke-opacity:1"
           id="rect3450-6-4-1-9-8-5-8-3"
           width="20"
           height="20.000019"
           x="314.91971"
           y="596.16223" />
        <rect
           style="fill:none;fill-rule:evenodd;stroke:#1616b2;stroke-width:2.00000024;stroke-linecap:butt;stroke-linejoin:miter;stroke-miterlimit:4;stroke-dasharray:none;stroke-opacity:1"
           id="rect3450-6-8-6-0-1-7-8-6-6"
           width="20"
           height="20.000019"
           x="334.91971"
           y="596.16223" />
        <rect
           style="fill:none;fill-rule:evenodd;stroke:#1616b2;stroke-width:2.00000024;stroke-linecap:butt;stroke-linejoin:miter;stroke-miterlimit:4;stroke-dasharray:none;stroke-opacity:1"
           id="rect3450-6-3-92-2-9-3-3-03-8"
           width="20"
           height="20.000019"
           x="355.634"
           y="596.16223" />
      </g>
      <g
         style="stroke:#1616b2;stroke-width:2.00000024;stroke-linecap:butt;stroke-linejoin:round;stroke-miterlimit:4;stroke-dasharray:none;stroke-opacity:1"
         transform="translate(457.19377,-118.90426)"
         id="g9674-8-9-4-1-4-5">
        <rect
           style="fill:none;fill-rule:evenodd;stroke:#1616b2;stroke-width:2.00000024;stroke-linecap:butt;stroke-linejoin:miter;stroke-miterlimit:4;stroke-dasharray:none;stroke-opacity:1"
           id="rect3450-1-7-2-8-1-8-2-3"
           width="20"
           height="20.000019"
           x="295.634"
           y="596.16223" />
        <rect
           style="fill:none;fill-rule:evenodd;stroke:#1616b2;stroke-width:2.00000024;stroke-linecap:butt;stroke-linejoin:miter;stroke-miterlimit:4;stroke-dasharray:none;stroke-opacity:1"
           id="rect3450-6-4-1-9-8-5-1-8-8"
           width="20"
           height="20.000019"
           x="314.91971"
           y="596.16223" />
        <rect
           style="fill:none;fill-rule:evenodd;stroke:#1616b2;stroke-width:2.00000024;stroke-linecap:butt;stroke-linejoin:miter;stroke-miterlimit:4;stroke-dasharray:none;stroke-opacity:1"
           id="rect3450-6-8-6-0-1-7-8-4-1-3"
           width="20"
           height="20.000019"
           x="334.91971"
           y="596.16223" />
        <rect
           style="fill:none;fill-rule:evenodd;stroke:#1616b2;stroke-width:2.00000024;stroke-linecap:butt;stroke-linejoin:miter;stroke-miterlimit:4;stroke-dasharray:none;stroke-opacity:1"
           id="rect3450-6-3-92-2-9-3-3-0-1-5"
           width="20"
           height="20.000019"
           x="355.634"
           y="596.16223" />
      </g>
    </g>
    <g
       transform="translate(-1074.2135,-353.64139)"
       style="stroke:#1616b2;stroke-width:2.00000024;stroke-linecap:butt;stroke-linejoin:round;stroke-miterlimit:4;stroke-dasharray:none;stroke-opacity:1"
       id="g49314-0">
      <rect
         y="584.65033"
         x="1509.0597"
         height="20.000019"
         width="20"
         id="rect3450-09-7-2-7-8-2-2-0"
         style="fill:none;fill-rule:evenodd;stroke:#1616b2;stroke-width:2.00000024;stroke-linecap:butt;stroke-linejoin:miter;stroke-miterlimit:4;stroke-dasharray:none;stroke-opacity:1" />
      <rect
         y="584.65033"
         x="1528.3453"
         height="20.000019"
         width="20"
         id="rect3450-6-0-3-1-7-8-4-4-1"
         style="fill:none;fill-rule:evenodd;stroke:#1616b2;stroke-width:2.00000024;stroke-linecap:butt;stroke-linejoin:miter;stroke-miterlimit:4;stroke-dasharray:none;stroke-opacity:1" />
      <rect
         y="584.65033"
         x="1548.3453"
         height="20.000019"
         width="20"
         id="rect3450-6-8-24-3-1-8-2-8-7-6"
         style="fill:none;fill-rule:evenodd;stroke:#1616b2;stroke-width:2.00000024;stroke-linecap:butt;stroke-linejoin:miter;stroke-miterlimit:4;stroke-dasharray:none;stroke-opacity:1" />
    </g>
    <g
       transform="translate(-852.21346,-337.34934)"
       id="g49137-6"
       style="stroke-linecap:butt;stroke-linejoin:round">
      <rect
         y="567.21021"
         x="289.72995"
         height="20.000019"
         width="20"
         id="rect3450-1-7-7"
         style="fill:none;fill-rule:evenodd;stroke:#000000;stroke-width:1.5;stroke-linecap:butt;stroke-linejoin:miter;stroke-miterlimit:4;stroke-dasharray:none;stroke-opacity:1" />
      <rect
         y="567.21021"
         x="309.01566"
         height="20.000019"
         width="20"
         id="rect3450-6-4-1-3"
         style="fill:none;fill-rule:evenodd;stroke:#000000;stroke-width:1.5;stroke-linecap:butt;stroke-linejoin:miter;stroke-miterlimit:4;stroke-dasharray:none;stroke-opacity:1" />
      <rect
         y="567.21021"
         x="329.01566"
         height="20.000019"
         width="20"
         id="rect3450-6-8-6-0-6"
         style="fill:none;fill-rule:evenodd;stroke:#000000;stroke-width:1.5;stroke-linecap:butt;stroke-linejoin:miter;stroke-miterlimit:4;stroke-dasharray:none;stroke-opacity:1" />
      <rect
         y="567.21021"
         x="349.72995"
         height="20.000019"
         width="20"
         id="rect3450-6-3-92-2-3"
         style="fill:none;fill-rule:evenodd;stroke:#000000;stroke-width:1.5;stroke-linecap:butt;stroke-linejoin:miter;stroke-miterlimit:4;stroke-dasharray:none;stroke-opacity:1" />
    </g>
    <text
       xml:space="preserve"
       style="font-style:normal;font-weight:normal;font-size:32.5px;line-height:125%;font-family:Sans;letter-spacing:0px;word-spacing:0px;fill:#000000;fill-opacity:1;stroke:none;stroke-width:1px;stroke-linecap:butt;stroke-linejoin:miter;stroke-opacity:1"
       x="-853.65277"
       y="642.35297"
       id="text4344"
       sodipodi:linespacing="125%"><tspan
         sodipodi:role="line"
         id="tspan4346"
         x="-853.65277"
         y="642.35297">128x1200</tspan><tspan
         sodipodi:role="line"
         x="-853.65277"
         y="682.97797"
         id="tspan4348">inputs</tspan></text>
    <text
       xml:space="preserve"
       style="font-style:normal;font-weight:normal;font-size:32.5px;line-height:125%;font-family:Sans;letter-spacing:0px;word-spacing:0px;fill:#000000;fill-opacity:1;stroke:none;stroke-width:1px;stroke-linecap:butt;stroke-linejoin:miter;stroke-opacity:1"
       x="-578.8913"
       y="642.35297"
       id="text4350"
       sodipodi:linespacing="125%"><tspan
         sodipodi:role="line"
         id="tspan4352"
         x="-578.8913"
         y="642.35297">40x30 </tspan><tspan
         sodipodi:role="line"
         x="-578.8913"
         y="682.97797"
         id="tspan4354">weights</tspan></text>
    <text
       xml:space="preserve"
       style="font-style:normal;font-weight:normal;font-size:32.5px;line-height:125%;font-family:Sans;letter-spacing:0px;word-spacing:0px;fill:#000000;fill-opacity:1;stroke:none;stroke-width:1px;stroke-linecap:butt;stroke-linejoin:miter;stroke-opacity:1"
       x="-364.73895"
       y="642.35297"
       id="text4356"
       sodipodi:linespacing="125%"><tspan
         sodipodi:role="line"
         id="tspan4358"
         x="-364.73895"
         y="642.35297">40x</tspan><tspan
         sodipodi:role="line"
         x="-364.73895"
         y="682.97797"
         id="tspan4364">128x</tspan><tspan
         sodipodi:role="line"
         x="-364.73895"
         y="723.60297"
         id="tspan4362">1200</tspan><tspan
         sodipodi:role="line"
         x="-364.73895"
         y="764.22797"
         id="tspan4360">outputs</tspan></text>
    <text
       xml:space="preserve"
       style="font-style:normal;font-weight:normal;font-size:32.5px;line-height:125%;font-family:Sans;letter-spacing:0px;word-spacing:0px;fill:#000000;fill-opacity:1;stroke:none;stroke-width:1px;stroke-linecap:butt;stroke-linejoin:miter;stroke-opacity:1"
       x="-154.62721"
       y="642.35297"
       id="text4366"
       sodipodi:linespacing="125%"><tspan
         sodipodi:role="line"
         id="tspan4368"
         x="-154.62721"
         y="642.35297">40x</tspan><tspan
         sodipodi:role="line"
         x="-154.62721"
         y="682.97797"
         id="tspan4359">128x</tspan><tspan
         sodipodi:role="line"
         x="-154.62721"
         y="723.60297"
         id="tspan4363">40</tspan><tspan
         sodipodi:role="line"
         x="-154.62721"
         y="764.22797"
         id="tspan4370">weights</tspan></text>
    <text
       xml:space="preserve"
       style="font-style:normal;font-weight:normal;font-size:32.5px;line-height:125%;font-family:Sans;letter-spacing:0px;word-spacing:0px;fill:#000000;fill-opacity:1;stroke:none;stroke-width:1px;stroke-linecap:butt;stroke-linejoin:miter;stroke-opacity:1"
       x="39.322071"
       y="642.35297"
       id="text4372"
       sodipodi:linespacing="125%"><tspan
         sodipodi:role="line"
         id="tspan4374"
         x="39.322071"
         y="642.35297">40x1200</tspan><tspan
         sodipodi:role="line"
         x="39.322071"
         y="682.97797"
         id="tspan4376">outputs</tspan></text>
    <text
       xml:space="preserve"
       style="font-style:normal;font-weight:normal;font-size:32.5px;line-height:125%;font-family:Sans;letter-spacing:0px;word-spacing:0px;fill:#000000;fill-opacity:1;stroke:none;stroke-width:1px;stroke-linecap:butt;stroke-linejoin:miter;stroke-opacity:1"
       x="429.24097"
       y="642.35297"
       id="text4378"
       sodipodi:linespacing="125%"><tspan
         sodipodi:role="line"
         id="tspan4380"
         x="429.24097"
         y="642.35297">40x54</tspan><tspan
         sodipodi:role="line"
         x="429.24097"
         y="682.97797"
         id="tspan4382">=</tspan><tspan
         sodipodi:role="line"
         x="429.24097"
         y="723.60297"
         id="tspan4384">2160 features</tspan></text>
    <text
       xml:space="preserve"
       style="font-style:normal;font-weight:normal;font-size:32.5px;line-height:125%;font-family:Sans;letter-spacing:0px;word-spacing:0px;fill:#000000;fill-opacity:1;stroke:none;stroke-width:1px;stroke-linecap:butt;stroke-linejoin:miter;stroke-opacity:1"
       x="217.10899"
       y="642.35297"
       id="text4386"
       sodipodi:linespacing="125%"><tspan
         sodipodi:role="line"
         id="tspan4388"
         x="217.10899"
         y="642.35297">100 </tspan><tspan
         sodipodi:role="line"
         x="217.10899"
         y="682.97797"
         id="tspan4390">neighbours,</tspan><tspan
         sodipodi:role="line"
         x="217.10899"
         y="723.60297"
         id="tspan4392">20 stride</tspan></text>
  </g>
</svg>
