<?xml version="1.0"?>
<!DOCTYPE svg PUBLIC '-//W3C//DTD SVG 1.0//EN'
          'http://www.w3.org/TR/2001/REC-SVG-20010904/DTD/svg10.dtd'>
<svg xmlns:xlink="http://www.w3.org/1999/xlink" style="fill-opacity:1; color-rendering:auto; color-interpolation:auto; stroke:black; text-rendering:auto; stroke-linecap:square; stroke-miterlimit:10; stroke-opacity:1; shape-rendering:auto; fill:black; stroke-dasharray:none; font-weight:normal; stroke-width:1; font-family:'Dialog'; font-style:normal; stroke-linejoin:miter; font-size:12px; stroke-dashoffset:0; image-rendering:auto;" width="500" height="500" xmlns="http://www.w3.org/2000/svg"
><!--Generated by the Batik Graphics2D SVG Generator--><defs id="genericDefs"
  /><g
  ><defs id="defs1"
    ><clipPath clipPathUnits="userSpaceOnUse" id="clipPath1"
      ><path d="M0 0 L500 0 L500 500 L0 500 L0 0 Z"
      /></clipPath
      ><font horiz-adv-x="60.009766" id="font1"
      ><font-face ascent="92.822266" descent="23.583984" units-per-em="100" style="font-style:normal; font-family:SansSerif; font-weight:bold;"
        /><missing-glyph horiz-adv-x="60.009766" d="M4.9844 -17.6719 L4.9844 70.5156 L54.9844 70.5156 L54.9844 -17.6719 L4.9844 -17.6719 ZM10.5938 -12.1094 L49.4219 -12.1094 L49.4219 64.8906 L10.5938 64.8906 L10.5938 -12.1094 Z"
        /><glyph unicode="s" horiz-adv-x="59.521484" d="M51.125 52.9844 L51.125 39.7031 Q45.5156 42.0469 40.2891 43.2188 Q35.0625 44.3906 30.4219 44.3906 Q25.4375 44.3906 23.0234 43.1406 Q20.6094 41.8906 20.6094 39.3125 Q20.6094 37.2031 22.4375 36.0859 Q24.2656 34.9688 29 34.4219 L32.0781 33.9844 Q45.5156 32.2812 50.1484 28.375 Q54.7812 24.4688 54.7812 16.1094 Q54.7812 7.375 48.3359 2.9766 Q41.8906 -1.4219 29.1094 -1.4219 Q23.6875 -1.4219 17.8984 -0.5625 Q12.1094 0.2969 6 2 L6 15.2812 Q11.2344 12.75 16.7266 11.4766 Q22.2188 10.2031 27.875 10.2031 Q33.0156 10.2031 35.6016 11.6172 Q38.1875 13.0312 38.1875 15.8281 Q38.1875 18.1719 36.4062 19.3125 Q34.625 20.4531 29.2969 21.0938 L26.2188 21.4844 Q14.5469 22.9531 9.8594 26.9062 Q5.1719 30.8594 5.1719 38.9219 Q5.1719 47.6094 11.1328 51.8047 Q17.0938 56 29.3906 56 Q34.2344 56 39.5547 55.2734 Q44.875 54.5469 51.125 52.9844 Z"
        /><glyph unicode="l" horiz-adv-x="34.277344" d="M8.4062 75.9844 L25.875 75.9844 L25.875 0 L8.4062 0 L8.4062 75.9844 Z"
        /><glyph unicode="C" horiz-adv-x="73.38867" d="M67 4 Q61.8125 1.3125 56.2031 -0.0547 Q50.5938 -1.4219 44.4844 -1.4219 Q26.2656 -1.4219 15.625 8.7656 Q4.9844 18.9531 4.9844 36.375 Q4.9844 53.8594 15.625 64.0391 Q26.2656 74.2188 44.4844 74.2188 Q50.5938 74.2188 56.2031 72.8516 Q61.8125 71.4844 67 68.7969 L67 53.7188 Q61.7656 57.2812 56.6875 58.9375 Q51.6094 60.5938 46 60.5938 Q35.9375 60.5938 30.1797 54.1484 Q24.4219 47.7031 24.4219 36.375 Q24.4219 25.0938 30.1797 18.6484 Q35.9375 12.2031 46 12.2031 Q51.6094 12.2031 56.6875 13.8672 Q61.7656 15.5312 67 19.0938 L67 4 Z"
        /><glyph unicode=" " horiz-adv-x="34.814453" d=""
        /><glyph unicode="t" horiz-adv-x="47.802734" d="M27.4844 70.2188 L27.4844 54.6875 L45.5156 54.6875 L45.5156 42.1875 L27.4844 42.1875 L27.4844 19 Q27.4844 15.1875 29 13.8438 Q30.5156 12.5 35.0156 12.5 L44 12.5 L44 0 L29 0 Q18.6562 0 14.3359 4.3203 Q10.0156 8.6406 10.0156 19 L10.0156 42.1875 L1.3125 42.1875 L1.3125 54.6875 L10.0156 54.6875 L10.0156 70.2188 L27.4844 70.2188 Z"
        /><glyph unicode="e" horiz-adv-x="67.822266" d="M62.9844 27.4844 L62.9844 22.5156 L22.125 22.5156 Q22.75 16.3594 26.5625 13.2812 Q30.375 10.2031 37.2031 10.2031 Q42.7188 10.2031 48.5078 11.8438 Q54.2969 13.4844 60.4062 16.7969 L60.4062 3.3281 Q54.2031 0.9844 48 -0.2188 Q41.7969 -1.4219 35.5938 -1.4219 Q20.75 -1.4219 12.5234 6.125 Q4.2969 13.6719 4.2969 27.2969 Q4.2969 40.6719 12.375 48.3359 Q20.4531 56 34.625 56 Q47.5156 56 55.25 48.2422 Q62.9844 40.4844 62.9844 27.4844 ZM45.0156 33.2969 Q45.0156 38.2812 42.1094 41.3359 Q39.2031 44.3906 34.5156 44.3906 Q29.4375 44.3906 26.2656 41.5312 Q23.0938 38.6719 22.3125 33.2969 L45.0156 33.2969 Z"
        /><glyph unicode="g" horiz-adv-x="71.58203" d="M45.6094 9.2812 Q42 4.5 37.6484 2.25 Q33.2969 0 27.5938 0 Q17.5781 0 11.0391 7.8828 Q4.5 15.7656 4.5 27.9844 Q4.5 40.2344 11.0391 48.0703 Q17.5781 55.9062 27.5938 55.9062 Q33.2969 55.9062 37.6484 53.6641 Q42 51.4219 45.6094 46.5781 L45.6094 54.6875 L63.1875 54.6875 L63.1875 5.5156 Q63.1875 -7.6719 54.8594 -14.625 Q46.5312 -21.5781 30.7188 -21.5781 Q25.5938 -21.5781 20.8047 -20.7969 Q16.0156 -20.0156 11.1875 -18.4062 L11.1875 -4.7812 Q15.7656 -7.4219 20.1641 -8.7188 Q24.5625 -10.0156 29 -10.0156 Q37.5938 -10.0156 41.6016 -6.25 Q45.6094 -2.4844 45.6094 5.5156 L45.6094 9.2812 ZM34.0781 43.3125 Q28.6562 43.3125 25.6328 39.3047 Q22.6094 35.2969 22.6094 27.9844 Q22.6094 20.4531 25.5391 16.5781 Q28.4688 12.7031 34.0781 12.7031 Q39.5469 12.7031 42.5781 16.7031 Q45.6094 20.7031 45.6094 27.9844 Q45.6094 35.2969 42.5781 39.3047 Q39.5469 43.3125 34.0781 43.3125 Z"
        /><glyph unicode="r" horiz-adv-x="49.316406" d="M49.0312 39.7969 Q46.7344 40.875 44.4609 41.3828 Q42.1875 41.8906 39.8906 41.8906 Q33.1562 41.8906 29.5156 37.5703 Q25.875 33.25 25.875 25.2031 L25.875 0 L8.4062 0 L8.4062 54.6875 L25.875 54.6875 L25.875 45.7031 Q29.25 51.0781 33.6172 53.5391 Q37.9844 56 44.0938 56 Q44.9688 56 45.9922 55.9297 Q47.0156 55.8594 48.9688 55.6094 L49.0312 39.7969 Z"
        /><glyph unicode="a" horiz-adv-x="67.48047" d="M32.9062 24.6094 Q27.4375 24.6094 24.6797 22.7578 Q21.9219 20.9062 21.9219 17.2812 Q21.9219 13.9688 24.1484 12.0859 Q26.375 10.2031 30.3281 10.2031 Q35.25 10.2031 38.625 13.7422 Q42 17.2812 42 22.6094 L42 24.6094 L32.9062 24.6094 ZM59.625 31.2031 L59.625 0 L42 0 L42 8.1094 Q38.4844 3.125 34.0859 0.8516 Q29.6875 -1.4219 23.3906 -1.4219 Q14.8906 -1.4219 9.5938 3.5391 Q4.2969 8.5 4.2969 16.4062 Q4.2969 26.0312 10.9141 30.5234 Q17.5312 35.0156 31.6875 35.0156 L42 35.0156 L42 36.375 Q42 40.5312 38.7266 42.4609 Q35.4531 44.3906 28.5156 44.3906 Q22.9062 44.3906 18.0703 43.2656 Q13.2344 42.1406 9.0781 39.8906 L9.0781 53.2188 Q14.7031 54.5938 20.3672 55.2969 Q26.0312 56 31.6875 56 Q46.4844 56 53.0547 50.1719 Q59.625 44.3438 59.625 31.2031 Z"
        /><glyph unicode="T" horiz-adv-x="68.21289" d="M0.4844 72.9062 L67.6719 72.9062 L67.6719 58.6875 L43.5 58.6875 L43.5 0 L24.7031 0 L24.7031 58.6875 L0.4844 58.6875 L0.4844 72.9062 Z"
        /><glyph unicode="p" horiz-adv-x="71.58203" d="M25.875 7.9062 L25.875 -20.7969 L8.4062 -20.7969 L8.4062 54.6875 L25.875 54.6875 L25.875 46.6875 Q29.5 51.4688 33.8906 53.7344 Q38.2812 56 44 56 Q54.1094 56 60.6016 47.9688 Q67.0938 39.9375 67.0938 27.2969 Q67.0938 14.6562 60.6016 6.6172 Q54.1094 -1.4219 44 -1.4219 Q38.2812 -1.4219 33.8906 0.8516 Q29.5 3.125 25.875 7.9062 ZM37.5 43.3125 Q31.8906 43.3125 28.8828 39.1875 Q25.875 35.0625 25.875 27.2969 Q25.875 19.5312 28.8828 15.4062 Q31.8906 11.2812 37.5 11.2812 Q43.1094 11.2812 46.0703 15.3828 Q49.0312 19.4844 49.0312 27.2969 Q49.0312 35.1094 46.0703 39.2109 Q43.1094 43.3125 37.5 43.3125 Z"
        /><glyph unicode="u" horiz-adv-x="71.19141" d="M7.8125 21.2969 L7.8125 54.6875 L25.3906 54.6875 L25.3906 49.2188 Q25.3906 44.7812 25.3438 38.0625 Q25.2969 31.3438 25.2969 29.1094 Q25.2969 22.5156 25.6406 19.6094 Q25.9844 16.7031 26.8125 15.375 Q27.875 13.6719 29.6094 12.7422 Q31.3438 11.8125 33.5938 11.8125 Q39.0625 11.8125 42.1875 16.0156 Q45.3125 20.2188 45.3125 27.6875 L45.3125 54.6875 L62.7969 54.6875 L62.7969 0 L45.3125 0 L45.3125 7.9062 Q41.3594 3.125 36.9375 0.8516 Q32.5156 -1.4219 27.2031 -1.4219 Q17.7188 -1.4219 12.7656 4.3906 Q7.8125 10.2031 7.8125 21.2969 Z"
        /><glyph unicode="O" horiz-adv-x="85.009766" d="M42.4844 60.5938 Q33.8906 60.5938 29.1562 54.25 Q24.4219 47.9062 24.4219 36.375 Q24.4219 24.9062 29.1562 18.5547 Q33.8906 12.2031 42.4844 12.2031 Q51.125 12.2031 55.8594 18.5547 Q60.5938 24.9062 60.5938 36.375 Q60.5938 47.9062 55.8594 54.25 Q51.125 60.5938 42.4844 60.5938 ZM42.4844 74.2188 Q60.0625 74.2188 70.0234 64.1641 Q79.9844 54.1094 79.9844 36.375 Q79.9844 18.7031 70.0234 8.6406 Q60.0625 -1.4219 42.4844 -1.4219 Q24.9531 -1.4219 14.9688 8.6406 Q4.9844 18.7031 4.9844 36.375 Q4.9844 54.1094 14.9688 64.1641 Q24.9531 74.2188 42.4844 74.2188 Z"
        /><glyph unicode="5" horiz-adv-x="69.58008" d="M10.5938 72.9062 L57.3281 72.9062 L57.3281 59.0781 L25.5938 59.0781 L25.5938 47.7969 Q27.7344 48.3906 29.9062 48.7109 Q32.0781 49.0312 34.4219 49.0312 Q47.75 49.0312 55.1719 42.3594 Q62.5938 35.6875 62.5938 23.7812 Q62.5938 11.9688 54.5156 5.2734 Q46.4375 -1.4219 32.0781 -1.4219 Q25.875 -1.4219 19.7969 -0.2188 Q13.7188 0.9844 7.7188 3.4219 L7.7188 18.2188 Q13.6719 14.7969 19.0156 13.0859 Q24.3594 11.375 29.1094 11.375 Q35.9375 11.375 39.8672 14.7188 Q43.7969 18.0625 43.7969 23.7812 Q43.7969 29.5469 39.8672 32.8672 Q35.9375 36.1875 29.1094 36.1875 Q25.0469 36.1875 20.4609 35.1328 Q15.875 34.0781 10.5938 31.8906 L10.5938 72.9062 Z"
        /><glyph unicode="7" horiz-adv-x="69.58008" d="M6.6875 72.9062 L61.625 72.9062 L61.625 62.3125 L33.2031 0 L14.8906 0 L41.7969 59.0781 L6.6875 59.0781 L6.6875 72.9062 Z"
        /><glyph unicode="2" horiz-adv-x="69.58008" d="M28.8125 13.8125 L60.8906 13.8125 L60.8906 0 L7.9062 0 L7.9062 13.8125 L34.5156 37.3125 Q38.0938 40.5312 39.7969 43.6094 Q41.5 46.6875 41.5 50 Q41.5 55.125 38.0625 58.25 Q34.625 61.375 28.9062 61.375 Q24.5156 61.375 19.2891 59.5 Q14.0625 57.625 8.1094 53.9062 L8.1094 69.9219 Q14.4531 72.0156 20.6562 73.1172 Q26.8594 74.2188 32.8125 74.2188 Q45.9062 74.2188 53.1562 68.4609 Q60.4062 62.7031 60.4062 52.3906 Q60.4062 46.4375 57.3281 41.2891 Q54.25 36.1406 44.3906 27.4844 L28.8125 13.8125 Z"
        /><glyph unicode="3" horiz-adv-x="69.58008" d="M46.5781 39.3125 Q53.9531 37.4062 57.7891 32.6953 Q61.625 27.9844 61.625 20.7031 Q61.625 9.8594 53.3203 4.2188 Q45.0156 -1.4219 29.1094 -1.4219 Q23.4844 -1.4219 17.8438 -0.5156 Q12.2031 0.3906 6.6875 2.2031 L6.6875 16.7031 Q11.9688 14.0625 17.1641 12.7188 Q22.3594 11.375 27.3906 11.375 Q34.8594 11.375 38.8438 13.9609 Q42.8281 16.5469 42.8281 21.3906 Q42.8281 26.375 38.75 28.9375 Q34.6719 31.5 26.7031 31.5 L19.1875 31.5 L19.1875 43.6094 L27.0938 43.6094 Q34.1875 43.6094 37.6484 45.8281 Q41.1094 48.0469 41.1094 52.5938 Q41.1094 56.7812 37.7422 59.0781 Q34.375 61.375 28.2188 61.375 Q23.6875 61.375 19.0469 60.3516 Q14.4062 59.3281 9.8125 57.3281 L9.8125 71.0938 Q15.375 72.6562 20.8438 73.4375 Q26.3125 74.2188 31.5938 74.2188 Q45.7969 74.2188 52.8516 69.5547 Q59.9062 64.8906 59.9062 55.5156 Q59.9062 49.125 56.5391 45.0469 Q53.1719 40.9688 46.5781 39.3125 Z"
        /><glyph unicode="1" horiz-adv-x="69.58008" d="M11.7188 12.9844 L28.3281 12.9844 L28.3281 60.1094 L11.2812 56.5938 L11.2812 69.3906 L28.2188 72.9062 L46.0938 72.9062 L46.0938 12.9844 L62.7031 12.9844 L62.7031 0 L11.7188 0 L11.7188 12.9844 Z"
        /><glyph unicode="6" horiz-adv-x="69.58008" d="M36.1875 35.9844 Q31.25 35.9844 28.7812 32.7891 Q26.3125 29.5938 26.3125 23.1875 Q26.3125 16.7969 28.7812 13.6016 Q31.25 10.4062 36.1875 10.4062 Q41.1562 10.4062 43.625 13.6016 Q46.0938 16.7969 46.0938 23.1875 Q46.0938 29.5938 43.625 32.7891 Q41.1562 35.9844 36.1875 35.9844 ZM59.4219 71 L59.4219 57.5156 Q54.7812 59.7188 50.6797 60.7656 Q46.5781 61.8125 42.6719 61.8125 Q34.2812 61.8125 29.5938 57.1484 Q24.9062 52.4844 24.125 43.3125 Q27.3438 45.7031 31.1016 46.8984 Q34.8594 48.0938 39.3125 48.0938 Q50.4844 48.0938 57.3438 41.5547 Q64.2031 35.0156 64.2031 24.4219 Q64.2031 12.7031 56.5391 5.6406 Q48.875 -1.4219 35.9844 -1.4219 Q21.7812 -1.4219 13.9922 8.1797 Q6.2031 17.7812 6.2031 35.4062 Q6.2031 53.4688 15.3125 63.7969 Q24.4219 74.125 40.2812 74.125 Q45.3125 74.125 50.0469 73.3438 Q54.7812 72.5625 59.4219 71 Z"
        /><glyph unicode="4" horiz-adv-x="69.58008" d="M36.8125 57.4219 L16.2188 26.9062 L36.8125 26.9062 L36.8125 57.4219 ZM33.6875 72.9062 L54.5938 72.9062 L54.5938 26.9062 L64.9844 26.9062 L64.9844 13.2812 L54.5938 13.2812 L54.5938 0 L36.8125 0 L36.8125 13.2812 L4.5 13.2812 L4.5 29.3906 L33.6875 72.9062 Z"
        /><glyph unicode="8" horiz-adv-x="69.58008" d="M34.8125 32.625 Q29.5469 32.625 26.7109 29.7422 Q23.875 26.8594 23.875 21.4844 Q23.875 16.1094 26.7109 13.2578 Q29.5469 10.4062 34.8125 10.4062 Q40.0469 10.4062 42.8281 13.2578 Q45.6094 16.1094 45.6094 21.4844 Q45.6094 26.9062 42.8281 29.7656 Q40.0469 32.625 34.8125 32.625 ZM21.0938 38.8125 Q14.4531 40.8281 11.0859 44.9766 Q7.7188 49.125 7.7188 55.3281 Q7.7188 64.5469 14.6016 69.3828 Q21.4844 74.2188 34.8125 74.2188 Q48.0469 74.2188 54.9297 69.4062 Q61.8125 64.5938 61.8125 55.3281 Q61.8125 49.125 58.4219 44.9766 Q55.0312 40.8281 48.3906 38.8125 Q55.8125 36.7656 59.5938 32.1562 Q63.375 27.5469 63.375 20.5156 Q63.375 9.6719 56.1719 4.125 Q48.9688 -1.4219 34.8125 -1.4219 Q20.6094 -1.4219 13.3594 4.125 Q6.1094 9.6719 6.1094 20.5156 Q6.1094 27.5469 9.8906 32.1562 Q13.6719 36.7656 21.0938 38.8125 ZM25.4844 53.4219 Q25.4844 49.0781 27.9062 46.7344 Q30.3281 44.3906 34.8125 44.3906 Q39.2031 44.3906 41.6016 46.7344 Q44 49.0781 44 53.4219 Q44 57.7656 41.6016 60.0859 Q39.2031 62.4062 34.8125 62.4062 Q30.3281 62.4062 27.9062 60.0625 Q25.4844 57.7188 25.4844 53.4219 Z"
        /><glyph unicode="0" horiz-adv-x="69.58008" d="M46 36.5312 Q46 50.2031 43.4375 55.7891 Q40.875 61.375 34.8125 61.375 Q28.7656 61.375 26.1719 55.7891 Q23.5781 50.2031 23.5781 36.5312 Q23.5781 22.7031 26.1719 17.0391 Q28.7656 11.375 34.8125 11.375 Q40.8281 11.375 43.4141 17.0391 Q46 22.7031 46 36.5312 ZM64.7969 36.375 Q64.7969 18.2656 56.9844 8.4219 Q49.1719 -1.4219 34.8125 -1.4219 Q20.4062 -1.4219 12.5938 8.4219 Q4.7812 18.2656 4.7812 36.375 Q4.7812 54.5469 12.5938 64.3828 Q20.4062 74.2188 34.8125 74.2188 Q49.1719 74.2188 56.9844 64.3828 Q64.7969 54.5469 64.7969 36.375 Z"
        /><glyph unicode="9" horiz-adv-x="69.58008" d="M10.0156 1.6094 L10.0156 15.0938 Q14.5 12.9844 18.6016 11.9375 Q22.7031 10.8906 26.7031 10.8906 Q35.1094 10.8906 39.7969 15.5547 Q44.4844 20.2188 45.3125 29.3906 Q42 26.9531 38.2344 25.7344 Q34.4688 24.5156 30.0781 24.5156 Q18.8906 24.5156 12.0312 31.0312 Q5.1719 37.5469 5.1719 48.1875 Q5.1719 59.9688 12.8125 67.0469 Q20.4531 74.125 33.2969 74.125 Q47.5625 74.125 55.375 64.5078 Q63.1875 54.8906 63.1875 37.3125 Q63.1875 19.2344 54.0547 8.9062 Q44.9219 -1.4219 29 -1.4219 Q23.875 -1.4219 19.1875 -0.6641 Q14.5 0.0938 10.0156 1.6094 ZM33.2031 36.7188 Q38.1406 36.7188 40.625 39.9141 Q43.1094 43.1094 43.1094 49.5156 Q43.1094 55.8594 40.625 59.0859 Q38.1406 62.3125 33.2031 62.3125 Q28.2656 62.3125 25.7812 59.0859 Q23.2969 55.8594 23.2969 49.5156 Q23.2969 43.1094 25.7812 39.9141 Q28.2656 36.7188 33.2031 36.7188 Z"
        /><glyph unicode="%" horiz-adv-x="100.19531" d="M77.4844 30.0781 Q74.0312 30.0781 72.125 27.0781 Q70.2188 24.0781 70.2188 18.5 Q70.2188 12.8906 72.0938 9.8906 Q73.9688 6.8906 77.4844 6.8906 Q81 6.8906 82.8594 9.8906 Q84.7188 12.8906 84.7188 18.5 Q84.7188 24.0781 82.8359 27.0781 Q80.9531 30.0781 77.4844 30.0781 ZM77.4844 38.2812 Q86.5781 38.2812 91.7969 33.0078 Q97.0156 27.7344 97.0156 18.5 Q97.0156 9.2812 91.7969 3.9297 Q86.5781 -1.4219 77.4844 -1.4219 Q68.4062 -1.4219 63.1562 3.9297 Q57.9062 9.2812 57.9062 18.5 Q57.9062 27.6875 63.1562 32.9844 Q68.4062 38.2812 77.4844 38.2812 ZM32.7188 -1.4219 L21.9219 -1.4219 L67.4844 74.2188 L78.3281 74.2188 L32.7188 -1.4219 ZM22.7031 74.2188 Q31.7812 74.2188 36.9844 68.9219 Q42.1875 63.625 42.1875 54.3906 Q42.1875 45.1719 36.9844 39.8438 Q31.7812 34.5156 22.7031 34.5156 Q13.625 34.5156 8.4219 39.8438 Q3.2188 45.1719 3.2188 54.3906 Q3.2188 63.625 8.4219 68.9219 Q13.625 74.2188 22.7031 74.2188 ZM22.7031 66.0156 Q19.1875 66.0156 17.2812 62.9922 Q15.375 59.9688 15.375 54.3906 Q15.375 48.7812 17.2812 45.7266 Q19.1875 42.6719 22.7031 42.6719 Q26.2188 42.6719 28.1016 45.7266 Q29.9844 48.7812 29.9844 54.3906 Q29.9844 59.9688 28.0781 62.9922 Q26.1719 66.0156 22.7031 66.0156 Z"
        /><glyph unicode="." horiz-adv-x="37.98828" d="M10.2031 18.8906 L27.7812 18.8906 L27.7812 0 L10.2031 0 L10.2031 18.8906 Z"
        /><glyph unicode="P" horiz-adv-x="73.291016" d="M9.1875 72.9062 L40.375 72.9062 Q54.2969 72.9062 61.7422 66.7266 Q69.1875 60.5469 69.1875 49.125 Q69.1875 37.6406 61.7422 31.4688 Q54.2969 25.2969 40.375 25.2969 L27.9844 25.2969 L27.9844 0 L9.1875 0 L9.1875 72.9062 ZM27.9844 59.2812 L27.9844 38.9219 L38.375 38.9219 Q43.8438 38.9219 46.8281 41.5781 Q49.8125 44.2344 49.8125 49.125 Q49.8125 54 46.8281 56.6406 Q43.8438 59.2812 38.375 59.2812 L27.9844 59.2812 Z"
        /><glyph unicode="i" horiz-adv-x="34.277344" d="M8.4062 54.6875 L25.875 54.6875 L25.875 0 L8.4062 0 L8.4062 54.6875 ZM8.4062 75.9844 L25.875 75.9844 L25.875 61.7188 L8.4062 61.7188 L8.4062 75.9844 Z"
        /><glyph unicode="S" horiz-adv-x="72.021484" d="M59.9062 70.6094 L59.9062 55.1719 Q53.9062 57.8594 48.1953 59.2266 Q42.4844 60.5938 37.4062 60.5938 Q30.6719 60.5938 27.4453 58.7422 Q24.2188 56.8906 24.2188 52.9844 Q24.2188 50.0469 26.3906 48.4141 Q28.5625 46.7812 34.2812 45.6094 L42.2812 44 Q54.4375 41.5469 59.5703 36.5703 Q64.7031 31.5938 64.7031 22.4062 Q64.7031 10.3594 57.5469 4.4688 Q50.3906 -1.4219 35.6875 -1.4219 Q28.7656 -1.4219 21.7812 -0.1016 Q14.7969 1.2188 7.8125 3.8125 L7.8125 19.6719 Q14.7969 15.9688 21.3125 14.0859 Q27.8281 12.2031 33.8906 12.2031 Q40.0469 12.2031 43.3125 14.2578 Q46.5781 16.3125 46.5781 20.125 Q46.5781 23.5312 44.3594 25.3906 Q42.1406 27.25 35.5 28.7188 L28.2188 30.3281 Q17.2812 32.6719 12.2266 37.7969 Q7.1719 42.9219 7.1719 51.6094 Q7.1719 62.5 14.2031 68.3594 Q21.2344 74.2188 34.4219 74.2188 Q40.4375 74.2188 46.7812 73.3125 Q53.125 72.4062 59.9062 70.6094 Z"
        /><glyph unicode="n" horiz-adv-x="71.19141" d="M63.375 33.2969 L63.375 0 L45.7969 0 L45.7969 5.4219 L45.7969 25.4844 Q45.7969 32.5625 45.4844 35.25 Q45.1719 37.9375 44.3906 39.2031 Q43.3594 40.9219 41.6016 41.875 Q39.8438 42.8281 37.5938 42.8281 Q32.125 42.8281 29 38.6016 Q25.875 34.375 25.875 26.9062 L25.875 0 L8.4062 0 L8.4062 54.6875 L25.875 54.6875 L25.875 46.6875 Q29.8281 51.4688 34.2734 53.7344 Q38.7188 56 44.0938 56 Q53.5625 56 58.4688 50.1953 Q63.375 44.3906 63.375 33.2969 Z"
        /><glyph unicode="m" horiz-adv-x="104.19922" d="M59.0781 45.6094 Q62.4062 50.6875 66.9688 53.3438 Q71.5312 56 77 56 Q86.4219 56 91.3594 50.1953 Q96.2969 44.3906 96.2969 33.2969 L96.2969 0 L78.7188 0 L78.7188 28.5156 Q78.7656 29.1562 78.7891 29.8359 Q78.8125 30.5156 78.8125 31.7812 Q78.8125 37.5938 77.1016 40.2109 Q75.3906 42.8281 71.5781 42.8281 Q66.6094 42.8281 63.8984 38.7266 Q61.1875 34.625 61.0781 26.8594 L61.0781 0 L43.5 0 L43.5 28.5156 Q43.5 37.5938 41.9375 40.2109 Q40.375 42.8281 36.375 42.8281 Q31.3438 42.8281 28.6094 38.7031 Q25.875 34.5781 25.875 26.9062 L25.875 0 L8.2969 0 L8.2969 54.6875 L25.875 54.6875 L25.875 46.6875 Q29.1094 51.3125 33.2812 53.6562 Q37.4531 56 42.4844 56 Q48.1406 56 52.4922 53.2656 Q56.8438 50.5312 59.0781 45.6094 Z"
        /><glyph unicode="o" horiz-adv-x="68.70117" d="M34.4219 43.5 Q28.6094 43.5 25.5625 39.3281 Q22.5156 35.1562 22.5156 27.2969 Q22.5156 19.4375 25.5625 15.2578 Q28.6094 11.0781 34.4219 11.0781 Q40.1406 11.0781 43.1641 15.2578 Q46.1875 19.4375 46.1875 27.2969 Q46.1875 35.1562 43.1641 39.3281 Q40.1406 43.5 34.4219 43.5 ZM34.4219 56 Q48.5312 56 56.4688 48.3828 Q64.4062 40.7656 64.4062 27.2969 Q64.4062 13.8125 56.4688 6.1953 Q48.5312 -1.4219 34.4219 -1.4219 Q20.2656 -1.4219 12.2812 6.1953 Q4.2969 13.8125 4.2969 27.2969 Q4.2969 40.7656 12.2812 48.3828 Q20.2656 56 34.4219 56 Z"
      /></font
      ><font horiz-adv-x="60.009766" id="font2"
      ><font-face ascent="92.822266" descent="23.583984" units-per-em="100" style="font-style:normal; font-family:SansSerif; font-weight:normal;"
        /><missing-glyph horiz-adv-x="60.009766" d="M4.9844 -17.6719 L4.9844 70.5156 L54.9844 70.5156 L54.9844 -17.6719 L4.9844 -17.6719 ZM10.5938 -12.1094 L49.4219 -12.1094 L49.4219 64.8906 L10.5938 64.8906 L10.5938 -12.1094 Z"
        /><glyph unicode="t" horiz-adv-x="39.208984" d="M18.3125 70.2188 L18.3125 54.6875 L36.8125 54.6875 L36.8125 47.7031 L18.3125 47.7031 L18.3125 18.0156 Q18.3125 11.3281 20.1406 9.4219 Q21.9688 7.5156 27.5938 7.5156 L36.8125 7.5156 L36.8125 0 L27.5938 0 Q17.1875 0 13.2344 3.8828 Q9.2812 7.7656 9.2812 18.0156 L9.2812 47.7031 L2.6875 47.7031 L2.6875 54.6875 L9.2812 54.6875 L9.2812 70.2188 L18.3125 70.2188 Z"
        /><glyph unicode="h" horiz-adv-x="63.378906" d="M54.8906 33.0156 L54.8906 0 L45.9062 0 L45.9062 32.7188 Q45.9062 40.4844 42.875 44.3359 Q39.8438 48.1875 33.7969 48.1875 Q26.5156 48.1875 22.3125 43.5547 Q18.1094 38.9219 18.1094 30.9062 L18.1094 0 L9.0781 0 L9.0781 75.9844 L18.1094 75.9844 L18.1094 46.1875 Q21.3438 51.125 25.7109 53.5625 Q30.0781 56 35.7969 56 Q45.2188 56 50.0547 50.1719 Q54.8906 44.3438 54.8906 33.0156 Z"
        /><glyph unicode="g" horiz-adv-x="63.476562" d="M45.4062 27.9844 Q45.4062 37.75 41.3828 43.1172 Q37.3594 48.4844 30.0781 48.4844 Q22.8594 48.4844 18.8281 43.1172 Q14.7969 37.75 14.7969 27.9844 Q14.7969 18.2656 18.8281 12.8906 Q22.8594 7.5156 30.0781 7.5156 Q37.3594 7.5156 41.3828 12.8906 Q45.4062 18.2656 45.4062 27.9844 ZM54.3906 6.7812 Q54.3906 -7.1719 48.1953 -13.9844 Q42 -20.7969 29.2031 -20.7969 Q24.4688 -20.7969 20.2656 -20.0938 Q16.0625 -19.3906 12.1094 -17.9219 L12.1094 -9.1875 Q16.0625 -11.3281 19.9219 -12.3516 Q23.7812 -13.375 27.7812 -13.375 Q36.625 -13.375 41.0156 -8.7656 Q45.4062 -4.1562 45.4062 5.1719 L45.4062 9.625 Q42.625 4.7812 38.2812 2.3906 Q33.9375 0 27.875 0 Q17.8281 0 11.6719 7.6641 Q5.5156 15.3281 5.5156 27.9844 Q5.5156 40.6719 11.6719 48.3359 Q17.8281 56 27.875 56 Q33.9375 56 38.2812 53.6094 Q42.625 51.2188 45.4062 46.3906 L45.4062 54.6875 L54.3906 54.6875 L54.3906 6.7812 Z"
        /><glyph unicode="i" horiz-adv-x="27.783203" d="M9.4219 54.6875 L18.4062 54.6875 L18.4062 0 L9.4219 0 L9.4219 54.6875 ZM9.4219 75.9844 L18.4062 75.9844 L18.4062 64.5938 L9.4219 64.5938 L9.4219 75.9844 Z"
        /><glyph unicode="R" horiz-adv-x="69.48242" d="M44.3906 34.1875 Q47.5625 33.1094 50.5625 29.5938 Q53.5625 26.0781 56.5938 19.9219 L66.6094 0 L56 0 L46.6875 18.7031 Q43.0625 26.0312 39.6719 28.4219 Q36.2812 30.8125 30.4219 30.8125 L19.6719 30.8125 L19.6719 0 L9.8125 0 L9.8125 72.9062 L32.0781 72.9062 Q44.5781 72.9062 50.7344 67.6797 Q56.8906 62.4531 56.8906 51.9062 Q56.8906 45.0156 53.6875 40.4766 Q50.4844 35.9375 44.3906 34.1875 ZM19.6719 64.7969 L19.6719 38.9219 L32.0781 38.9219 Q39.2031 38.9219 42.8438 42.2188 Q46.4844 45.5156 46.4844 51.9062 Q46.4844 58.2969 42.8438 61.5469 Q39.2031 64.7969 32.0781 64.7969 L19.6719 64.7969 Z"
        /><glyph unicode="f" horiz-adv-x="35.20508" d="M37.1094 75.9844 L37.1094 68.5 L28.5156 68.5 Q23.6875 68.5 21.8047 66.5469 Q19.9219 64.5938 19.9219 59.5156 L19.9219 54.6875 L34.7188 54.6875 L34.7188 47.7031 L19.9219 47.7031 L19.9219 0 L10.8906 0 L10.8906 47.7031 L2.2969 47.7031 L2.2969 54.6875 L10.8906 54.6875 L10.8906 58.5 Q10.8906 67.625 15.1406 71.8047 Q19.3906 75.9844 28.6094 75.9844 L37.1094 75.9844 Z"
        /><glyph unicode="e" horiz-adv-x="61.523438" d="M56.2031 29.5938 L56.2031 25.2031 L14.8906 25.2031 Q15.4844 15.9219 20.4844 11.0625 Q25.4844 6.2031 34.4219 6.2031 Q39.5938 6.2031 44.4531 7.4688 Q49.3125 8.7344 54.1094 11.2812 L54.1094 2.7812 Q49.2656 0.7344 44.1875 -0.3438 Q39.1094 -1.4219 33.8906 -1.4219 Q20.7969 -1.4219 13.1562 6.1953 Q5.5156 13.8125 5.5156 26.8125 Q5.5156 40.2344 12.7656 48.1172 Q20.0156 56 32.3281 56 Q43.3594 56 49.7812 48.8984 Q56.2031 41.7969 56.2031 29.5938 ZM47.2188 32.2344 Q47.125 39.5938 43.0938 43.9922 Q39.0625 48.3906 32.4219 48.3906 Q24.9062 48.3906 20.3906 44.1406 Q15.875 39.8906 15.1875 32.1719 L47.2188 32.2344 Z"
        /><glyph unicode="L" horiz-adv-x="55.71289" d="M9.8125 72.9062 L19.6719 72.9062 L19.6719 8.2969 L55.1719 8.2969 L55.1719 0 L9.8125 0 L9.8125 72.9062 Z"
        /><glyph unicode="s" horiz-adv-x="52.09961" d="M44.2812 53.0781 L44.2812 44.5781 Q40.4844 46.5312 36.3828 47.5078 Q32.2812 48.4844 27.875 48.4844 Q21.1875 48.4844 17.8438 46.4375 Q14.5 44.3906 14.5 40.2812 Q14.5 37.1562 16.8906 35.375 Q19.2812 33.5938 26.5156 31.9844 L29.5938 31.2969 Q39.1562 29.25 43.1875 25.5156 Q47.2188 21.7812 47.2188 15.0938 Q47.2188 7.4688 41.1875 3.0234 Q35.1562 -1.4219 24.6094 -1.4219 Q20.2188 -1.4219 15.4531 -0.5625 Q10.6875 0.2969 5.4219 2 L5.4219 11.2812 Q10.4062 8.6875 15.2344 7.3984 Q20.0625 6.1094 24.8125 6.1094 Q31.1562 6.1094 34.5703 8.2812 Q37.9844 10.4531 37.9844 14.4062 Q37.9844 18.0625 35.5234 20.0156 Q33.0625 21.9688 24.7031 23.7812 L21.5781 24.5156 Q13.2344 26.2656 9.5234 29.9062 Q5.8125 33.5469 5.8125 39.8906 Q5.8125 47.6094 11.2812 51.8047 Q16.75 56 26.8125 56 Q31.7812 56 36.1797 55.2734 Q40.5781 54.5469 44.2812 53.0781 Z"
        /><glyph unicode="F" horiz-adv-x="57.51953" d="M9.8125 72.9062 L51.7031 72.9062 L51.7031 64.5938 L19.6719 64.5938 L19.6719 43.1094 L48.5781 43.1094 L48.5781 34.8125 L19.6719 34.8125 L19.6719 0 L9.8125 0 L9.8125 72.9062 Z"
        /><glyph unicode="%" horiz-adv-x="95.01953" d="M72.7031 32.0781 Q68.4531 32.0781 66.0391 28.4688 Q63.625 24.8594 63.625 18.4062 Q63.625 12.0625 66.0391 8.4219 Q68.4531 4.7812 72.7031 4.7812 Q76.8594 4.7812 79.2734 8.4219 Q81.6875 12.0625 81.6875 18.4062 Q81.6875 24.8125 79.2734 28.4453 Q76.8594 32.0781 72.7031 32.0781 ZM72.7031 38.2812 Q80.4219 38.2812 84.9609 32.9141 Q89.5 27.5469 89.5 18.4062 Q89.5 9.2812 84.9375 3.9297 Q80.375 -1.4219 72.7031 -1.4219 Q64.8906 -1.4219 60.3516 3.9297 Q55.8125 9.2812 55.8125 18.4062 Q55.8125 27.5938 60.375 32.9375 Q64.9375 38.2812 72.7031 38.2812 ZM22.3125 68.0156 Q18.1094 68.0156 15.6953 64.3828 Q13.2812 60.75 13.2812 54.3906 Q13.2812 47.9531 15.6719 44.3359 Q18.0625 40.7188 22.3125 40.7188 Q26.5625 40.7188 28.9766 44.3359 Q31.3906 47.9531 31.3906 54.3906 Q31.3906 60.6875 28.9531 64.3516 Q26.5156 68.0156 22.3125 68.0156 ZM66.4062 74.2188 L74.2188 74.2188 L28.6094 -1.4219 L20.7969 -1.4219 L66.4062 74.2188 ZM22.3125 74.2188 Q30.0312 74.2188 34.6172 68.875 Q39.2031 63.5312 39.2031 54.3906 Q39.2031 45.1719 34.6406 39.8438 Q30.0781 34.5156 22.3125 34.5156 Q14.5469 34.5156 10.0312 39.8672 Q5.5156 45.2188 5.5156 54.3906 Q5.5156 63.4844 10.0547 68.8516 Q14.5938 74.2188 22.3125 74.2188 Z"
        /><glyph unicode="." horiz-adv-x="31.78711" d="M10.6875 12.4062 L21 12.4062 L21 0 L10.6875 0 L10.6875 12.4062 Z"
        /><glyph unicode="1" horiz-adv-x="63.623047" d="M12.4062 8.2969 L28.5156 8.2969 L28.5156 63.9219 L10.9844 60.4062 L10.9844 69.3906 L28.4219 72.9062 L38.2812 72.9062 L38.2812 8.2969 L54.3906 8.2969 L54.3906 0 L12.4062 0 L12.4062 8.2969 Z"
        /><glyph unicode="2" horiz-adv-x="63.623047" d="M19.1875 8.2969 L53.6094 8.2969 L53.6094 0 L7.3281 0 L7.3281 8.2969 Q12.9375 14.1094 22.6328 23.8984 Q32.3281 33.6875 34.8125 36.5312 Q39.5469 41.8438 41.4297 45.5312 Q43.3125 49.2188 43.3125 52.7812 Q43.3125 58.5938 39.2344 62.2578 Q35.1562 65.9219 28.6094 65.9219 Q23.9688 65.9219 18.8203 64.3125 Q13.6719 62.7031 7.8125 59.4219 L7.8125 69.3906 Q13.7656 71.7812 18.9453 73 Q24.125 74.2188 28.4219 74.2188 Q39.75 74.2188 46.4844 68.5547 Q53.2188 62.8906 53.2188 53.4219 Q53.2188 48.9219 51.5391 44.8984 Q49.8594 40.875 45.4062 35.4062 Q44.1875 33.9844 37.6484 27.2188 Q31.1094 20.4531 19.1875 8.2969 Z"
        /><glyph unicode="9" horiz-adv-x="63.623047" d="M10.9844 1.5156 L10.9844 10.5 Q14.7031 8.7344 18.5078 7.8125 Q22.3125 6.8906 25.9844 6.8906 Q35.75 6.8906 40.8984 13.4531 Q46.0469 20.0156 46.7812 33.4062 Q43.9531 29.2031 39.6016 26.9531 Q35.25 24.7031 29.9844 24.7031 Q19.0469 24.7031 12.6719 31.3203 Q6.2969 37.9375 6.2969 49.4219 Q6.2969 60.6406 12.9375 67.4297 Q19.5781 74.2188 30.6094 74.2188 Q43.2656 74.2188 49.9297 64.5234 Q56.5938 54.8281 56.5938 36.375 Q56.5938 19.1406 48.4141 8.8594 Q40.2344 -1.4219 26.4219 -1.4219 Q22.7031 -1.4219 18.8984 -0.6875 Q15.0938 0.0469 10.9844 1.5156 ZM30.6094 32.4219 Q37.25 32.4219 41.1328 36.9609 Q45.0156 41.5 45.0156 49.4219 Q45.0156 57.2812 41.1328 61.8438 Q37.25 66.4062 30.6094 66.4062 Q23.9688 66.4062 20.0938 61.8438 Q16.2188 57.2812 16.2188 49.4219 Q16.2188 41.5 20.0938 36.9609 Q23.9688 32.4219 30.6094 32.4219 Z"
        /><glyph unicode="5" horiz-adv-x="63.623047" d="M10.7969 72.9062 L49.5156 72.9062 L49.5156 64.5938 L19.8281 64.5938 L19.8281 46.7344 Q21.9688 47.4688 24.1172 47.8281 Q26.2656 48.1875 28.4219 48.1875 Q40.625 48.1875 47.7578 41.5 Q54.8906 34.8125 54.8906 23.3906 Q54.8906 11.625 47.5625 5.1016 Q40.2344 -1.4219 26.9062 -1.4219 Q22.3125 -1.4219 17.5547 -0.6406 Q12.7969 0.1406 7.7188 1.7031 L7.7188 11.625 Q12.1094 9.2344 16.7969 8.0625 Q21.4844 6.8906 26.7031 6.8906 Q35.1562 6.8906 40.0859 11.3281 Q45.0156 15.7656 45.0156 23.3906 Q45.0156 31 40.0859 35.4453 Q35.1562 39.8906 26.7031 39.8906 Q22.75 39.8906 18.8203 39.0156 Q14.8906 38.1406 10.7969 36.2812 L10.7969 72.9062 Z"
        /><glyph unicode="0" horiz-adv-x="63.623047" d="M31.7812 66.4062 Q24.1719 66.4062 20.3359 58.9141 Q16.5 51.4219 16.5 36.375 Q16.5 21.3906 20.3359 13.8906 Q24.1719 6.3906 31.7812 6.3906 Q39.4531 6.3906 43.2891 13.8906 Q47.125 21.3906 47.125 36.375 Q47.125 51.4219 43.2891 58.9141 Q39.4531 66.4062 31.7812 66.4062 ZM31.7812 74.2188 Q44.0469 74.2188 50.5156 64.5234 Q56.9844 54.8281 56.9844 36.375 Q56.9844 17.9688 50.5156 8.2734 Q44.0469 -1.4219 31.7812 -1.4219 Q19.5312 -1.4219 13.0625 8.2734 Q6.5938 17.9688 6.5938 36.375 Q6.5938 54.8281 13.0625 64.5234 Q19.5312 74.2188 31.7812 74.2188 Z"
        /><glyph unicode="4" horiz-adv-x="63.623047" d="M37.7969 64.3125 L12.8906 25.3906 L37.7969 25.3906 L37.7969 64.3125 ZM35.2031 72.9062 L47.6094 72.9062 L47.6094 25.3906 L58.0156 25.3906 L58.0156 17.1875 L47.6094 17.1875 L47.6094 0 L37.7969 0 L37.7969 17.1875 L4.8906 17.1875 L4.8906 26.7031 L35.2031 72.9062 Z"
        /><glyph unicode="8" horiz-adv-x="63.623047" d="M31.7812 34.625 Q24.75 34.625 20.7266 30.8594 Q16.7031 27.0938 16.7031 20.5156 Q16.7031 13.9219 20.7266 10.1562 Q24.75 6.3906 31.7812 6.3906 Q38.8125 6.3906 42.8672 10.1797 Q46.9219 13.9688 46.9219 20.5156 Q46.9219 27.0938 42.8984 30.8594 Q38.875 34.625 31.7812 34.625 ZM21.9219 38.8125 Q15.5781 40.375 12.0391 44.7266 Q8.5 49.0781 8.5 55.3281 Q8.5 64.0625 14.7266 69.1406 Q20.9531 74.2188 31.7812 74.2188 Q42.6719 74.2188 48.875 69.1406 Q55.0781 64.0625 55.0781 55.3281 Q55.0781 49.0781 51.5391 44.7266 Q48 40.375 41.7031 38.8125 Q48.8281 37.1562 52.8047 32.3203 Q56.7812 27.4844 56.7812 20.5156 Q56.7812 9.9062 50.3125 4.2422 Q43.8438 -1.4219 31.7812 -1.4219 Q19.7344 -1.4219 13.2578 4.2422 Q6.7812 9.9062 6.7812 20.5156 Q6.7812 27.4844 10.7891 32.3203 Q14.7969 37.1562 21.9219 38.8125 ZM18.3125 54.3906 Q18.3125 48.7344 21.8516 45.5625 Q25.3906 42.3906 31.7812 42.3906 Q38.1406 42.3906 41.7266 45.5625 Q45.3125 48.7344 45.3125 54.3906 Q45.3125 60.0625 41.7266 63.2344 Q38.1406 66.4062 31.7812 66.4062 Q25.3906 66.4062 21.8516 63.2344 Q18.3125 60.0625 18.3125 54.3906 Z"
        /><glyph unicode="3" horiz-adv-x="63.623047" d="M40.5781 39.3125 Q47.6562 37.7969 51.6328 33.0078 Q55.6094 28.2188 55.6094 21.1875 Q55.6094 10.4062 48.1875 4.4922 Q40.7656 -1.4219 27.0938 -1.4219 Q22.5156 -1.4219 17.6562 -0.5156 Q12.7969 0.3906 7.625 2.2031 L7.625 11.7188 Q11.7188 9.3281 16.6016 8.1094 Q21.4844 6.8906 26.8125 6.8906 Q36.0781 6.8906 40.9375 10.5469 Q45.7969 14.2031 45.7969 21.1875 Q45.7969 27.6406 41.2812 31.2734 Q36.7656 34.9062 28.7188 34.9062 L20.2188 34.9062 L20.2188 43.0156 L29.1094 43.0156 Q36.375 43.0156 40.2344 45.9219 Q44.0938 48.8281 44.0938 54.2969 Q44.0938 59.9062 40.1172 62.9141 Q36.1406 65.9219 28.7188 65.9219 Q24.6562 65.9219 20.0156 65.0391 Q15.375 64.1562 9.8125 62.3125 L9.8125 71.0938 Q15.4375 72.6562 20.3438 73.4375 Q25.25 74.2188 29.5938 74.2188 Q40.8281 74.2188 47.3672 69.1172 Q53.9062 64.0156 53.9062 55.3281 Q53.9062 49.2656 50.4375 45.0938 Q46.9688 40.9219 40.5781 39.3125 Z"
        /><glyph unicode="6" horiz-adv-x="63.623047" d="M33.0156 40.375 Q26.375 40.375 22.4922 35.8359 Q18.6094 31.2969 18.6094 23.3906 Q18.6094 15.5312 22.4922 10.9609 Q26.375 6.3906 33.0156 6.3906 Q39.6562 6.3906 43.5312 10.9609 Q47.4062 15.5312 47.4062 23.3906 Q47.4062 31.2969 43.5312 35.8359 Q39.6562 40.375 33.0156 40.375 ZM52.5938 71.2969 L52.5938 62.3125 Q48.875 64.0625 45.0938 64.9922 Q41.3125 65.9219 37.5938 65.9219 Q27.8281 65.9219 22.6797 59.3281 Q17.5312 52.7344 16.7969 39.4062 Q19.6719 43.6562 24.0234 45.9219 Q28.375 48.1875 33.5938 48.1875 Q44.5781 48.1875 50.9531 41.5234 Q57.3281 34.8594 57.3281 23.3906 Q57.3281 12.1562 50.6875 5.3672 Q44.0469 -1.4219 33.0156 -1.4219 Q20.3594 -1.4219 13.6719 8.2734 Q6.9844 17.9688 6.9844 36.375 Q6.9844 53.6562 15.1875 63.9375 Q23.3906 74.2188 37.2031 74.2188 Q40.9219 74.2188 44.7031 73.4844 Q48.4844 72.75 52.5938 71.2969 Z"
        /><glyph unicode="7" horiz-adv-x="63.623047" d="M8.2031 72.9062 L55.0781 72.9062 L55.0781 68.7031 L28.6094 0 L18.3125 0 L43.2188 64.5938 L8.2031 64.5938 L8.2031 72.9062 Z"
      /></font
    ></defs
    ><g style="fill:white; stroke:white;"
    ><rect x="0" y="0" width="500" style="clip-path:url(#clipPath1); stroke:none;" height="500"
    /></g
    ><g style="fill:white; text-rendering:optimizeSpeed; color-rendering:optimizeSpeed; image-rendering:optimizeSpeed; shape-rendering:crispEdges; color-interpolation:sRGB; stroke:white;"
    ><rect x="0" y="0" width="500" style="clip-path:url(#clipPath1); stroke:none;" height="500"
      /><path style="stroke:none;" d="M453 47 L65 47 L65 435 L453 435 Z"
    /></g
    ><g transform="translate(259,456.7995)" style="font-size:16px; fill:rgb(38,38,38); text-rendering:geometricPrecision; color-rendering:optimizeQuality; image-rendering:optimizeQuality; font-family:'SansSerif'; color-interpolation:linearRGB; stroke:rgb(38,38,38); font-weight:bold;"
    ><text x="-56.0977" xml:space="preserve" y="14.8516" style="stroke:none;"
      >Target Class</text
    ></g
    ><g style="fill:rgb(38,38,38); text-rendering:geometricPrecision; color-interpolation:linearRGB; color-rendering:optimizeQuality; image-rendering:optimizeQuality; stroke:rgb(38,38,38);"
    ><line y2="435" style="fill:none;" x1="65" x2="453" y1="435"
      /><line y2="47" style="fill:none;" x1="65" x2="453" y1="47"
      /><line y2="435" style="fill:none;" x1="103.8" x2="103.8" y1="435"
      /><line y2="47" style="fill:none;" x1="103.8" x2="103.8" y1="47"
      /><line y2="435" style="fill:none;" x1="181.4" x2="181.4" y1="435"
      /><line y2="47" style="fill:none;" x1="181.4" x2="181.4" y1="47"
      /><line y2="435" style="fill:none;" x1="259" x2="259" y1="435"
      /><line y2="47" style="fill:none;" x1="259" x2="259" y1="47"
      /><line y2="435" style="fill:none;" x1="336.6" x2="336.6" y1="435"
      /><line y2="47" style="fill:none;" x1="336.6" x2="336.6" y1="47"
      /><line y2="435" style="fill:none;" x1="414.2" x2="414.2" y1="435"
      /><line y2="47" style="fill:none;" x1="414.2" x2="414.2" y1="47"
    /></g
    ><g transform="translate(103.8,440.3333)" style="font-size:13px; fill:rgb(38,38,38); text-rendering:geometricPrecision; color-rendering:optimizeQuality; image-rendering:optimizeQuality; font-family:'SansSerif'; color-interpolation:linearRGB; stroke:rgb(38,38,38);"
    ><text x="-17.1165" xml:space="preserve" y="12.0669" style="stroke:none;"
      >Right</text
    ></g
    ><g transform="translate(181.4,440.3333)" style="font-size:13px; fill:rgb(38,38,38); text-rendering:geometricPrecision; color-rendering:optimizeQuality; image-rendering:optimizeQuality; font-family:'SansSerif'; color-interpolation:linearRGB; stroke:rgb(38,38,38);"
    ><text x="-12.4573" xml:space="preserve" y="12.0669" style="stroke:none;"
      >Left</text
    ></g
    ><g transform="translate(259,440.3333)" style="font-size:13px; fill:rgb(38,38,38); text-rendering:geometricPrecision; color-rendering:optimizeQuality; image-rendering:optimizeQuality; font-family:'SansSerif'; color-interpolation:linearRGB; stroke:rgb(38,38,38);"
    ><text x="-14.4504" xml:space="preserve" y="12.0669" style="stroke:none;"
      >Rest</text
    ></g
    ><g transform="translate(336.6,440.3333)" style="font-size:13px; fill:rgb(38,38,38); text-rendering:geometricPrecision; color-rendering:optimizeQuality; image-rendering:optimizeQuality; font-family:'SansSerif'; color-interpolation:linearRGB; stroke:rgb(38,38,38);"
    ><text x="-14.2854" xml:space="preserve" y="12.0669" style="stroke:none;"
      >Feet</text
    ></g
    ><g transform="translate(21.4338,241) rotate(-90)" style="font-size:16px; fill:rgb(38,38,38); text-rendering:geometricPrecision; color-rendering:optimizeQuality; image-rendering:optimizeQuality; font-family:'SansSerif'; color-interpolation:linearRGB; stroke:rgb(38,38,38); font-weight:bold;"
    ><text x="-57.8867" xml:space="preserve" y="-2.7734" style="stroke:none;"
      >Output Class</text
    ></g
    ><g style="fill:rgb(38,38,38); text-rendering:geometricPrecision; color-interpolation:linearRGB; color-rendering:optimizeQuality; image-rendering:optimizeQuality; stroke:rgb(38,38,38);"
    ><line y2="435" style="fill:none;" x1="65" x2="65" y1="47"
      /><line y2="435" style="fill:none;" x1="453" x2="453" y1="47"
      /><line y2="85.8" style="fill:none;" x1="65" x2="65" y1="85.8"
      /><line y2="85.8" style="fill:none;" x1="453" x2="453" y1="85.8"
      /><line y2="163.4" style="fill:none;" x1="65" x2="65" y1="163.4"
      /><line y2="163.4" style="fill:none;" x1="453" x2="453" y1="163.4"
      /><line y2="241" style="fill:none;" x1="65" x2="65" y1="241"
      /><line y2="241" style="fill:none;" x1="453" x2="453" y1="241"
      /><line y2="318.6" style="fill:none;" x1="65" x2="65" y1="318.6"
      /><line y2="318.6" style="fill:none;" x1="453" x2="453" y1="318.6"
      /><line y2="396.2" style="fill:none;" x1="65" x2="65" y1="396.2"
      /><line y2="396.2" style="fill:none;" x1="453" x2="453" y1="396.2"
    /></g
    ><g transform="translate(59.6667,85.8)" style="font-size:13px; fill:rgb(38,38,38); text-rendering:geometricPrecision; color-rendering:optimizeQuality; image-rendering:optimizeQuality; font-family:'SansSerif'; color-interpolation:linearRGB; stroke:rgb(38,38,38);"
    ><text x="-34.2329" xml:space="preserve" y="4.5005" style="stroke:none;"
      >Right</text
    ></g
    ><g transform="translate(59.6667,163.4)" style="font-size:13px; fill:rgb(38,38,38); text-rendering:geometricPrecision; color-rendering:optimizeQuality; image-rendering:optimizeQuality; font-family:'SansSerif'; color-interpolation:linearRGB; stroke:rgb(38,38,38);"
    ><text x="-24.9146" xml:space="preserve" y="4.5005" style="stroke:none;"
      >Left</text
    ></g
    ><g transform="translate(59.6667,241)" style="font-size:13px; fill:rgb(38,38,38); text-rendering:geometricPrecision; color-rendering:optimizeQuality; image-rendering:optimizeQuality; font-family:'SansSerif'; color-interpolation:linearRGB; stroke:rgb(38,38,38);"
    ><text x="-28.9009" xml:space="preserve" y="4.5005" style="stroke:none;"
      >Rest</text
    ></g
    ><g transform="translate(59.6667,318.6)" style="font-size:13px; fill:rgb(38,38,38); text-rendering:geometricPrecision; color-rendering:optimizeQuality; image-rendering:optimizeQuality; font-family:'SansSerif'; color-interpolation:linearRGB; stroke:rgb(38,38,38);"
    ><text x="-28.5708" xml:space="preserve" y="4.5005" style="stroke:none;"
      >Feet</text
    ></g
    ><g style="fill:rgb(120,230,180); text-rendering:optimizeSpeed; color-rendering:optimizeSpeed; image-rendering:optimizeSpeed; shape-rendering:crispEdges; color-interpolation:sRGB; stroke:rgb(120,230,180);"
    ><path style="stroke:none;" d="M65 47 L142.6 47 L142.6 124.6 Z"
      /><path style="stroke:none;" d="M65 47 L142.6 124.6 L65 124.6 Z"
    /></g
    ><g style="text-rendering:geometricPrecision; color-interpolation:linearRGB; color-rendering:optimizeQuality; image-rendering:optimizeQuality;"
    ><path d="M65 47 L142.6 47 L142.6 124.6 L65 124.6 L65 47" style="fill:none; fill-rule:evenodd;"
    /></g
    ><g transform="translate(103.8,85.8)" style="font-size:13px; text-rendering:geometricPrecision; color-rendering:optimizeQuality; image-rendering:optimizeQuality; font-family:'SansSerif'; color-interpolation:linearRGB; font-weight:bold;"
    ><text x="-18.0908" xml:space="preserve" y="-3.0659" style="stroke:none;"
      >2752</text
    ></g
    ><g transform="translate(103.8,85.8)" style="font-size:13px; text-rendering:geometricPrecision; color-rendering:optimizeQuality; image-rendering:optimizeQuality; font-family:'SansSerif'; color-interpolation:linearRGB;"
    ><text x="-20.6489" xml:space="preserve" y="12.0669" style="stroke:none;"
      >21.2%</text
    ></g
    ><g style="fill:rgb(230,140,140); text-rendering:optimizeSpeed; color-rendering:optimizeSpeed; image-rendering:optimizeSpeed; shape-rendering:crispEdges; color-interpolation:sRGB; stroke:rgb(230,140,140);"
    ><path style="stroke:none;" d="M65 124.6 L142.6 124.6 L142.6 202.2 Z"
      /><path style="stroke:none;" d="M65 124.6 L142.6 202.2 L65 202.2 Z"
    /></g
    ><g style="text-rendering:geometricPrecision; color-interpolation:linearRGB; color-rendering:optimizeQuality; image-rendering:optimizeQuality;"
    ><path d="M65 124.6 L142.6 124.6 L142.6 202.2 L65 202.2 L65 124.6" style="fill:none; fill-rule:evenodd;"
    /></g
    ><g transform="translate(103.8,163.4)" style="font-size:13px; text-rendering:geometricPrecision; color-rendering:optimizeQuality; image-rendering:optimizeQuality; font-family:'SansSerif'; color-interpolation:linearRGB; font-weight:bold;"
    ><text x="-13.5681" xml:space="preserve" y="-3.0659" style="stroke:none;"
      >375</text
    ></g
    ><g transform="translate(103.8,163.4)" style="font-size:13px; text-rendering:geometricPrecision; color-rendering:optimizeQuality; image-rendering:optimizeQuality; font-family:'SansSerif'; color-interpolation:linearRGB;"
    ><text x="-16.5134" xml:space="preserve" y="12.0669" style="stroke:none;"
      >2.9%</text
    ></g
    ><g style="fill:rgb(230,140,140); text-rendering:optimizeSpeed; color-rendering:optimizeSpeed; image-rendering:optimizeSpeed; shape-rendering:crispEdges; color-interpolation:sRGB; stroke:rgb(230,140,140);"
    ><path style="stroke:none;" d="M65 202.2 L142.6 202.2 L142.6 279.8 Z"
      /><path style="stroke:none;" d="M65 202.2 L142.6 279.8 L65 279.8 Z"
    /></g
    ><g style="text-rendering:geometricPrecision; color-interpolation:linearRGB; color-rendering:optimizeQuality; image-rendering:optimizeQuality;"
    ><path d="M65 202.2 L142.6 202.2 L142.6 279.8 L65 279.8 L65 202.2" style="fill:none; fill-rule:evenodd;"
    /></g
    ><g transform="translate(103.8,241)" style="font-size:13px; text-rendering:geometricPrecision; color-rendering:optimizeQuality; image-rendering:optimizeQuality; font-family:'SansSerif'; color-interpolation:linearRGB; font-weight:bold;"
    ><text x="-9.0454" xml:space="preserve" y="-3.0659" style="stroke:none;"
      >71</text
    ></g
    ><g transform="translate(103.8,241)" style="font-size:13px; text-rendering:geometricPrecision; color-rendering:optimizeQuality; image-rendering:optimizeQuality; font-family:'SansSerif'; color-interpolation:linearRGB;"
    ><text x="-16.5134" xml:space="preserve" y="12.0669" style="stroke:none;"
      >0.5%</text
    ></g
    ><g style="fill:rgb(230,140,140); text-rendering:optimizeSpeed; color-rendering:optimizeSpeed; image-rendering:optimizeSpeed; shape-rendering:crispEdges; color-interpolation:sRGB; stroke:rgb(230,140,140);"
    ><path style="stroke:none;" d="M65 279.8 L142.6 279.8 L142.6 357.4 Z"
      /><path style="stroke:none;" d="M65 279.8 L142.6 357.4 L65 357.4 Z"
    /></g
    ><g style="text-rendering:geometricPrecision; color-interpolation:linearRGB; color-rendering:optimizeQuality; image-rendering:optimizeQuality;"
    ><path d="M65 279.8 L142.6 279.8 L142.6 357.4 L65 357.4 L65 279.8" style="fill:none; fill-rule:evenodd;"
    /></g
    ><g transform="translate(103.8,318.6)" style="font-size:13px; text-rendering:geometricPrecision; color-rendering:optimizeQuality; image-rendering:optimizeQuality; font-family:'SansSerif'; color-interpolation:linearRGB; font-weight:bold;"
    ><text x="-9.0454" xml:space="preserve" y="-3.0659" style="stroke:none;"
      >46</text
    ></g
    ><g transform="translate(103.8,318.6)" style="font-size:13px; text-rendering:geometricPrecision; color-rendering:optimizeQuality; image-rendering:optimizeQuality; font-family:'SansSerif'; color-interpolation:linearRGB;"
    ><text x="-16.5134" xml:space="preserve" y="12.0669" style="stroke:none;"
      >0.4%</text
    ></g
    ><g style="fill:gray; text-rendering:optimizeSpeed; color-rendering:optimizeSpeed; image-rendering:optimizeSpeed; shape-rendering:crispEdges; color-interpolation:sRGB; stroke:gray;"
    ><path style="stroke:none;" d="M65 357.4 L142.6 357.4 L142.6 435 Z"
      /><path style="stroke:none;" d="M65 357.4 L142.6 435 L65 435 Z"
    /></g
    ><g style="text-rendering:geometricPrecision; color-interpolation:linearRGB; color-rendering:optimizeQuality; image-rendering:optimizeQuality;"
    ><path d="M65 357.4 L142.6 357.4 L142.6 435 L65 435 L65 357.4" style="fill:none; fill-rule:evenodd;"
    /></g
    ><g transform="translate(103.8,396.2)" style="font-size:13px; fill:rgb(0,102,0); text-rendering:geometricPrecision; color-rendering:optimizeQuality; image-rendering:optimizeQuality; font-family:'SansSerif'; color-interpolation:linearRGB; stroke:rgb(0,102,0);"
    ><text x="-20.6489" xml:space="preserve" y="-3.0659" style="stroke:none;"
      >84.8%</text
    ></g
    ><g transform="translate(103.8,396.2)" style="font-size:13px; fill:rgb(102,0,0); text-rendering:geometricPrecision; color-rendering:optimizeQuality; image-rendering:optimizeQuality; font-family:'SansSerif'; color-interpolation:linearRGB; stroke:rgb(102,0,0);"
    ><text x="-20.6489" xml:space="preserve" y="12.0669" style="stroke:none;"
      >15.2%</text
    ></g
    ><g style="fill:rgb(230,140,140); text-rendering:optimizeSpeed; color-rendering:optimizeSpeed; image-rendering:optimizeSpeed; shape-rendering:crispEdges; color-interpolation:sRGB; stroke:rgb(230,140,140);"
    ><path style="stroke:none;" d="M142.6 47 L220.2 47 L220.2 124.6 Z"
      /><path style="stroke:none;" d="M142.6 47 L220.2 124.6 L142.6 124.6 Z"
    /></g
    ><g style="text-rendering:geometricPrecision; color-interpolation:linearRGB; color-rendering:optimizeQuality; image-rendering:optimizeQuality;"
    ><path d="M142.6 47 L220.2 47 L220.2 124.6 L142.6 124.6 L142.6 47" style="fill:none; fill-rule:evenodd;"
    /></g
    ><g transform="translate(181.4,85.8)" style="font-size:13px; text-rendering:geometricPrecision; color-rendering:optimizeQuality; image-rendering:optimizeQuality; font-family:'SansSerif'; color-interpolation:linearRGB; font-weight:bold;"
    ><text x="-13.5681" xml:space="preserve" y="-3.0659" style="stroke:none;"
      >378</text
    ></g
    ><g transform="translate(181.4,85.8)" style="font-size:13px; text-rendering:geometricPrecision; color-rendering:optimizeQuality; image-rendering:optimizeQuality; font-family:'SansSerif'; color-interpolation:linearRGB;"
    ><text x="-16.5134" xml:space="preserve" y="12.0669" style="stroke:none;"
      >2.9%</text
    ></g
    ><g style="fill:rgb(120,230,180); text-rendering:optimizeSpeed; color-rendering:optimizeSpeed; image-rendering:optimizeSpeed; shape-rendering:crispEdges; color-interpolation:sRGB; stroke:rgb(120,230,180);"
    ><path style="stroke:none;" d="M142.6 124.6 L220.2 124.6 L220.2 202.2 Z"
      /><path style="stroke:none;" d="M142.6 124.6 L220.2 202.2 L142.6 202.2 Z"
    /></g
    ><g style="text-rendering:geometricPrecision; color-interpolation:linearRGB; color-rendering:optimizeQuality; image-rendering:optimizeQuality;"
    ><path d="M142.6 124.6 L220.2 124.6 L220.2 202.2 L142.6 202.2 L142.6 124.6" style="fill:none; fill-rule:evenodd;"
    /></g
    ><g transform="translate(181.4,163.4)" style="font-size:13px; text-rendering:geometricPrecision; color-rendering:optimizeQuality; image-rendering:optimizeQuality; font-family:'SansSerif'; color-interpolation:linearRGB; font-weight:bold;"
    ><text x="-18.0908" xml:space="preserve" y="-3.0659" style="stroke:none;"
      >2746</text
    ></g
    ><g transform="translate(181.4,163.4)" style="font-size:13px; text-rendering:geometricPrecision; color-rendering:optimizeQuality; image-rendering:optimizeQuality; font-family:'SansSerif'; color-interpolation:linearRGB;"
    ><text x="-20.6489" xml:space="preserve" y="12.0669" style="stroke:none;"
      >21.1%</text
    ></g
    ><g style="fill:rgb(230,140,140); text-rendering:optimizeSpeed; color-rendering:optimizeSpeed; image-rendering:optimizeSpeed; shape-rendering:crispEdges; color-interpolation:sRGB; stroke:rgb(230,140,140);"
    ><path style="stroke:none;" d="M142.6 202.2 L220.2 202.2 L220.2 279.8 Z"
      /><path style="stroke:none;" d="M142.6 202.2 L220.2 279.8 L142.6 279.8 Z"
    /></g
    ><g style="text-rendering:geometricPrecision; color-interpolation:linearRGB; color-rendering:optimizeQuality; image-rendering:optimizeQuality;"
    ><path d="M142.6 202.2 L220.2 202.2 L220.2 279.8 L142.6 279.8 L142.6 202.2" style="fill:none; fill-rule:evenodd;"
    /></g
    ><g transform="translate(181.4,241)" style="font-size:13px; text-rendering:geometricPrecision; color-rendering:optimizeQuality; image-rendering:optimizeQuality; font-family:'SansSerif'; color-interpolation:linearRGB; font-weight:bold;"
    ><text x="-9.0454" xml:space="preserve" y="-3.0659" style="stroke:none;"
      >70</text
    ></g
    ><g transform="translate(181.4,241)" style="font-size:13px; text-rendering:geometricPrecision; color-rendering:optimizeQuality; image-rendering:optimizeQuality; font-family:'SansSerif'; color-interpolation:linearRGB;"
    ><text x="-16.5134" xml:space="preserve" y="12.0669" style="stroke:none;"
      >0.5%</text
    ></g
    ><g style="fill:rgb(230,140,140); text-rendering:optimizeSpeed; color-rendering:optimizeSpeed; image-rendering:optimizeSpeed; shape-rendering:crispEdges; color-interpolation:sRGB; stroke:rgb(230,140,140);"
    ><path style="stroke:none;" d="M142.6 279.8 L220.2 279.8 L220.2 357.4 Z"
      /><path style="stroke:none;" d="M142.6 279.8 L220.2 357.4 L142.6 357.4 Z"
    /></g
    ><g style="text-rendering:geometricPrecision; color-interpolation:linearRGB; color-rendering:optimizeQuality; image-rendering:optimizeQuality;"
    ><path d="M142.6 279.8 L220.2 279.8 L220.2 357.4 L142.6 357.4 L142.6 279.8" style="fill:none; fill-rule:evenodd;"
    /></g
    ><g transform="translate(181.4,318.6)" style="font-size:13px; text-rendering:geometricPrecision; color-rendering:optimizeQuality; image-rendering:optimizeQuality; font-family:'SansSerif'; color-interpolation:linearRGB; font-weight:bold;"
    ><text x="-9.0454" xml:space="preserve" y="-3.0659" style="stroke:none;"
      >36</text
    ></g
    ><g transform="translate(181.4,318.6)" style="font-size:13px; text-rendering:geometricPrecision; color-rendering:optimizeQuality; image-rendering:optimizeQuality; font-family:'SansSerif'; color-interpolation:linearRGB;"
    ><text x="-16.5134" xml:space="preserve" y="12.0669" style="stroke:none;"
      >0.3%</text
    ></g
    ><g style="fill:gray; text-rendering:optimizeSpeed; color-rendering:optimizeSpeed; image-rendering:optimizeSpeed; shape-rendering:crispEdges; color-interpolation:sRGB; stroke:gray;"
    ><path style="stroke:none;" d="M142.6 357.4 L220.2 357.4 L220.2 435 Z"
      /><path style="stroke:none;" d="M142.6 357.4 L220.2 435 L142.6 435 Z"
    /></g
    ><g style="text-rendering:geometricPrecision; color-interpolation:linearRGB; color-rendering:optimizeQuality; image-rendering:optimizeQuality;"
    ><path d="M142.6 357.4 L220.2 357.4 L220.2 435 L142.6 435 L142.6 357.4" style="fill:none; fill-rule:evenodd;"
    /></g
    ><g transform="translate(181.4,396.2)" style="font-size:13px; fill:rgb(0,102,0); text-rendering:geometricPrecision; color-rendering:optimizeQuality; image-rendering:optimizeQuality; font-family:'SansSerif'; color-interpolation:linearRGB; stroke:rgb(0,102,0);"
    ><text x="-20.6489" xml:space="preserve" y="-3.0659" style="stroke:none;"
      >85.0%</text
    ></g
    ><g transform="translate(181.4,396.2)" style="font-size:13px; fill:rgb(102,0,0); text-rendering:geometricPrecision; color-rendering:optimizeQuality; image-rendering:optimizeQuality; font-family:'SansSerif'; color-interpolation:linearRGB; stroke:rgb(102,0,0);"
    ><text x="-20.6489" xml:space="preserve" y="12.0669" style="stroke:none;"
      >15.0%</text
    ></g
    ><g style="fill:rgb(230,140,140); text-rendering:optimizeSpeed; color-rendering:optimizeSpeed; image-rendering:optimizeSpeed; shape-rendering:crispEdges; color-interpolation:sRGB; stroke:rgb(230,140,140);"
    ><path style="stroke:none;" d="M220.2 47 L297.8 47 L297.8 124.6 Z"
      /><path style="stroke:none;" d="M220.2 47 L297.8 124.6 L220.2 124.6 Z"
    /></g
    ><g style="text-rendering:geometricPrecision; color-interpolation:linearRGB; color-rendering:optimizeQuality; image-rendering:optimizeQuality;"
    ><path d="M220.2 47 L297.8 47 L297.8 124.6 L220.2 124.6 L220.2 47" style="fill:none; fill-rule:evenodd;"
    /></g
    ><g transform="translate(259,85.8)" style="font-size:13px; text-rendering:geometricPrecision; color-rendering:optimizeQuality; image-rendering:optimizeQuality; font-family:'SansSerif'; color-interpolation:linearRGB; font-weight:bold;"
    ><text x="-9.0454" xml:space="preserve" y="-3.0659" style="stroke:none;"
      >64</text
    ></g
    ><g transform="translate(259,85.8)" style="font-size:13px; text-rendering:geometricPrecision; color-rendering:optimizeQuality; image-rendering:optimizeQuality; font-family:'SansSerif'; color-interpolation:linearRGB;"
    ><text x="-16.5134" xml:space="preserve" y="12.0669" style="stroke:none;"
      >0.5%</text
    ></g
    ><g style="fill:rgb(230,140,140); text-rendering:optimizeSpeed; color-rendering:optimizeSpeed; image-rendering:optimizeSpeed; shape-rendering:crispEdges; color-interpolation:sRGB; stroke:rgb(230,140,140);"
    ><path style="stroke:none;" d="M220.2 124.6 L297.8 124.6 L297.8 202.2 Z"
      /><path style="stroke:none;" d="M220.2 124.6 L297.8 202.2 L220.2 202.2 Z"
    /></g
    ><g style="text-rendering:geometricPrecision; color-interpolation:linearRGB; color-rendering:optimizeQuality; image-rendering:optimizeQuality;"
    ><path d="M220.2 124.6 L297.8 124.6 L297.8 202.2 L220.2 202.2 L220.2 124.6" style="fill:none; fill-rule:evenodd;"
    /></g
    ><g transform="translate(259,163.4)" style="font-size:13px; text-rendering:geometricPrecision; color-rendering:optimizeQuality; image-rendering:optimizeQuality; font-family:'SansSerif'; color-interpolation:linearRGB; font-weight:bold;"
    ><text x="-9.0454" xml:space="preserve" y="-3.0659" style="stroke:none;"
      >41</text
    ></g
    ><g transform="translate(259,163.4)" style="font-size:13px; text-rendering:geometricPrecision; color-rendering:optimizeQuality; image-rendering:optimizeQuality; font-family:'SansSerif'; color-interpolation:linearRGB;"
    ><text x="-16.5134" xml:space="preserve" y="12.0669" style="stroke:none;"
      >0.3%</text
    ></g
    ><g style="fill:rgb(120,230,180); text-rendering:optimizeSpeed; color-rendering:optimizeSpeed; image-rendering:optimizeSpeed; shape-rendering:crispEdges; color-interpolation:sRGB; stroke:rgb(120,230,180);"
    ><path style="stroke:none;" d="M220.2 202.2 L297.8 202.2 L297.8 279.8 Z"
      /><path style="stroke:none;" d="M220.2 202.2 L297.8 279.8 L220.2 279.8 Z"
    /></g
    ><g style="text-rendering:geometricPrecision; color-interpolation:linearRGB; color-rendering:optimizeQuality; image-rendering:optimizeQuality;"
    ><path d="M220.2 202.2 L297.8 202.2 L297.8 279.8 L220.2 279.8 L220.2 202.2" style="fill:none; fill-rule:evenodd;"
    /></g
    ><g transform="translate(259,241)" style="font-size:13px; text-rendering:geometricPrecision; color-rendering:optimizeQuality; image-rendering:optimizeQuality; font-family:'SansSerif'; color-interpolation:linearRGB; font-weight:bold;"
    ><text x="-18.0908" xml:space="preserve" y="-3.0659" style="stroke:none;"
      >2941</text
    ></g
    ><g transform="translate(259,241)" style="font-size:13px; text-rendering:geometricPrecision; color-rendering:optimizeQuality; image-rendering:optimizeQuality; font-family:'SansSerif'; color-interpolation:linearRGB;"
    ><text x="-20.6489" xml:space="preserve" y="12.0669" style="stroke:none;"
      >22.6%</text
    ></g
    ><g style="fill:rgb(230,140,140); text-rendering:optimizeSpeed; color-rendering:optimizeSpeed; image-rendering:optimizeSpeed; shape-rendering:crispEdges; color-interpolation:sRGB; stroke:rgb(230,140,140);"
    ><path style="stroke:none;" d="M220.2 279.8 L297.8 279.8 L297.8 357.4 Z"
      /><path style="stroke:none;" d="M220.2 279.8 L297.8 357.4 L220.2 357.4 Z"
    /></g
    ><g style="text-rendering:geometricPrecision; color-interpolation:linearRGB; color-rendering:optimizeQuality; image-rendering:optimizeQuality;"
    ><path d="M220.2 279.8 L297.8 279.8 L297.8 357.4 L220.2 357.4 L220.2 279.8" style="fill:none; fill-rule:evenodd;"
    /></g
    ><g transform="translate(259,318.6)" style="font-size:13px; text-rendering:geometricPrecision; color-rendering:optimizeQuality; image-rendering:optimizeQuality; font-family:'SansSerif'; color-interpolation:linearRGB; font-weight:bold;"
    ><text x="-13.5681" xml:space="preserve" y="-3.0659" style="stroke:none;"
      >211</text
    ></g
    ><g transform="translate(259,318.6)" style="font-size:13px; text-rendering:geometricPrecision; color-rendering:optimizeQuality; image-rendering:optimizeQuality; font-family:'SansSerif'; color-interpolation:linearRGB;"
    ><text x="-16.5134" xml:space="preserve" y="12.0669" style="stroke:none;"
      >1.6%</text
    ></g
    ><g style="fill:gray; text-rendering:optimizeSpeed; color-rendering:optimizeSpeed; image-rendering:optimizeSpeed; shape-rendering:crispEdges; color-interpolation:sRGB; stroke:gray;"
    ><path style="stroke:none;" d="M220.2 357.4 L297.8 357.4 L297.8 435 Z"
      /><path style="stroke:none;" d="M220.2 357.4 L297.8 435 L220.2 435 Z"
    /></g
    ><g style="text-rendering:geometricPrecision; color-interpolation:linearRGB; color-rendering:optimizeQuality; image-rendering:optimizeQuality;"
    ><path d="M220.2 357.4 L297.8 357.4 L297.8 435 L220.2 435 L220.2 357.4" style="fill:none; fill-rule:evenodd;"
    /></g
    ><g transform="translate(259,396.2)" style="font-size:13px; fill:rgb(0,102,0); text-rendering:geometricPrecision; color-rendering:optimizeQuality; image-rendering:optimizeQuality; font-family:'SansSerif'; color-interpolation:linearRGB; stroke:rgb(0,102,0);"
    ><text x="-20.6489" xml:space="preserve" y="-3.0659" style="stroke:none;"
      >90.3%</text
    ></g
    ><g transform="translate(259,396.2)" style="font-size:13px; fill:rgb(102,0,0); text-rendering:geometricPrecision; color-rendering:optimizeQuality; image-rendering:optimizeQuality; font-family:'SansSerif'; color-interpolation:linearRGB; stroke:rgb(102,0,0);"
    ><text x="-16.5134" xml:space="preserve" y="12.0669" style="stroke:none;"
      >9.7%</text
    ></g
    ><g style="fill:rgb(230,140,140); text-rendering:optimizeSpeed; color-rendering:optimizeSpeed; image-rendering:optimizeSpeed; shape-rendering:crispEdges; color-interpolation:sRGB; stroke:rgb(230,140,140);"
    ><path style="stroke:none;" d="M297.8 47 L375.4 47 L375.4 124.6 Z"
      /><path style="stroke:none;" d="M297.8 47 L375.4 124.6 L297.8 124.6 Z"
    /></g
    ><g style="text-rendering:geometricPrecision; color-interpolation:linearRGB; color-rendering:optimizeQuality; image-rendering:optimizeQuality;"
    ><path d="M297.8 47 L375.4 47 L375.4 124.6 L297.8 124.6 L297.8 47" style="fill:none; fill-rule:evenodd;"
    /></g
    ><g transform="translate(336.6,85.8)" style="font-size:13px; text-rendering:geometricPrecision; color-rendering:optimizeQuality; image-rendering:optimizeQuality; font-family:'SansSerif'; color-interpolation:linearRGB; font-weight:bold;"
    ><text x="-9.0454" xml:space="preserve" y="-3.0659" style="stroke:none;"
      >66</text
    ></g
    ><g transform="translate(336.6,85.8)" style="font-size:13px; text-rendering:geometricPrecision; color-rendering:optimizeQuality; image-rendering:optimizeQuality; font-family:'SansSerif'; color-interpolation:linearRGB;"
    ><text x="-16.5134" xml:space="preserve" y="12.0669" style="stroke:none;"
      >0.5%</text
    ></g
    ><g style="fill:rgb(230,140,140); text-rendering:optimizeSpeed; color-rendering:optimizeSpeed; image-rendering:optimizeSpeed; shape-rendering:crispEdges; color-interpolation:sRGB; stroke:rgb(230,140,140);"
    ><path style="stroke:none;" d="M297.8 124.6 L375.4 124.6 L375.4 202.2 Z"
      /><path style="stroke:none;" d="M297.8 124.6 L375.4 202.2 L297.8 202.2 Z"
    /></g
    ><g style="text-rendering:geometricPrecision; color-interpolation:linearRGB; color-rendering:optimizeQuality; image-rendering:optimizeQuality;"
    ><path d="M297.8 124.6 L375.4 124.6 L375.4 202.2 L297.8 202.2 L297.8 124.6" style="fill:none; fill-rule:evenodd;"
    /></g
    ><g transform="translate(336.6,163.4)" style="font-size:13px; text-rendering:geometricPrecision; color-rendering:optimizeQuality; image-rendering:optimizeQuality; font-family:'SansSerif'; color-interpolation:linearRGB; font-weight:bold;"
    ><text x="-9.0454" xml:space="preserve" y="-3.0659" style="stroke:none;"
      >50</text
    ></g
    ><g transform="translate(336.6,163.4)" style="font-size:13px; text-rendering:geometricPrecision; color-rendering:optimizeQuality; image-rendering:optimizeQuality; font-family:'SansSerif'; color-interpolation:linearRGB;"
    ><text x="-16.5134" xml:space="preserve" y="12.0669" style="stroke:none;"
      >0.4%</text
    ></g
    ><g style="fill:rgb(230,140,140); text-rendering:optimizeSpeed; color-rendering:optimizeSpeed; image-rendering:optimizeSpeed; shape-rendering:crispEdges; color-interpolation:sRGB; stroke:rgb(230,140,140);"
    ><path style="stroke:none;" d="M297.8 202.2 L375.4 202.2 L375.4 279.8 Z"
      /><path style="stroke:none;" d="M297.8 202.2 L375.4 279.8 L297.8 279.8 Z"
    /></g
    ><g style="text-rendering:geometricPrecision; color-interpolation:linearRGB; color-rendering:optimizeQuality; image-rendering:optimizeQuality;"
    ><path d="M297.8 202.2 L375.4 202.2 L375.4 279.8 L297.8 279.8 L297.8 202.2" style="fill:none; fill-rule:evenodd;"
    /></g
    ><g transform="translate(336.6,241)" style="font-size:13px; text-rendering:geometricPrecision; color-rendering:optimizeQuality; image-rendering:optimizeQuality; font-family:'SansSerif'; color-interpolation:linearRGB; font-weight:bold;"
    ><text x="-13.5681" xml:space="preserve" y="-3.0659" style="stroke:none;"
      >201</text
    ></g
    ><g transform="translate(336.6,241)" style="font-size:13px; text-rendering:geometricPrecision; color-rendering:optimizeQuality; image-rendering:optimizeQuality; font-family:'SansSerif'; color-interpolation:linearRGB;"
    ><text x="-16.5134" xml:space="preserve" y="12.0669" style="stroke:none;"
      >1.5%</text
    ></g
    ><g style="fill:rgb(120,230,180); text-rendering:optimizeSpeed; color-rendering:optimizeSpeed; image-rendering:optimizeSpeed; shape-rendering:crispEdges; color-interpolation:sRGB; stroke:rgb(120,230,180);"
    ><path style="stroke:none;" d="M297.8 279.8 L375.4 279.8 L375.4 357.4 Z"
      /><path style="stroke:none;" d="M297.8 279.8 L375.4 357.4 L297.8 357.4 Z"
    /></g
    ><g style="text-rendering:geometricPrecision; color-interpolation:linearRGB; color-rendering:optimizeQuality; image-rendering:optimizeQuality;"
    ><path d="M297.8 279.8 L375.4 279.8 L375.4 357.4 L297.8 357.4 L297.8 279.8" style="fill:none; fill-rule:evenodd;"
    /></g
    ><g transform="translate(336.6,318.6)" style="font-size:13px; text-rendering:geometricPrecision; color-rendering:optimizeQuality; image-rendering:optimizeQuality; font-family:'SansSerif'; color-interpolation:linearRGB; font-weight:bold;"
    ><text x="-18.0908" xml:space="preserve" y="-3.0659" style="stroke:none;"
      >2956</text
    ></g
    ><g transform="translate(336.6,318.6)" style="font-size:13px; text-rendering:geometricPrecision; color-rendering:optimizeQuality; image-rendering:optimizeQuality; font-family:'SansSerif'; color-interpolation:linearRGB;"
    ><text x="-20.6489" xml:space="preserve" y="12.0669" style="stroke:none;"
      >22.7%</text
    ></g
    ><g style="fill:gray; text-rendering:optimizeSpeed; color-rendering:optimizeSpeed; image-rendering:optimizeSpeed; shape-rendering:crispEdges; color-interpolation:sRGB; stroke:gray;"
    ><path style="stroke:none;" d="M297.8 357.4 L375.4 357.4 L375.4 435 Z"
      /><path style="stroke:none;" d="M297.8 357.4 L375.4 435 L297.8 435 Z"
    /></g
    ><g style="text-rendering:geometricPrecision; color-interpolation:linearRGB; color-rendering:optimizeQuality; image-rendering:optimizeQuality;"
    ><path d="M297.8 357.4 L375.4 357.4 L375.4 435 L297.8 435 L297.8 357.4" style="fill:none; fill-rule:evenodd;"
    /></g
    ><g transform="translate(336.6,396.2)" style="font-size:13px; fill:rgb(0,102,0); text-rendering:geometricPrecision; color-rendering:optimizeQuality; image-rendering:optimizeQuality; font-family:'SansSerif'; color-interpolation:linearRGB; stroke:rgb(0,102,0);"
    ><text x="-20.6489" xml:space="preserve" y="-3.0659" style="stroke:none;"
      >90.3%</text
    ></g
    ><g transform="translate(336.6,396.2)" style="font-size:13px; fill:rgb(102,0,0); text-rendering:geometricPrecision; color-rendering:optimizeQuality; image-rendering:optimizeQuality; font-family:'SansSerif'; color-interpolation:linearRGB; stroke:rgb(102,0,0);"
    ><text x="-16.5134" xml:space="preserve" y="12.0669" style="stroke:none;"
      >9.7%</text
    ></g
    ><g style="fill:gray; text-rendering:optimizeSpeed; color-rendering:optimizeSpeed; image-rendering:optimizeSpeed; shape-rendering:crispEdges; color-interpolation:sRGB; stroke:gray;"
    ><path style="stroke:none;" d="M375.4 47 L453 47 L453 124.6 Z"
      /><path style="stroke:none;" d="M375.4 47 L453 124.6 L375.4 124.6 Z"
    /></g
    ><g style="text-rendering:geometricPrecision; color-interpolation:linearRGB; color-rendering:optimizeQuality; image-rendering:optimizeQuality;"
    ><path d="M375.4 47 L453 47 L453 124.6 L375.4 124.6 L375.4 47" style="fill:none; fill-rule:evenodd;"
    /></g
    ><g transform="translate(414.2,85.8)" style="font-size:13px; fill:rgb(0,102,0); text-rendering:geometricPrecision; color-rendering:optimizeQuality; image-rendering:optimizeQuality; font-family:'SansSerif'; color-interpolation:linearRGB; stroke:rgb(0,102,0);"
    ><text x="-20.6489" xml:space="preserve" y="-3.0659" style="stroke:none;"
      >84.4%</text
    ></g
    ><g transform="translate(414.2,85.8)" style="font-size:13px; fill:rgb(102,0,0); text-rendering:geometricPrecision; color-rendering:optimizeQuality; image-rendering:optimizeQuality; font-family:'SansSerif'; color-interpolation:linearRGB; stroke:rgb(102,0,0);"
    ><text x="-20.6489" xml:space="preserve" y="12.0669" style="stroke:none;"
      >15.6%</text
    ></g
    ><g style="fill:gray; text-rendering:optimizeSpeed; color-rendering:optimizeSpeed; image-rendering:optimizeSpeed; shape-rendering:crispEdges; color-interpolation:sRGB; stroke:gray;"
    ><path style="stroke:none;" d="M375.4 124.6 L453 124.6 L453 202.2 Z"
      /><path style="stroke:none;" d="M375.4 124.6 L453 202.2 L375.4 202.2 Z"
    /></g
    ><g style="text-rendering:geometricPrecision; color-interpolation:linearRGB; color-rendering:optimizeQuality; image-rendering:optimizeQuality;"
    ><path d="M375.4 124.6 L453 124.6 L453 202.2 L375.4 202.2 L375.4 124.6" style="fill:none; fill-rule:evenodd;"
    /></g
    ><g transform="translate(414.2,163.4)" style="font-size:13px; fill:rgb(0,102,0); text-rendering:geometricPrecision; color-rendering:optimizeQuality; image-rendering:optimizeQuality; font-family:'SansSerif'; color-interpolation:linearRGB; stroke:rgb(0,102,0);"
    ><text x="-20.6489" xml:space="preserve" y="-3.0659" style="stroke:none;"
      >85.5%</text
    ></g
    ><g transform="translate(414.2,163.4)" style="font-size:13px; fill:rgb(102,0,0); text-rendering:geometricPrecision; color-rendering:optimizeQuality; image-rendering:optimizeQuality; font-family:'SansSerif'; color-interpolation:linearRGB; stroke:rgb(102,0,0);"
    ><text x="-20.6489" xml:space="preserve" y="12.0669" style="stroke:none;"
      >14.5%</text
    ></g
    ><g style="fill:gray; text-rendering:optimizeSpeed; color-rendering:optimizeSpeed; image-rendering:optimizeSpeed; shape-rendering:crispEdges; color-interpolation:sRGB; stroke:gray;"
    ><path style="stroke:none;" d="M375.4 202.2 L453 202.2 L453 279.8 Z"
      /><path style="stroke:none;" d="M375.4 202.2 L453 279.8 L375.4 279.8 Z"
    /></g
    ><g style="text-rendering:geometricPrecision; color-interpolation:linearRGB; color-rendering:optimizeQuality; image-rendering:optimizeQuality;"
    ><path d="M375.4 202.2 L453 202.2 L453 279.8 L375.4 279.8 L375.4 202.2" style="fill:none; fill-rule:evenodd;"
    /></g
    ><g transform="translate(414.2,241)" style="font-size:13px; fill:rgb(0,102,0); text-rendering:geometricPrecision; color-rendering:optimizeQuality; image-rendering:optimizeQuality; font-family:'SansSerif'; color-interpolation:linearRGB; stroke:rgb(0,102,0);"
    ><text x="-20.6489" xml:space="preserve" y="-3.0659" style="stroke:none;"
      >89.6%</text
    ></g
    ><g transform="translate(414.2,241)" style="font-size:13px; fill:rgb(102,0,0); text-rendering:geometricPrecision; color-rendering:optimizeQuality; image-rendering:optimizeQuality; font-family:'SansSerif'; color-interpolation:linearRGB; stroke:rgb(102,0,0);"
    ><text x="-20.6489" xml:space="preserve" y="12.0669" style="stroke:none;"
      >10.4%</text
    ></g
    ><g style="fill:gray; text-rendering:optimizeSpeed; color-rendering:optimizeSpeed; image-rendering:optimizeSpeed; shape-rendering:crispEdges; color-interpolation:sRGB; stroke:gray;"
    ><path style="stroke:none;" d="M375.4 279.8 L453 279.8 L453 357.4 Z"
      /><path style="stroke:none;" d="M375.4 279.8 L453 357.4 L375.4 357.4 Z"
    /></g
    ><g style="text-rendering:geometricPrecision; color-interpolation:linearRGB; color-rendering:optimizeQuality; image-rendering:optimizeQuality;"
    ><path d="M375.4 279.8 L453 279.8 L453 357.4 L375.4 357.4 L375.4 279.8" style="fill:none; fill-rule:evenodd;"
    /></g
    ><g transform="translate(414.2,318.6)" style="font-size:13px; fill:rgb(0,102,0); text-rendering:geometricPrecision; color-rendering:optimizeQuality; image-rendering:optimizeQuality; font-family:'SansSerif'; color-interpolation:linearRGB; stroke:rgb(0,102,0);"
    ><text x="-20.6489" xml:space="preserve" y="-3.0659" style="stroke:none;"
      >91.0%</text
    ></g
    ><g transform="translate(414.2,318.6)" style="font-size:13px; fill:rgb(102,0,0); text-rendering:geometricPrecision; color-rendering:optimizeQuality; image-rendering:optimizeQuality; font-family:'SansSerif'; color-interpolation:linearRGB; stroke:rgb(102,0,0);"
    ><text x="-16.5134" xml:space="preserve" y="12.0669" style="stroke:none;"
      >9.0%</text
    ></g
    ><g style="fill:rgb(120,150,230); text-rendering:optimizeSpeed; color-rendering:optimizeSpeed; image-rendering:optimizeSpeed; shape-rendering:crispEdges; color-interpolation:sRGB; stroke:rgb(120,150,230);"
    ><path style="stroke:none;" d="M375.4 357.4 L453 357.4 L453 435 Z"
      /><path style="stroke:none;" d="M375.4 357.4 L453 435 L375.4 435 Z"
    /></g
    ><g style="text-rendering:geometricPrecision; color-interpolation:linearRGB; color-rendering:optimizeQuality; image-rendering:optimizeQuality;"
    ><path d="M375.4 357.4 L453 357.4 L453 435 L375.4 435 L375.4 357.4" style="fill:none; fill-rule:evenodd;"
    /></g
    ><g transform="translate(414.2,396.2)" style="font-size:13px; fill:rgb(0,102,0); text-rendering:geometricPrecision; color-rendering:optimizeQuality; image-rendering:optimizeQuality; font-family:'SansSerif'; color-interpolation:linearRGB; stroke:rgb(0,102,0); font-weight:bold;"
    ><text x="-22.55" xml:space="preserve" y="-3.0659" style="stroke:none;"
      >87.6%</text
    ></g
    ><g transform="translate(414.2,396.2)" style="font-size:13px; fill:rgb(102,0,0); text-rendering:geometricPrecision; color-rendering:optimizeQuality; image-rendering:optimizeQuality; font-family:'SansSerif'; color-interpolation:linearRGB; stroke:rgb(102,0,0); font-weight:bold;"
    ><text x="-22.55" xml:space="preserve" y="12.0669" style="stroke:none;"
      >12.4%</text
    ></g
    ><g style="fill:rgb(64,64,64); text-rendering:geometricPrecision; color-rendering:optimizeQuality; image-rendering:optimizeQuality; color-interpolation:linearRGB; stroke:rgb(64,64,64); stroke-width:2.6667;"
    ><line y2="435" style="fill:none;" x1="375.4" x2="375.4" y1="47"
      /><line y2="357.4" style="fill:none;" x1="65" x2="453" y1="357.4"
    /></g
    ><g transform="translate(259,43)" style="font-size:16px; text-rendering:geometricPrecision; color-rendering:optimizeQuality; image-rendering:optimizeQuality; font-family:'SansSerif'; color-interpolation:linearRGB; font-weight:bold;"
    ><text x="-115.1328" xml:space="preserve" y="-2.7734" style="stroke:none;"
      >Common Spatial Patterns</text
    ></g
  ></g
></svg
>
